(kicad_sch (version 20211123) (generator eeschema)

  (uuid e63e39d7-6ac0-4ffd-8aa3-1841a4541b55)

  (paper "A4")

  (lib_symbols
    (symbol "Mechanical:MountingHole_Pad" (pin_numbers hide) (pin_names (offset 1.016) hide) (in_bom yes) (on_board yes)
      (property "Reference" "H" (id 0) (at 0 6.35 0)
        (effects (font (size 1.27 1.27)))
      )
      (property "Value" "MountingHole_Pad" (id 1) (at 0 4.445 0)
        (effects (font (size 1.27 1.27)))
      )
      (property "Footprint" "" (id 2) (at 0 0 0)
        (effects (font (size 1.27 1.27)) hide)
      )
      (property "Datasheet" "~" (id 3) (at 0 0 0)
        (effects (font (size 1.27 1.27)) hide)
      )
      (property "ki_keywords" "mounting hole" (id 4) (at 0 0 0)
        (effects (font (size 1.27 1.27)) hide)
      )
      (property "ki_description" "Mounting Hole with connection" (id 5) (at 0 0 0)
        (effects (font (size 1.27 1.27)) hide)
      )
      (property "ki_fp_filters" "MountingHole*Pad*" (id 6) (at 0 0 0)
        (effects (font (size 1.27 1.27)) hide)
      )
      (symbol "MountingHole_Pad_0_1"
        (circle (center 0 1.27) (radius 1.27)
          (stroke (width 1.27) (type default) (color 0 0 0 0))
          (fill (type none))
        )
      )
      (symbol "MountingHole_Pad_1_1"
        (pin input line (at 0 -2.54 90) (length 2.54)
          (name "1" (effects (font (size 1.27 1.27))))
          (number "1" (effects (font (size 1.27 1.27))))
        )
      )
    )
    (symbol "power:GND" (power) (pin_names (offset 0)) (in_bom yes) (on_board yes)
      (property "Reference" "#PWR" (id 0) (at 0 -6.35 0)
        (effects (font (size 1.27 1.27)) hide)
      )
      (property "Value" "GND" (id 1) (at 0 -3.81 0)
        (effects (font (size 1.27 1.27)))
      )
      (property "Footprint" "" (id 2) (at 0 0 0)
        (effects (font (size 1.27 1.27)) hide)
      )
      (property "Datasheet" "" (id 3) (at 0 0 0)
        (effects (font (size 1.27 1.27)) hide)
      )
      (property "ki_keywords" "power-flag" (id 4) (at 0 0 0)
        (effects (font (size 1.27 1.27)) hide)
      )
      (property "ki_description" "Power symbol creates a global label with name \"GND\" , ground" (id 5) (at 0 0 0)
        (effects (font (size 1.27 1.27)) hide)
      )
      (symbol "GND_0_1"
        (polyline
          (pts
            (xy 0 0)
            (xy 0 -1.27)
            (xy 1.27 -1.27)
            (xy 0 -2.54)
            (xy -1.27 -1.27)
            (xy 0 -1.27)
          )
          (stroke (width 0) (type default) (color 0 0 0 0))
          (fill (type none))
        )
      )
      (symbol "GND_1_1"
        (pin power_in line (at 0 0 270) (length 0) hide
          (name "GND" (effects (font (size 1.27 1.27))))
          (number "1" (effects (font (size 1.27 1.27))))
        )
      )
    )
  )

  (junction (at 113.03 125.73) (diameter 0) (color 0 0 0 0)
    (uuid 9c8d9961-7d42-4968-a3e9-db9efc17b678)
  )
  (junction (at 109.22 128.27) (diameter 0) (color 0 0 0 0)
    (uuid cc9b603c-37e8-4677-be74-488604346f20)
  )
  (junction (at 124.46 86.36) (diameter 0) (color 0 0 0 0)
    (uuid eb3b75c6-f775-48c1-aa10-2016bd53ab26)
  )

  (bus (pts (xy 118.11 123.19) (xy 118.11 133.35))
    (stroke (width 0) (type default) (color 0 0 0 0))
    (uuid 031a6a7e-a60d-455c-9f03-7a8b457732c7)
  )
  (bus (pts (xy 124.46 57.15) (xy 129.54 57.15))
    (stroke (width 0) (type default) (color 0 0 0 0))
    (uuid 0461e4c0-bd9e-4764-88f9-855af7b71c56)
  )
  (bus (pts (xy 93.98 86.36) (xy 93.98 113.03))
    (stroke (width 0) (type default) (color 0 0 0 0))
    (uuid 07f871cb-a200-48e7-a7fd-6046b35a06c9)
  )

  (wire (pts (xy 88.9 116.84) (xy 99.06 116.84))
    (stroke (width 0) (type default) (color 0 0 0 0))
    (uuid 08a1a6e4-cd62-426a-974f-9a45857fa661)
  )
  (wire (pts (xy 88.9 128.27) (xy 109.22 128.27))
    (stroke (width 0) (type default) (color 0 0 0 0))
    (uuid 1b41440a-6f4d-4531-8480-5c030d77a226)
  )
  (wire (pts (xy 99.06 46.99) (xy 129.54 46.99))
    (stroke (width 0) (type default) (color 0 0 0 0))
    (uuid 1cf51c26-13c0-40b3-93ee-74d66bb7584c)
  )
  (bus (pts (xy 124.46 86.36) (xy 93.98 86.36))
    (stroke (width 0) (type default) (color 0 0 0 0))
    (uuid 1cf74f62-4204-415a-a7c7-5b7b3d1b4acf)
  )

  (wire (pts (xy 113.03 39.37) (xy 113.03 125.73))
    (stroke (width 0) (type default) (color 0 0 0 0))
    (uuid 2320ec5a-b111-405b-8e1a-6464119f59c4)
  )
  (wire (pts (xy 115.57 157.48) (xy 113.03 157.48))
    (stroke (width 0) (type default) (color 0 0 0 0))
    (uuid 35432e39-a3fc-4758-b543-19523162649b)
  )
  (bus (pts (xy 129.54 86.36) (xy 124.46 86.36))
    (stroke (width 0) (type default) (color 0 0 0 0))
    (uuid 3bcbefa6-380f-4630-adc1-9ba26160f803)
  )

  (wire (pts (xy 104.14 52.07) (xy 104.14 121.92))
    (stroke (width 0) (type default) (color 0 0 0 0))
    (uuid 4262fc36-5e2d-495d-b7ef-cbc004cc0c8f)
  )
  (wire (pts (xy 129.54 39.37) (xy 113.03 39.37))
    (stroke (width 0) (type default) (color 0 0 0 0))
    (uuid 53299945-ba9a-442f-99e1-f18efd912fce)
  )
  (wire (pts (xy 113.03 125.73) (xy 113.03 157.48))
    (stroke (width 0) (type default) (color 0 0 0 0))
    (uuid 5f290866-5d01-4526-8a99-1a01ceb94055)
  )
  (bus (pts (xy 135.89 123.19) (xy 118.11 123.19))
    (stroke (width 0) (type default) (color 0 0 0 0))
    (uuid 6ea496ec-6204-460c-a9b3-343e00e6c20a)
  )

  (wire (pts (xy 109.22 41.91) (xy 129.54 41.91))
    (stroke (width 0) (type default) (color 0 0 0 0))
    (uuid 6f98dc2e-9b3e-47b1-9330-7ce03fddae95)
  )
  (wire (pts (xy 104.14 52.07) (xy 129.54 52.07))
    (stroke (width 0) (type default) (color 0 0 0 0))
    (uuid 7664a625-ed6f-4b4d-ad22-cc0819c78f6e)
  )
  (wire (pts (xy 113.03 125.73) (xy 88.9 125.73))
    (stroke (width 0) (type default) (color 0 0 0 0))
    (uuid 7dd4272b-b82c-42e9-9f16-56068dcf33b0)
  )
  (wire (pts (xy 101.6 49.53) (xy 101.6 119.38))
    (stroke (width 0) (type default) (color 0 0 0 0))
    (uuid 8593c452-b9f4-47cd-9ea4-b13844c77890)
  )
  (wire (pts (xy 99.06 46.99) (xy 99.06 116.84))
    (stroke (width 0) (type default) (color 0 0 0 0))
    (uuid 9702b26e-8f96-4ff8-b705-423db9bbfad0)
  )
  (bus (pts (xy 93.98 113.03) (xy 88.9 113.03))
    (stroke (width 0) (type default) (color 0 0 0 0))
    (uuid 970b7450-c6d5-48aa-93ff-85219b80b92c)
  )

  (wire (pts (xy 129.54 49.53) (xy 101.6 49.53))
    (stroke (width 0) (type default) (color 0 0 0 0))
    (uuid 9c031de1-6161-450d-800f-b3052f569a59)
  )
  (wire (pts (xy 88.9 121.92) (xy 104.14 121.92))
    (stroke (width 0) (type default) (color 0 0 0 0))
    (uuid aaf40f5d-9fa6-49a5-85ba-7a9a1eb45a81)
  )
  (wire (pts (xy 109.22 128.27) (xy 109.22 161.29))
    (stroke (width 0) (type default) (color 0 0 0 0))
    (uuid bb7abe64-212f-4e48-8106-62c736c728f2)
  )
  (wire (pts (xy 109.22 161.29) (xy 115.57 161.29))
    (stroke (width 0) (type default) (color 0 0 0 0))
    (uuid d62b3f06-cdf6-429c-8c5a-acaff999c53a)
  )
  (bus (pts (xy 124.46 86.36) (xy 124.46 57.15))
    (stroke (width 0) (type default) (color 0 0 0 0))
    (uuid dd0eafd7-25ce-44d7-a10c-a650eff20991)
  )

  (wire (pts (xy 101.6 119.38) (xy 88.9 119.38))
    (stroke (width 0) (type default) (color 0 0 0 0))
    (uuid e56a5248-3a4d-4d62-9239-5675c4f04852)
  )
  (wire (pts (xy 109.22 41.91) (xy 109.22 128.27))
    (stroke (width 0) (type default) (color 0 0 0 0))
    (uuid ec69f9f1-9933-48c5-9eb2-3c3218bb4bde)
  )
  (bus (pts (xy 118.11 133.35) (xy 88.9 133.35))
    (stroke (width 0) (type default) (color 0 0 0 0))
    (uuid ff180cd5-22c2-433c-a8e5-3f56527315a0)
  )

  (symbol (lib_id "Mechanical:MountingHole_Pad") (at 234.95 156.21 0) (unit 1)
    (in_bom yes) (on_board yes) (fields_autoplaced)
    (uuid 14932aff-5110-4d07-8611-373632fb735c)
    (property "Reference" "H2" (id 0) (at 237.49 153.6699 0)
      (effects (font (size 1.27 1.27)) (justify left) hide)
    )
    (property "Value" "MountingHole_Pad" (id 1) (at 237.49 156.2099 0)
      (effects (font (size 1.27 1.27)) (justify left))
    )
    (property "Footprint" "MountingHole:MountingHole_3.2mm_M3_Pad_Via" (id 2) (at 234.95 156.21 0)
      (effects (font (size 1.27 1.27)) hide)
    )
    (property "Datasheet" "~" (id 3) (at 234.95 156.21 0)
      (effects (font (size 1.27 1.27)) hide)
    )
    (pin "1" (uuid 5bc21aba-f440-4705-8422-2e2c2bf1940b))
  )

  (symbol (lib_id "power:GND") (at 259.08 158.75 0) (unit 1)
    (in_bom yes) (on_board yes) (fields_autoplaced)
    (uuid 16464f2c-f0ca-4440-874c-3adae81333bc)
    (property "Reference" "#PWR0312" (id 0) (at 259.08 165.1 0)
      (effects (font (size 1.27 1.27)) hide)
    )
    (property "Value" "GND" (id 1) (at 259.08 163.83 0))
    (property "Footprint" "" (id 2) (at 259.08 158.75 0)
      (effects (font (size 1.27 1.27)) hide)
    )
    (property "Datasheet" "" (id 3) (at 259.08 158.75 0)
      (effects (font (size 1.27 1.27)) hide)
    )
    (pin "1" (uuid 38e9af7f-09f5-4f1d-a0f8-7e5d52fc1fe0))
  )

  (symbol (lib_id "Mechanical:MountingHole_Pad") (at 259.08 142.24 0) (unit 1)
    (in_bom yes) (on_board yes) (fields_autoplaced)
    (uuid 1bfa8854-5b92-4d76-b548-e33855d88d69)
    (property "Reference" "H3" (id 0) (at 261.62 139.6999 0)
      (effects (font (size 1.27 1.27)) (justify left) hide)
    )
    (property "Value" "MountingHole_Pad" (id 1) (at 261.62 142.2399 0)
      (effects (font (size 1.27 1.27)) (justify left))
    )
    (property "Footprint" "MountingHole:MountingHole_3.2mm_M3_Pad_Via" (id 2) (at 259.08 142.24 0)
      (effects (font (size 1.27 1.27)) hide)
    )
    (property "Datasheet" "~" (id 3) (at 259.08 142.24 0)
      (effects (font (size 1.27 1.27)) hide)
    )
    (pin "1" (uuid 176371c0-214c-4559-b6e5-2745b911d76b))
  )

  (symbol (lib_id "power:GND") (at 234.95 158.75 0) (unit 1)
    (in_bom yes) (on_board yes) (fields_autoplaced)
    (uuid 82a5eafb-73a6-408a-8458-dc7841347290)
    (property "Reference" "#PWR0309" (id 0) (at 234.95 165.1 0)
      (effects (font (size 1.27 1.27)) hide)
    )
    (property "Value" "GND" (id 1) (at 234.95 163.83 0))
    (property "Footprint" "" (id 2) (at 234.95 158.75 0)
      (effects (font (size 1.27 1.27)) hide)
    )
    (property "Datasheet" "" (id 3) (at 234.95 158.75 0)
      (effects (font (size 1.27 1.27)) hide)
    )
    (pin "1" (uuid c2a7a027-7db8-4250-8ec1-25031d0b1847))
  )

  (symbol (lib_id "Mechanical:MountingHole_Pad") (at 234.95 142.24 0) (unit 1)
    (in_bom yes) (on_board yes) (fields_autoplaced)
    (uuid b053dcd2-5869-4afe-90f7-0d52577a3ce5)
    (property "Reference" "H1" (id 0) (at 237.49 139.6999 0)
      (effects (font (size 1.27 1.27)) (justify left) hide)
    )
    (property "Value" "MountingHole_Pad" (id 1) (at 237.49 142.2399 0)
      (effects (font (size 1.27 1.27)) (justify left))
    )
    (property "Footprint" "MountingHole:MountingHole_3.2mm_M3_Pad_Via" (id 2) (at 234.95 142.24 0)
      (effects (font (size 1.27 1.27)) hide)
    )
    (property "Datasheet" "~" (id 3) (at 234.95 142.24 0)
      (effects (font (size 1.27 1.27)) hide)
    )
    (pin "1" (uuid 41f7dc8c-4def-4054-a10a-d89be68c5df0))
  )

  (symbol (lib_id "Mechanical:MountingHole_Pad") (at 259.08 156.21 0) (unit 1)
    (in_bom yes) (on_board yes) (fields_autoplaced)
    (uuid c4486852-abab-46dd-9e1e-920e3934e037)
    (property "Reference" "H4" (id 0) (at 261.62 153.6699 0)
      (effects (font (size 1.27 1.27)) (justify left) hide)
    )
    (property "Value" "MountingHole_Pad" (id 1) (at 261.62 156.2099 0)
      (effects (font (size 1.27 1.27)) (justify left))
    )
    (property "Footprint" "MountingHole:MountingHole_3.2mm_M3_Pad_Via" (id 2) (at 259.08 156.21 0)
      (effects (font (size 1.27 1.27)) hide)
    )
    (property "Datasheet" "~" (id 3) (at 259.08 156.21 0)
      (effects (font (size 1.27 1.27)) hide)
    )
    (pin "1" (uuid a45f6067-e932-4c57-b111-cc058ad7dbaa))
  )

  (symbol (lib_id "power:GND") (at 234.95 144.78 0) (unit 1)
    (in_bom yes) (on_board yes) (fields_autoplaced)
    (uuid e0858474-31a6-4c13-977f-120b7ca05c08)
    (property "Reference" "#PWR0311" (id 0) (at 234.95 151.13 0)
      (effects (font (size 1.27 1.27)) hide)
    )
    (property "Value" "GND" (id 1) (at 234.95 149.86 0))
    (property "Footprint" "" (id 2) (at 234.95 144.78 0)
      (effects (font (size 1.27 1.27)) hide)
    )
    (property "Datasheet" "" (id 3) (at 234.95 144.78 0)
      (effects (font (size 1.27 1.27)) hide)
    )
    (pin "1" (uuid 54807a21-fffa-4ef9-a9cb-5c68b4eb5745))
  )

  (symbol (lib_id "power:GND") (at 259.08 144.78 0) (unit 1)
    (in_bom yes) (on_board yes) (fields_autoplaced)
    (uuid ff9600ee-92f7-4104-babf-ffb3c6e6fe1b)
    (property "Reference" "#PWR0310" (id 0) (at 259.08 151.13 0)
      (effects (font (size 1.27 1.27)) hide)
    )
    (property "Value" "GND" (id 1) (at 259.08 149.86 0))
    (property "Footprint" "" (id 2) (at 259.08 144.78 0)
      (effects (font (size 1.27 1.27)) hide)
    )
    (property "Datasheet" "" (id 3) (at 259.08 144.78 0)
      (effects (font (size 1.27 1.27)) hide)
    )
    (pin "1" (uuid b44b37ad-387b-41aa-a411-0d0e94f9139e))
  )

  (sheet (at 129.54 35.56) (size 31.75 26.67) (fields_autoplaced)
    (stroke (width 0.1524) (type solid) (color 0 0 0 0))
    (fill (color 0 0 0 0.0000))
    (uuid 17367a18-62b6-48ee-8824-ba43c65939d9)
    (property "Sheet name" "ENCODERS COMMUNICATION" (id 0) (at 129.54 34.8484 0)
      (effects (font (size 1.27 1.27)) (justify left bottom))
    )
    (property "Sheet file" "encoderscommunication.kicad_sch" (id 1) (at 129.54 62.8146 0)
      (effects (font (size 1.27 1.27)) (justify left top))
    )
    (pin "STM_SDA" tri_state (at 129.54 39.37 180)
      (effects (font (size 1.27 1.27)) (justify left))
      (uuid 3cc858fb-83c2-48a1-9e18-4d9945c23db4)
    )
    (pin "STM_SCL" input (at 129.54 41.91 180)
      (effects (font (size 1.27 1.27)) (justify left))
      (uuid b357779d-4a94-4191-876f-073c0ec5da3b)
    )
    (pin "STM_SCK" input (at 129.54 46.99 180)
      (effects (font (size 1.27 1.27)) (justify left))
      (uuid c32537ae-0953-44e2-81f5-92df2263a67b)
    )
    (pin "STM_MISO" output (at 129.54 52.07 180)
      (effects (font (size 1.27 1.27)) (justify left))
      (uuid 09fcc9a3-8e32-4587-9e11-74c6956194df)
    )
    (pin "STM_MOSI" input (at 129.54 49.53 180)
      (effects (font (size 1.27 1.27)) (justify left))
      (uuid 8bfeacd7-6bb1-4a09-904e-35a5c628484e)
    )
    (pin "ENCODER[0..11]" bidirectional (at 129.54 57.15 180)
      (effects (font (size 1.27 1.27)) (justify left))
      (uuid e9cd35b8-a994-4234-a6e6-36486674b740)
    )
  )

  (sheet (at 115.57 146.05) (size 38.1 27.94)
    (stroke (width 0.1524) (type solid) (color 0 0 0 0))
    (fill (color 0 0 0 0.0000))
    (uuid 3f43d730-2a73-49fe-9672-32428e7f5b49)
    (property "Sheet name" "Power Distribution" (id 0) (at 115.57 145.3384 0)
      (effects (font (size 1.27 1.27)) (justify left bottom))
    )
    (property "Sheet file" "power.kicad_sch" (id 1) (at 115.57 173.99 0)
      (effects (font (size 1.27 1.27)) (justify left top))
    )
    (pin "STM_SDA" tri_state (at 115.57 157.48 180)
      (effects (font (size 1.27 1.27)) (justify left))
      (uuid fcd769a1-a1ff-4f38-9863-32bdb66ddf4f)
    )
    (pin "STM_SCL" input (at 115.57 161.29 180)
      (effects (font (size 1.27 1.27)) (justify left))
      (uuid 46893561-1874-4e46-a343-739eba2baf9d)
    )
  )

  (sheet (at 57.15 107.95) (size 31.75 30.48) (fields_autoplaced)
    (stroke (width 0.1524) (type solid) (color 0 0 0 0))
    (fill (color 0 0 0 0.0000))
    (uuid 6311912c-38c9-4819-91b4-41931ccb7cc5)
    (property "Sheet name" "STM32" (id 0) (at 57.15 107.2384 0)
      (effects (font (size 1.27 1.27)) (justify left bottom))
    )
    (property "Sheet file" "mcu.kicad_sch" (id 1) (at 57.15 139.0146 0)
      (effects (font (size 1.27 1.27)) (justify left top))
    )
    (pin "STM_SDA" tri_state (at 88.9 125.73 0)
      (effects (font (size 1.27 1.27)) (justify right))
      (uuid 198ad8a8-7af1-4664-9227-10b90e250102)
    )
    (pin "STM_SCL" output (at 88.9 128.27 0)
      (effects (font (size 1.27 1.27)) (justify right))
      (uuid 64f5bc7c-9985-47a8-9a5c-0a966e7bc663)
    )
    (pin "STM_SCK" output (at 88.9 116.84 0)
      (effects (font (size 1.27 1.27)) (justify right))
      (uuid ed220792-9339-4a65-b37c-9c4f80cd2d8c)
    )
    (pin "STM_MOSI" output (at 88.9 119.38 0)
      (effects (font (size 1.27 1.27)) (justify right))
      (uuid a74dd39b-0980-446b-aa80-23f0633b0388)
    )
    (pin "STM_MISO" input (at 88.9 121.92 0)
      (effects (font (size 1.27 1.27)) (justify right))
      (uuid 5ed51485-8f9f-4f83-ac86-69c64ec101bb)
    )
    (pin "ENCODER[0..11]" bidirectional (at 88.9 113.03 0)
      (effects (font (size 1.27 1.27)) (justify right))
      (uuid 5804e4d7-0d8d-4989-96ea-b5011e28898d)
    )
    (pin "MOTOR[0..11]" bidirectional (at 88.9 133.35 0)
      (effects (font (size 1.27 1.27)) (justify right))
      (uuid 1bcb74a0-e091-4de4-b0da-1da35a82867d)
    )
  )

  (sheet (at 129.54 73.66) (size 31.75 22.86) (fields_autoplaced)
    (stroke (width 0.1524) (type solid) (color 0 0 0 0))
    (fill (color 0 0 0 0.0000))
    (uuid abfe2d16-5c1c-42e5-a5b8-7ee7611663a0)
    (property "Sheet name" "Encoders" (id 0) (at 129.54 72.9484 0)
      (effects (font (size 1.27 1.27)) (justify left bottom))
    )
    (property "Sheet file" "encoders.kicad_sch" (id 1) (at 129.54 97.1046 0)
      (effects (font (size 1.27 1.27)) (justify left top))
    )
    (pin "ENCODER[0..11]" bidirectional (at 129.54 86.36 180)
      (effects (font (size 1.27 1.27)) (justify left))
      (uuid 2ddbfcbd-c72b-4e5c-91b0-bfe1fa3676d1)
    )
  )

  (sheet (at 135.89 111.76) (size 30.48 21.59) (fields_autoplaced)
    (stroke (width 0.1524) (type solid) (color 0 0 0 0))
    (fill (color 0 0 0 0.0000))
    (uuid aff73507-4f3a-4fb5-a966-c2bc3ad0d300)
    (property "Sheet name" "DC Drivers" (id 0) (at 135.89 111.0484 0)
      (effects (font (size 1.27 1.27)) (justify left bottom))
    )
    (property "Sheet file" "dcdrivers.kicad_sch" (id 1) (at 135.89 133.9346 0)
      (effects (font (size 1.27 1.27)) (justify left top))
    )
    (pin "MOTOR[0..11]" input (at 135.89 123.19 180)
      (effects (font (size 1.27 1.27)) (justify left))
      (uuid bd5c2494-d9a6-44d5-95e2-2dd9df3eefff)
    )
  )

  (sheet_instances
    (path "/" (page "1"))
    (path "/3f43d730-2a73-49fe-9672-32428e7f5b49" (page "2"))
    (path "/aff73507-4f3a-4fb5-a966-c2bc3ad0d300" (page "3"))
    (path "/6311912c-38c9-4819-91b4-41931ccb7cc5" (page "4"))
    (path "/abfe2d16-5c1c-42e5-a5b8-7ee7611663a0" (page "5"))
    (path "/17367a18-62b6-48ee-8824-ba43c65939d9" (page "6"))
  )

  (symbol_instances
    (path "/3f43d730-2a73-49fe-9672-32428e7f5b49/212e6fcf-cc77-4e03-9f14-5fefa6ac803e"
      (reference "#PWR0101") (unit 1) (value "GND") (footprint "")
    )
    (path "/3f43d730-2a73-49fe-9672-32428e7f5b49/7aa994e8-1f73-4fe7-9ad9-dd1582ab51c6"
      (reference "#PWR0102") (unit 1) (value "GND") (footprint "")
    )
    (path "/3f43d730-2a73-49fe-9672-32428e7f5b49/e8e2a42b-4764-4ddf-83b2-0fc1d04b1100"
      (reference "#PWR0103") (unit 1) (value "GND") (footprint "")
    )
    (path "/3f43d730-2a73-49fe-9672-32428e7f5b49/fb94e6a5-5702-4c03-a071-9b54cf462fc7"
      (reference "#PWR0104") (unit 1) (value "GND") (footprint "")
    )
    (path "/3f43d730-2a73-49fe-9672-32428e7f5b49/68893c49-643c-4565-a793-f8374570cb0e"
      (reference "#PWR0105") (unit 1) (value "+3.3V") (footprint "")
    )
    (path "/3f43d730-2a73-49fe-9672-32428e7f5b49/54cd6eb8-cad4-4b44-900b-f468aa52b0bf"
      (reference "#PWR0106") (unit 1) (value "GND") (footprint "")
    )
    (path "/3f43d730-2a73-49fe-9672-32428e7f5b49/6dc1a48b-2e25-4d3d-8bc6-4d4adba15391"
      (reference "#PWR0107") (unit 1) (value "+3.3V") (footprint "")
    )
    (path "/3f43d730-2a73-49fe-9672-32428e7f5b49/f09822c0-7fac-44ce-a87f-366f7a49f250"
      (reference "#PWR0108") (unit 1) (value "GND") (footprint "")
    )
    (path "/3f43d730-2a73-49fe-9672-32428e7f5b49/cbe9fda5-c211-40b0-ac05-e61a76980bb0"
      (reference "#PWR0109") (unit 1) (value "GND") (footprint "")
    )
    (path "/3f43d730-2a73-49fe-9672-32428e7f5b49/36709ce8-feaf-4ca8-a999-4108fb101352"
      (reference "#PWR0110") (unit 1) (value "GND") (footprint "")
    )
    (path "/3f43d730-2a73-49fe-9672-32428e7f5b49/61905319-c9ab-48a1-8ad4-dd8f8e3ec440"
      (reference "#PWR0111") (unit 1) (value "GND") (footprint "")
    )
    (path "/3f43d730-2a73-49fe-9672-32428e7f5b49/3b2671f5-1b3d-40db-9cc2-b93fd38ede46"
      (reference "#PWR0112") (unit 1) (value "GND") (footprint "")
    )
    (path "/3f43d730-2a73-49fe-9672-32428e7f5b49/612a1402-9494-49b4-b097-59759990ab56"
      (reference "#PWR0113") (unit 1) (value "GND") (footprint "")
    )
    (path "/3f43d730-2a73-49fe-9672-32428e7f5b49/64aa84e5-9ded-49dd-8e7e-712f478ed907"
      (reference "#PWR0114") (unit 1) (value "GND") (footprint "")
    )
    (path "/3f43d730-2a73-49fe-9672-32428e7f5b49/8fbd6db2-f06c-4143-a638-a2eaad9d8bf4"
      (reference "#PWR0115") (unit 1) (value "GND") (footprint "")
    )
    (path "/3f43d730-2a73-49fe-9672-32428e7f5b49/612a71a2-c2c2-4d55-9b21-61a69d600497"
      (reference "#PWR0116") (unit 1) (value "GND") (footprint "")
    )
    (path "/3f43d730-2a73-49fe-9672-32428e7f5b49/baf6c2aa-2fac-4d10-b2c8-23177962e585"
      (reference "#PWR0117") (unit 1) (value "GND") (footprint "")
    )
    (path "/3f43d730-2a73-49fe-9672-32428e7f5b49/eceb391c-6ee3-4c15-9993-7c8f0f476996"
      (reference "#PWR0118") (unit 1) (value "GND") (footprint "")
    )
    (path "/3f43d730-2a73-49fe-9672-32428e7f5b49/f486bc93-735d-45b8-a0cb-ce4db7a2d0f3"
      (reference "#PWR0119") (unit 1) (value "+5V") (footprint "")
    )
    (path "/3f43d730-2a73-49fe-9672-32428e7f5b49/f940397b-29a5-4617-bd9c-f177a971b5e8"
      (reference "#PWR0120") (unit 1) (value "GND") (footprint "")
    )
    (path "/3f43d730-2a73-49fe-9672-32428e7f5b49/c84e14d3-e4ed-44aa-a72a-e3cd27cfffa7"
      (reference "#PWR0121") (unit 1) (value "GND") (footprint "")
    )
    (path "/3f43d730-2a73-49fe-9672-32428e7f5b49/75c56b73-e91e-4c3e-8fb7-792f0cb19b7b"
      (reference "#PWR0122") (unit 1) (value "GND") (footprint "")
    )
    (path "/aff73507-4f3a-4fb5-a966-c2bc3ad0d300/2fc087c4-af55-4e2f-9561-87aae50ff013"
      (reference "#PWR0123") (unit 1) (value "GND") (footprint "")
    )
    (path "/aff73507-4f3a-4fb5-a966-c2bc3ad0d300/f2b887c8-52db-432b-8e35-1dea0a3cd773"
      (reference "#PWR0124") (unit 1) (value "GND") (footprint "")
    )
    (path "/aff73507-4f3a-4fb5-a966-c2bc3ad0d300/ce94a0db-cbe6-46f6-a251-701c5e777ae0"
      (reference "#PWR0125") (unit 1) (value "GND") (footprint "")
    )
    (path "/aff73507-4f3a-4fb5-a966-c2bc3ad0d300/0c56ad89-20b9-4dc9-ba1a-7966feaf4501"
      (reference "#PWR0126") (unit 1) (value "GND") (footprint "")
    )
    (path "/3f43d730-2a73-49fe-9672-32428e7f5b49/bdc89afc-357d-49a0-9e83-77b15310f4ae"
      (reference "#PWR0127") (unit 1) (value "+3.3V") (footprint "")
    )
    (path "/3f43d730-2a73-49fe-9672-32428e7f5b49/5bbaa6ab-8140-475d-b0b4-3e049ceaf868"
      (reference "#PWR0128") (unit 1) (value "+3.3V") (footprint "")
    )
    (path "/3f43d730-2a73-49fe-9672-32428e7f5b49/de59c335-2cc5-45bf-a7a0-f47433d6f80d"
      (reference "#PWR0129") (unit 1) (value "VCC") (footprint "")
    )
    (path "/3f43d730-2a73-49fe-9672-32428e7f5b49/3da133a0-900a-419b-919b-b0b8cf353a10"
      (reference "#PWR0130") (unit 1) (value "VCC") (footprint "")
    )
    (path "/aff73507-4f3a-4fb5-a966-c2bc3ad0d300/3a63a5f2-bab3-49b9-888c-b86712972e88"
      (reference "#PWR0131") (unit 1) (value "GND") (footprint "")
    )
    (path "/aff73507-4f3a-4fb5-a966-c2bc3ad0d300/17eb964f-6993-47ea-9227-3d2aee00e342"
      (reference "#PWR0132") (unit 1) (value "GND") (footprint "")
    )
    (path "/aff73507-4f3a-4fb5-a966-c2bc3ad0d300/9a54bebf-4da2-47f4-865b-85f4accafebf"
      (reference "#PWR0133") (unit 1) (value "GND") (footprint "")
    )
    (path "/aff73507-4f3a-4fb5-a966-c2bc3ad0d300/ad073c91-e509-4fe5-a9a9-56553ee8c5f1"
      (reference "#PWR0134") (unit 1) (value "GND") (footprint "")
    )
    (path "/aff73507-4f3a-4fb5-a966-c2bc3ad0d300/eecde87c-a226-4b42-8a3f-b42fa10f9830"
      (reference "#PWR0135") (unit 1) (value "GND") (footprint "")
    )
    (path "/aff73507-4f3a-4fb5-a966-c2bc3ad0d300/32ec46d5-9b0a-41aa-9696-e43ef2eba054"
      (reference "#PWR0136") (unit 1) (value "GND") (footprint "")
    )
    (path "/aff73507-4f3a-4fb5-a966-c2bc3ad0d300/9f9df34d-3fd8-4505-81dd-f8f2119bdb62"
      (reference "#PWR0137") (unit 1) (value "GND") (footprint "")
    )
    (path "/aff73507-4f3a-4fb5-a966-c2bc3ad0d300/eb0806c5-c45a-4118-8af7-e5b803fcc588"
      (reference "#PWR0138") (unit 1) (value "GND") (footprint "")
    )
    (path "/aff73507-4f3a-4fb5-a966-c2bc3ad0d300/8ba3967e-0a78-43e0-8070-e6404513f09c"
      (reference "#PWR0139") (unit 1) (value "GND") (footprint "")
    )
    (path "/aff73507-4f3a-4fb5-a966-c2bc3ad0d300/98c914a6-c8a2-4565-9c93-5376c73ac13e"
      (reference "#PWR0140") (unit 1) (value "GND") (footprint "")
    )
    (path "/aff73507-4f3a-4fb5-a966-c2bc3ad0d300/1775a28c-5e93-4237-9114-70555dd8e04a"
      (reference "#PWR0141") (unit 1) (value "GND") (footprint "")
    )
    (path "/aff73507-4f3a-4fb5-a966-c2bc3ad0d300/8d7d4c95-5e2a-4e9c-a92a-fc492e1c937b"
      (reference "#PWR0142") (unit 1) (value "GND") (footprint "")
    )
    (path "/aff73507-4f3a-4fb5-a966-c2bc3ad0d300/f31bcc1f-b47d-4e64-b2aa-703af7f43030"
      (reference "#PWR0143") (unit 1) (value "GND") (footprint "")
    )
    (path "/aff73507-4f3a-4fb5-a966-c2bc3ad0d300/1d8ebaa2-88af-40e3-9c58-ae3664c98c32"
      (reference "#PWR0144") (unit 1) (value "GND") (footprint "")
    )
    (path "/aff73507-4f3a-4fb5-a966-c2bc3ad0d300/a997d02e-cded-486a-9b33-880c36fbfeec"
      (reference "#PWR0145") (unit 1) (value "GND") (footprint "")
    )
    (path "/aff73507-4f3a-4fb5-a966-c2bc3ad0d300/5c1fbd5f-b606-404b-8562-2ef18c88bc96"
      (reference "#PWR0146") (unit 1) (value "GND") (footprint "")
    )
    (path "/aff73507-4f3a-4fb5-a966-c2bc3ad0d300/461154aa-7b37-4525-be17-b5178c0ca877"
      (reference "#PWR0147") (unit 1) (value "GND") (footprint "")
    )
    (path "/aff73507-4f3a-4fb5-a966-c2bc3ad0d300/3c7ec9ba-4288-4f43-92b8-c4f7b4672f43"
      (reference "#PWR0148") (unit 1) (value "GND") (footprint "")
    )
    (path "/aff73507-4f3a-4fb5-a966-c2bc3ad0d300/655fa8f4-4880-4fce-9b4b-96d189b28e1f"
      (reference "#PWR0149") (unit 1) (value "GND") (footprint "")
    )
    (path "/aff73507-4f3a-4fb5-a966-c2bc3ad0d300/0c3fd3c0-f526-4210-95b1-f626f23c578e"
      (reference "#PWR0150") (unit 1) (value "GND") (footprint "")
    )
    (path "/aff73507-4f3a-4fb5-a966-c2bc3ad0d300/a902ef74-2962-4db7-8e0f-ea8cb53f2bcc"
      (reference "#PWR0151") (unit 1) (value "GND") (footprint "")
    )
    (path "/3f43d730-2a73-49fe-9672-32428e7f5b49/80fd3027-56f7-420d-9334-ab56f4c7dcf9"
      (reference "#PWR0152") (unit 1) (value "VCC") (footprint "")
    )
    (path "/3f43d730-2a73-49fe-9672-32428e7f5b49/84141420-8482-43bf-bb81-588c27d384ac"
      (reference "#PWR0153") (unit 1) (value "+3.3V") (footprint "")
    )
    (path "/aff73507-4f3a-4fb5-a966-c2bc3ad0d300/63dc309c-5004-4c44-bfba-29b89261f0c9"
      (reference "#PWR0154") (unit 1) (value "GND") (footprint "")
    )
    (path "/aff73507-4f3a-4fb5-a966-c2bc3ad0d300/8b826ac2-fe55-4c3a-962b-d4aeb7b070d1"
      (reference "#PWR0155") (unit 1) (value "GND") (footprint "")
    )
    (path "/aff73507-4f3a-4fb5-a966-c2bc3ad0d300/b85123cd-7e7f-43d2-8972-75bd5cf91002"
      (reference "#PWR0156") (unit 1) (value "GND") (footprint "")
    )
    (path "/aff73507-4f3a-4fb5-a966-c2bc3ad0d300/b2b49da2-549c-46d4-972e-ac43ae4ce6b7"
      (reference "#PWR0157") (unit 1) (value "GND") (footprint "")
    )
    (path "/aff73507-4f3a-4fb5-a966-c2bc3ad0d300/94169c42-43cb-4e9a-bf61-31a62c1e156c"
      (reference "#PWR0158") (unit 1) (value "GND") (footprint "")
    )
    (path "/6311912c-38c9-4819-91b4-41931ccb7cc5/40c46fd9-f9c7-4976-88af-8ab03b1cb2d4"
      (reference "#PWR0159") (unit 1) (value "GND") (footprint "")
    )
    (path "/3f43d730-2a73-49fe-9672-32428e7f5b49/49d2bb05-8320-455d-9434-67988d77d0b2"
      (reference "#PWR0160") (unit 1) (value "VCC") (footprint "")
    )
    (path "/6311912c-38c9-4819-91b4-41931ccb7cc5/d1c28eb6-ea9b-4daf-80c9-9ace6f5de6b2"
      (reference "#PWR0161") (unit 1) (value "GND") (footprint "")
    )
    (path "/6311912c-38c9-4819-91b4-41931ccb7cc5/16a4c256-7ea1-4039-8721-53abc67725b0"
      (reference "#PWR0162") (unit 1) (value "GND") (footprint "")
    )
    (path "/3f43d730-2a73-49fe-9672-32428e7f5b49/7533c627-4a6b-400d-985a-e97ad2b78222"
      (reference "#PWR0163") (unit 1) (value "GND") (footprint "")
    )
    (path "/6311912c-38c9-4819-91b4-41931ccb7cc5/37b1db58-91f9-4c13-9acc-9ca8bc9a3995"
      (reference "#PWR0164") (unit 1) (value "+3.3V") (footprint "")
    )
    (path "/6311912c-38c9-4819-91b4-41931ccb7cc5/cd270243-32d6-429b-86d8-cecd7a356121"
      (reference "#PWR0165") (unit 1) (value "GND") (footprint "")
    )
    (path "/6311912c-38c9-4819-91b4-41931ccb7cc5/b18d7170-7e65-4653-b9f4-ee2e69881775"
      (reference "#PWR0166") (unit 1) (value "GND") (footprint "")
    )
    (path "/6311912c-38c9-4819-91b4-41931ccb7cc5/92cc9e25-3f3d-4a56-909f-1edd5e0ba70a"
      (reference "#PWR0167") (unit 1) (value "GND") (footprint "")
    )
    (path "/6311912c-38c9-4819-91b4-41931ccb7cc5/5d231eb8-2543-4cb0-bbc5-5fb6a711e1ad"
      (reference "#PWR0168") (unit 1) (value "GND") (footprint "")
    )
    (path "/6311912c-38c9-4819-91b4-41931ccb7cc5/e92f444f-8de3-4a85-849c-7dc5982fa2f5"
      (reference "#PWR0169") (unit 1) (value "GND") (footprint "")
    )
    (path "/3f43d730-2a73-49fe-9672-32428e7f5b49/21bee7b8-980d-4307-890f-3c5489bb9b56"
      (reference "#PWR0170") (unit 1) (value "GND") (footprint "")
    )
    (path "/6311912c-38c9-4819-91b4-41931ccb7cc5/9a5597a5-e7c1-4a5b-88bb-4fb9892237c6"
      (reference "#PWR0171") (unit 1) (value "GND") (footprint "")
    )
    (path "/abfe2d16-5c1c-42e5-a5b8-7ee7611663a0/f7944de0-9bfc-4146-a8bd-fc31a81f6321"
      (reference "#PWR0172") (unit 1) (value "GND") (footprint "")
    )
    (path "/abfe2d16-5c1c-42e5-a5b8-7ee7611663a0/47b84981-2f36-40c4-b60d-be5bb653d2eb"
      (reference "#PWR0173") (unit 1) (value "+5V") (footprint "")
    )
    (path "/abfe2d16-5c1c-42e5-a5b8-7ee7611663a0/375505ac-ad3d-45aa-8159-2e76e493d945"
      (reference "#PWR0174") (unit 1) (value "+3.3V") (footprint "")
    )
    (path "/abfe2d16-5c1c-42e5-a5b8-7ee7611663a0/8aafc401-ffae-448b-9e3c-dcbafa8ee4ae"
      (reference "#PWR0175") (unit 1) (value "+3.3V") (footprint "")
    )
    (path "/abfe2d16-5c1c-42e5-a5b8-7ee7611663a0/e990d4aa-3652-4433-98b4-deb8fc5b6e36"
      (reference "#PWR0176") (unit 1) (value "+5V") (footprint "")
    )
    (path "/abfe2d16-5c1c-42e5-a5b8-7ee7611663a0/b7de4c06-37c0-4c26-804c-c08816ce96fa"
      (reference "#PWR0177") (unit 1) (value "+3.3V") (footprint "")
    )
    (path "/abfe2d16-5c1c-42e5-a5b8-7ee7611663a0/537de099-5d58-4354-a5d1-41534516687d"
      (reference "#PWR0178") (unit 1) (value "GND") (footprint "")
    )
    (path "/abfe2d16-5c1c-42e5-a5b8-7ee7611663a0/6b77e5b9-1335-4489-99cc-1145e5e31d25"
      (reference "#PWR0179") (unit 1) (value "+5V") (footprint "")
    )
    (path "/abfe2d16-5c1c-42e5-a5b8-7ee7611663a0/361dde02-8ad6-4f9a-b3ee-dfd4ddac8ea5"
      (reference "#PWR0180") (unit 1) (value "GND") (footprint "")
    )
    (path "/abfe2d16-5c1c-42e5-a5b8-7ee7611663a0/8f0f8b4a-77b5-4abe-8a9a-58791271b7a9"
      (reference "#PWR0181") (unit 1) (value "GND") (footprint "")
    )
    (path "/3f43d730-2a73-49fe-9672-32428e7f5b49/5a951968-bff5-4e4f-a1c5-aecb7e0f59ce"
      (reference "#PWR0182") (unit 1) (value "VCC") (footprint "")
    )
    (path "/abfe2d16-5c1c-42e5-a5b8-7ee7611663a0/4b55ab8d-3d25-4749-917a-35a5565a4517"
      (reference "#PWR0183") (unit 1) (value "+3.3V") (footprint "")
    )
    (path "/abfe2d16-5c1c-42e5-a5b8-7ee7611663a0/7c41420b-128e-49a8-b4f9-f6c9a4ff93bf"
      (reference "#PWR0184") (unit 1) (value "+5V") (footprint "")
    )
    (path "/abfe2d16-5c1c-42e5-a5b8-7ee7611663a0/f6ae9014-51ca-49e5-a5d1-f518f8ecc1af"
      (reference "#PWR0185") (unit 1) (value "GND") (footprint "")
    )
    (path "/3f43d730-2a73-49fe-9672-32428e7f5b49/80a463f3-ea21-46bc-9e90-4b8597333cfb"
      (reference "#PWR0186") (unit 1) (value "VCC") (footprint "")
    )
    (path "/3f43d730-2a73-49fe-9672-32428e7f5b49/753c13cd-d88e-42c5-87b3-44a0bda007f4"
      (reference "#PWR0187") (unit 1) (value "+3.3V") (footprint "")
    )
    (path "/3f43d730-2a73-49fe-9672-32428e7f5b49/c31c242f-9b63-4cd7-a377-82985f5cb941"
      (reference "#PWR0188") (unit 1) (value "+3.3V") (footprint "")
    )
    (path "/abfe2d16-5c1c-42e5-a5b8-7ee7611663a0/372a83b7-5f77-4b86-b839-cebca53fcf7e"
      (reference "#PWR0189") (unit 1) (value "+5V") (footprint "")
    )
    (path "/abfe2d16-5c1c-42e5-a5b8-7ee7611663a0/d8ce0016-280c-487a-9b5d-76b748ed5c87"
      (reference "#PWR0190") (unit 1) (value "+3.3V") (footprint "")
    )
    (path "/abfe2d16-5c1c-42e5-a5b8-7ee7611663a0/ab085ac2-a8af-450a-812e-d345127f917d"
      (reference "#PWR0191") (unit 1) (value "GND") (footprint "")
    )
    (path "/3f43d730-2a73-49fe-9672-32428e7f5b49/08a7117d-2f7a-4cbf-a413-3837c5b36203"
      (reference "#PWR0192") (unit 1) (value "GND") (footprint "")
    )
    (path "/3f43d730-2a73-49fe-9672-32428e7f5b49/1c297131-deeb-400e-918a-e0d68f026d4d"
      (reference "#PWR0193") (unit 1) (value "+5V") (footprint "")
    )
    (path "/abfe2d16-5c1c-42e5-a5b8-7ee7611663a0/06bb3f45-447c-4427-a22e-547ea162f89d"
      (reference "#PWR0194") (unit 1) (value "GND") (footprint "")
    )
    (path "/3f43d730-2a73-49fe-9672-32428e7f5b49/857a03da-91f7-4bb3-b8f6-37552a69cb9b"
      (reference "#PWR0195") (unit 1) (value "+3.3V") (footprint "")
    )
    (path "/abfe2d16-5c1c-42e5-a5b8-7ee7611663a0/a65be345-5cb7-49c1-919a-d990268bf528"
      (reference "#PWR0196") (unit 1) (value "+5V") (footprint "")
    )
    (path "/3f43d730-2a73-49fe-9672-32428e7f5b49/b092272b-afc2-4b95-b23e-48c3d3080f6e"
      (reference "#PWR0197") (unit 1) (value "VCC") (footprint "")
    )
    (path "/abfe2d16-5c1c-42e5-a5b8-7ee7611663a0/7e2897f4-b09a-4878-bc00-0c414add9317"
      (reference "#PWR0198") (unit 1) (value "+5V") (footprint "")
    )
    (path "/abfe2d16-5c1c-42e5-a5b8-7ee7611663a0/56b6f6ec-f586-4803-b0b1-eba1adced09a"
      (reference "#PWR0199") (unit 1) (value "+5V") (footprint "")
    )
    (path "/abfe2d16-5c1c-42e5-a5b8-7ee7611663a0/3807abf3-208d-4f79-b69d-b762c583d6b4"
      (reference "#PWR0200") (unit 1) (value "GND") (footprint "")
    )
    (path "/abfe2d16-5c1c-42e5-a5b8-7ee7611663a0/e498af4e-9088-43ed-989e-dcc9fe5c98b4"
      (reference "#PWR0201") (unit 1) (value "GND") (footprint "")
    )
    (path "/abfe2d16-5c1c-42e5-a5b8-7ee7611663a0/bb7a8128-735d-467b-8241-6deafa240179"
      (reference "#PWR0202") (unit 1) (value "+5V") (footprint "")
    )
    (path "/abfe2d16-5c1c-42e5-a5b8-7ee7611663a0/2264f84e-0fc4-4309-8bfa-4b0d7e57c43f"
      (reference "#PWR0203") (unit 1) (value "GND") (footprint "")
    )
    (path "/6311912c-38c9-4819-91b4-41931ccb7cc5/382ade0d-c70b-4a93-8823-28153b44faf7"
      (reference "#PWR0204") (unit 1) (value "+3.3V") (footprint "")
    )
    (path "/6311912c-38c9-4819-91b4-41931ccb7cc5/e1957c7b-0dd7-4cef-bd07-a2ced97f05fd"
      (reference "#PWR0205") (unit 1) (value "+3.3VADC") (footprint "")
    )
    (path "/abfe2d16-5c1c-42e5-a5b8-7ee7611663a0/95de5241-7acb-4e2e-ae87-3751a27b920d"
      (reference "#PWR0206") (unit 1) (value "GND") (footprint "")
    )
    (path "/abfe2d16-5c1c-42e5-a5b8-7ee7611663a0/00134f72-8472-450d-9aae-931d7a5ae819"
      (reference "#PWR0207") (unit 1) (value "GND") (footprint "")
    )
    (path "/abfe2d16-5c1c-42e5-a5b8-7ee7611663a0/7ef1891d-0889-49a6-8aaf-d1ef0c6988b0"
      (reference "#PWR0208") (unit 1) (value "+5V") (footprint "")
    )
    (path "/abfe2d16-5c1c-42e5-a5b8-7ee7611663a0/ff10ddb2-6ad1-4c6c-a7cf-114f725acccc"
      (reference "#PWR0209") (unit 1) (value "GND") (footprint "")
    )
    (path "/abfe2d16-5c1c-42e5-a5b8-7ee7611663a0/0ad1dabc-dc41-4b22-a869-5fa19c6e4fe6"
      (reference "#PWR0210") (unit 1) (value "GND") (footprint "")
    )
    (path "/abfe2d16-5c1c-42e5-a5b8-7ee7611663a0/df0a1b40-6da4-420e-aad0-e979e5f928fd"
      (reference "#PWR0211") (unit 1) (value "+5V") (footprint "")
    )
    (path "/abfe2d16-5c1c-42e5-a5b8-7ee7611663a0/4fe260d4-e411-4c34-aaac-c284026127f0"
      (reference "#PWR0212") (unit 1) (value "GND") (footprint "")
    )
    (path "/abfe2d16-5c1c-42e5-a5b8-7ee7611663a0/fe8559c2-df01-46ae-abc6-2e831996a1d9"
      (reference "#PWR0213") (unit 1) (value "+3.3V") (footprint "")
    )
    (path "/abfe2d16-5c1c-42e5-a5b8-7ee7611663a0/010a0c24-81d9-46e5-94f5-1e693125ae41"
      (reference "#PWR0214") (unit 1) (value "+5V") (footprint "")
    )
    (path "/abfe2d16-5c1c-42e5-a5b8-7ee7611663a0/c5d2cc45-9cad-4d8e-8b55-e0a68b7f469d"
      (reference "#PWR0215") (unit 1) (value "+3.3V") (footprint "")
    )
    (path "/abfe2d16-5c1c-42e5-a5b8-7ee7611663a0/bab0e1bf-24e2-43a9-8883-11c410286525"
      (reference "#PWR0216") (unit 1) (value "GND") (footprint "")
    )
    (path "/abfe2d16-5c1c-42e5-a5b8-7ee7611663a0/6db1ae4d-467c-4bee-bd4b-08c83035b4b7"
      (reference "#PWR0217") (unit 1) (value "+3.3V") (footprint "")
    )
    (path "/abfe2d16-5c1c-42e5-a5b8-7ee7611663a0/5136d83c-6155-449e-87da-4c355bd71d12"
      (reference "#PWR0218") (unit 1) (value "GND") (footprint "")
    )
    (path "/abfe2d16-5c1c-42e5-a5b8-7ee7611663a0/37b67ecf-7ec9-4111-a25e-1c95859f6ae1"
      (reference "#PWR0219") (unit 1) (value "GND") (footprint "")
    )
    (path "/abfe2d16-5c1c-42e5-a5b8-7ee7611663a0/25a67101-6085-4755-b161-f5e82a742bed"
      (reference "#PWR0220") (unit 1) (value "+5V") (footprint "")
    )
    (path "/abfe2d16-5c1c-42e5-a5b8-7ee7611663a0/e12f555e-9b9e-4c9a-910f-e568e928d0b2"
      (reference "#PWR0221") (unit 1) (value "GND") (footprint "")
    )
    (path "/abfe2d16-5c1c-42e5-a5b8-7ee7611663a0/758b8611-9fe8-4f09-a2ef-f47b80ddb433"
      (reference "#PWR0222") (unit 1) (value "GND") (footprint "")
    )
    (path "/abfe2d16-5c1c-42e5-a5b8-7ee7611663a0/0612bf9c-1533-44b8-9dc2-eadab4619b8b"
      (reference "#PWR0223") (unit 1) (value "+5V") (footprint "")
    )
    (path "/abfe2d16-5c1c-42e5-a5b8-7ee7611663a0/1c4de7c1-ad48-4788-8fd2-855cf74a0b26"
      (reference "#PWR0224") (unit 1) (value "+3.3V") (footprint "")
    )
    (path "/abfe2d16-5c1c-42e5-a5b8-7ee7611663a0/7e9f816f-5c12-4983-9fe1-2b867b133073"
      (reference "#PWR0225") (unit 1) (value "GND") (footprint "")
    )
    (path "/abfe2d16-5c1c-42e5-a5b8-7ee7611663a0/4018dc8a-fa4c-4ddc-a3cc-d324393d86ea"
      (reference "#PWR0226") (unit 1) (value "+3.3V") (footprint "")
    )
    (path "/abfe2d16-5c1c-42e5-a5b8-7ee7611663a0/5693f7b5-80f9-4cfd-8476-eaa7fe156a85"
      (reference "#PWR0227") (unit 1) (value "GND") (footprint "")
    )
    (path "/abfe2d16-5c1c-42e5-a5b8-7ee7611663a0/38174050-6937-404c-ae1b-b4e619c0c547"
      (reference "#PWR0228") (unit 1) (value "+5V") (footprint "")
    )
    (path "/abfe2d16-5c1c-42e5-a5b8-7ee7611663a0/923677f4-2c36-4d99-8d30-d5948a4ad2c3"
      (reference "#PWR0229") (unit 1) (value "GND") (footprint "")
    )
    (path "/abfe2d16-5c1c-42e5-a5b8-7ee7611663a0/07a90896-00ba-4c1a-b3dd-1f2c4bab33da"
      (reference "#PWR0230") (unit 1) (value "GND") (footprint "")
    )
    (path "/abfe2d16-5c1c-42e5-a5b8-7ee7611663a0/689b14eb-e930-44c9-81ce-33a812d1e69c"
      (reference "#PWR0231") (unit 1) (value "GND") (footprint "")
    )
    (path "/3f43d730-2a73-49fe-9672-32428e7f5b49/b5425c34-ca3a-4e32-8541-353f17769616"
      (reference "#PWR0232") (unit 1) (value "+3.3V") (footprint "")
    )
    (path "/3f43d730-2a73-49fe-9672-32428e7f5b49/0470bf8c-51db-40be-bed4-b8b12f1552af"
      (reference "#PWR0233") (unit 1) (value "GND") (footprint "")
    )
    (path "/6311912c-38c9-4819-91b4-41931ccb7cc5/38ec2d7e-e963-4369-9041-9e4b6e14e6c3"
      (reference "#PWR0234") (unit 1) (value "+3.3V") (footprint "")
    )
    (path "/3f43d730-2a73-49fe-9672-32428e7f5b49/d33731c6-492b-4bd2-a07a-a357ad0b0982"
      (reference "#PWR0235") (unit 1) (value "VCC") (footprint "")
    )
    (path "/aff73507-4f3a-4fb5-a966-c2bc3ad0d300/8b43f0a2-18e1-4e34-b7d7-92f4dff0bce5"
      (reference "#PWR0236") (unit 1) (value "+3V3") (footprint "")
    )
    (path "/aff73507-4f3a-4fb5-a966-c2bc3ad0d300/ce94b8f9-26bd-466d-b82a-193e071ba5f4"
      (reference "#PWR0237") (unit 1) (value "+3V3") (footprint "")
    )
    (path "/6311912c-38c9-4819-91b4-41931ccb7cc5/ebc5bc95-f7fe-4fb5-ae15-1b052f248839"
      (reference "#PWR0238") (unit 1) (value "+3.3V") (footprint "")
    )
    (path "/aff73507-4f3a-4fb5-a966-c2bc3ad0d300/28ed2833-fdf9-4d9c-a610-abf8316b23cc"
      (reference "#PWR0239") (unit 1) (value "+3V3") (footprint "")
    )
    (path "/aff73507-4f3a-4fb5-a966-c2bc3ad0d300/424cf156-dd16-437e-9973-03fc4b4b8d11"
      (reference "#PWR0240") (unit 1) (value "+3V3") (footprint "")
    )
    (path "/6311912c-38c9-4819-91b4-41931ccb7cc5/a2e31223-aad3-4e8f-a5af-f9b582f8a751"
      (reference "#PWR0241") (unit 1) (value "GND") (footprint "")
    )
    (path "/6311912c-38c9-4819-91b4-41931ccb7cc5/9adaa0c8-28a3-4990-9d65-9393d641274a"
      (reference "#PWR0242") (unit 1) (value "+3.3V") (footprint "")
    )
    (path "/6311912c-38c9-4819-91b4-41931ccb7cc5/a310d553-9235-4850-86c3-427af3c08476"
      (reference "#PWR0243") (unit 1) (value "GND") (footprint "")
    )
    (path "/aff73507-4f3a-4fb5-a966-c2bc3ad0d300/8d184cc2-cd24-446e-8413-e7d65d7f2671"
      (reference "#PWR0244") (unit 1) (value "+3V3") (footprint "")
    )
    (path "/aff73507-4f3a-4fb5-a966-c2bc3ad0d300/55113079-323a-40f0-bc94-4aaf48f78a5b"
      (reference "#PWR0245") (unit 1) (value "GND") (footprint "")
    )
    (path "/aff73507-4f3a-4fb5-a966-c2bc3ad0d300/0ef3391c-448f-4046-9390-a1228c05017a"
      (reference "#PWR0246") (unit 1) (value "GND") (footprint "")
    )
    (path "/6311912c-38c9-4819-91b4-41931ccb7cc5/4a8e7710-ff22-4607-9ab7-3fc0593a05be"
      (reference "#PWR0247") (unit 1) (value "GND") (footprint "")
    )
    (path "/aff73507-4f3a-4fb5-a966-c2bc3ad0d300/a16ea363-07ef-4986-8f97-4e5827bfc40a"
      (reference "#PWR0248") (unit 1) (value "+3V3") (footprint "")
    )
    (path "/aff73507-4f3a-4fb5-a966-c2bc3ad0d300/63c0c257-b237-44b1-8be5-c99ab2879bf9"
      (reference "#PWR0249") (unit 1) (value "GND") (footprint "")
    )
    (path "/6311912c-38c9-4819-91b4-41931ccb7cc5/5d57f896-c023-4362-9115-273183811ab9"
      (reference "#PWR0250") (unit 1) (value "GND") (footprint "")
    )
    (path "/6311912c-38c9-4819-91b4-41931ccb7cc5/65196200-0371-40fe-95a2-484c97c204f5"
      (reference "#PWR0251") (unit 1) (value "+3.3V") (footprint "")
    )
    (path "/6311912c-38c9-4819-91b4-41931ccb7cc5/d6341f0b-3126-4004-ac8f-b8e2dc111f3e"
      (reference "#PWR0252") (unit 1) (value "+3.3V") (footprint "")
    )
    (path "/6311912c-38c9-4819-91b4-41931ccb7cc5/e301ca42-8c45-47e6-8914-5db14c9b2051"
      (reference "#PWR0253") (unit 1) (value "GND") (footprint "")
    )
    (path "/6311912c-38c9-4819-91b4-41931ccb7cc5/6915247d-59d5-4715-afc5-7e38d88c5986"
      (reference "#PWR0254") (unit 1) (value "+3.3VADC") (footprint "")
    )
    (path "/aff73507-4f3a-4fb5-a966-c2bc3ad0d300/55353944-8c11-49be-be3d-d07e829aa29a"
      (reference "#PWR0255") (unit 1) (value "GND") (footprint "")
    )
    (path "/aff73507-4f3a-4fb5-a966-c2bc3ad0d300/c85bdaed-a095-4db8-982c-7b9bbb91d0c7"
      (reference "#PWR0256") (unit 1) (value "GND") (footprint "")
    )
    (path "/aff73507-4f3a-4fb5-a966-c2bc3ad0d300/2a38ac1a-d81c-483d-ad7a-b9b1b9098892"
      (reference "#PWR0257") (unit 1) (value "GND") (footprint "")
    )
    (path "/6311912c-38c9-4819-91b4-41931ccb7cc5/bfaf1c3a-98da-490f-b7fe-409a6ca35686"
      (reference "#PWR0258") (unit 1) (value "+5V") (footprint "")
    )
    (path "/6311912c-38c9-4819-91b4-41931ccb7cc5/4ed12e01-f47c-4130-a0d0-49db07fd3a26"
      (reference "#PWR0259") (unit 1) (value "+5V") (footprint "")
    )
    (path "/abfe2d16-5c1c-42e5-a5b8-7ee7611663a0/b1de99b3-013e-42dd-8c95-991e438a2608"
      (reference "#PWR0260") (unit 1) (value "GND") (footprint "")
    )
    (path "/abfe2d16-5c1c-42e5-a5b8-7ee7611663a0/82404ccf-4ffc-4176-9c7a-088310175c24"
      (reference "#PWR0261") (unit 1) (value "+5V") (footprint "")
    )
    (path "/abfe2d16-5c1c-42e5-a5b8-7ee7611663a0/542fa9b3-6131-4101-a34c-dabe179fcb69"
      (reference "#PWR0262") (unit 1) (value "+5V") (footprint "")
    )
    (path "/abfe2d16-5c1c-42e5-a5b8-7ee7611663a0/ccffcf74-09b1-4abe-ad09-98939af159e6"
      (reference "#PWR0263") (unit 1) (value "GND") (footprint "")
    )
    (path "/abfe2d16-5c1c-42e5-a5b8-7ee7611663a0/2bf09722-1a57-40a8-a416-4ed0be5a4ebd"
      (reference "#PWR0264") (unit 1) (value "+3.3V") (footprint "")
    )
    (path "/abfe2d16-5c1c-42e5-a5b8-7ee7611663a0/e7690fa6-b4fa-4f65-bca8-9ed3d4378cd5"
      (reference "#PWR0265") (unit 1) (value "GND") (footprint "")
    )
    (path "/abfe2d16-5c1c-42e5-a5b8-7ee7611663a0/49c0f617-c7e0-48d9-9137-818168a65cd9"
      (reference "#PWR0266") (unit 1) (value "+3.3V") (footprint "")
    )
    (path "/abfe2d16-5c1c-42e5-a5b8-7ee7611663a0/6233cb11-66fa-49cf-a929-32133269bb43"
      (reference "#PWR0267") (unit 1) (value "GND") (footprint "")
    )
    (path "/abfe2d16-5c1c-42e5-a5b8-7ee7611663a0/ede8f06c-d1c8-40c3-96b1-a677a736fe06"
      (reference "#PWR0268") (unit 1) (value "+5V") (footprint "")
    )
    (path "/abfe2d16-5c1c-42e5-a5b8-7ee7611663a0/4ffbf585-8c2f-43e0-9024-828150f35637"
      (reference "#PWR0269") (unit 1) (value "GND") (footprint "")
    )
    (path "/17367a18-62b6-48ee-8824-ba43c65939d9/63c11700-3d9f-4c2e-a3db-1a699ed6eb57"
      (reference "#PWR0270") (unit 1) (value "GND") (footprint "")
    )
    (path "/17367a18-62b6-48ee-8824-ba43c65939d9/2fab27ac-4ac3-409c-9f52-f1e7cdf98f91"
      (reference "#PWR0271") (unit 1) (value "+3.3V") (footprint "")
    )
    (path "/17367a18-62b6-48ee-8824-ba43c65939d9/40fd394d-a090-4b84-8bef-5ff24d955dd3"
      (reference "#PWR0272") (unit 1) (value "+3.3V") (footprint "")
    )
    (path "/17367a18-62b6-48ee-8824-ba43c65939d9/20df8117-25bc-44c2-9a73-1e8153832b40"
      (reference "#PWR0273") (unit 1) (value "GND") (footprint "")
    )
    (path "/17367a18-62b6-48ee-8824-ba43c65939d9/dac529cd-30d8-4642-a114-4ab2d84a3f34"
      (reference "#PWR0274") (unit 1) (value "+3.3V") (footprint "")
    )
    (path "/17367a18-62b6-48ee-8824-ba43c65939d9/5b4805b4-5eca-4d5f-9a20-6a344c69bf51"
      (reference "#PWR0275") (unit 1) (value "GND") (footprint "")
    )
    (path "/17367a18-62b6-48ee-8824-ba43c65939d9/31cf8a81-89e7-4bb9-a709-556f085aa8fa"
      (reference "#PWR0276") (unit 1) (value "+3.3V") (footprint "")
    )
    (path "/17367a18-62b6-48ee-8824-ba43c65939d9/dcd2775a-e7cd-4b82-a43c-0ccbe540d392"
      (reference "#PWR0277") (unit 1) (value "GND") (footprint "")
    )
    (path "/17367a18-62b6-48ee-8824-ba43c65939d9/90baab12-6833-4c83-9d67-e1d5556d7a95"
      (reference "#PWR0278") (unit 1) (value "GND") (footprint "")
    )
    (path "/17367a18-62b6-48ee-8824-ba43c65939d9/6c648132-a5d0-4dce-b8a5-19d170faf018"
      (reference "#PWR0279") (unit 1) (value "+3.3V") (footprint "")
    )
    (path "/17367a18-62b6-48ee-8824-ba43c65939d9/cd2c4865-eaaf-4d2f-aaff-004f05628e34"
      (reference "#PWR0280") (unit 1) (value "+3.3V") (footprint "")
    )
    (path "/17367a18-62b6-48ee-8824-ba43c65939d9/9083031d-8050-463e-bec6-23c59d257bf6"
      (reference "#PWR0281") (unit 1) (value "GND") (footprint "")
    )
    (path "/17367a18-62b6-48ee-8824-ba43c65939d9/f76ce54e-4b1e-47ae-b9ec-e2d85a86eb55"
      (reference "#PWR0282") (unit 1) (value "GND") (footprint "")
    )
    (path "/17367a18-62b6-48ee-8824-ba43c65939d9/3bf3b32e-412f-4028-a8a6-bb5343c7e570"
      (reference "#PWR0283") (unit 1) (value "+5V") (footprint "")
    )
    (path "/17367a18-62b6-48ee-8824-ba43c65939d9/ef1f44d8-80ac-40e7-97fc-4193d7c8771a"
      (reference "#PWR0284") (unit 1) (value "+5V") (footprint "")
    )
    (path "/17367a18-62b6-48ee-8824-ba43c65939d9/1127e884-4298-4ae8-a28b-62e5b751142e"
      (reference "#PWR0285") (unit 1) (value "GND") (footprint "")
    )
    (path "/17367a18-62b6-48ee-8824-ba43c65939d9/34a3507b-1f8a-432f-a6e9-b0d19bd2e19f"
      (reference "#PWR0286") (unit 1) (value "+5V") (footprint "")
    )
    (path "/17367a18-62b6-48ee-8824-ba43c65939d9/ca59c9af-1d2f-4121-b04c-99fbeb393163"
      (reference "#PWR0287") (unit 1) (value "GND") (footprint "")
    )
    (path "/17367a18-62b6-48ee-8824-ba43c65939d9/9ab72549-0894-4711-ab36-29d11984a08e"
      (reference "#PWR0288") (unit 1) (value "+5V") (footprint "")
    )
    (path "/17367a18-62b6-48ee-8824-ba43c65939d9/2e1f7ca1-35f7-4197-ae1d-8bb91306dcd4"
      (reference "#PWR0289") (unit 1) (value "GND") (footprint "")
    )
    (path "/17367a18-62b6-48ee-8824-ba43c65939d9/0edb995e-1a6f-4fcb-aae2-9bb96d99aedf"
      (reference "#PWR0290") (unit 1) (value "+5V") (footprint "")
    )
    (path "/17367a18-62b6-48ee-8824-ba43c65939d9/d256d276-1f63-42a6-97b3-e8f0f98fb65a"
      (reference "#PWR0291") (unit 1) (value "GND") (footprint "")
    )
    (path "/17367a18-62b6-48ee-8824-ba43c65939d9/4eab6a34-1541-4a22-9d8c-dbcbde9d8b6d"
      (reference "#PWR0292") (unit 1) (value "+5V") (footprint "")
    )
    (path "/17367a18-62b6-48ee-8824-ba43c65939d9/b7511e0d-9b86-45de-aa29-931ef52f559b"
      (reference "#PWR0293") (unit 1) (value "GND") (footprint "")
    )
    (path "/3f43d730-2a73-49fe-9672-32428e7f5b49/1b20e84e-9373-48ac-b8ac-e94b0e0d876c"
      (reference "#PWR0294") (unit 1) (value "VCC") (footprint "")
    )
    (path "/3f43d730-2a73-49fe-9672-32428e7f5b49/460f3b83-6521-4ec7-a8eb-4a72dab803b5"
      (reference "#PWR0295") (unit 1) (value "GND") (footprint "")
    )
    (path "/3f43d730-2a73-49fe-9672-32428e7f5b49/cc58ed08-0960-4ad3-b652-4043f3a6927d"
      (reference "#PWR0296") (unit 1) (value "+3V3") (footprint "")
    )
    (path "/3f43d730-2a73-49fe-9672-32428e7f5b49/020691ec-cdec-4ed6-8249-0c2d1f9fd508"
      (reference "#PWR0297") (unit 1) (value "+3V3") (footprint "")
    )
    (path "/82a5eafb-73a6-408a-8458-dc7841347290"
      (reference "#PWR0309") (unit 1) (value "GND") (footprint "")
    )
    (path "/ff9600ee-92f7-4104-babf-ffb3c6e6fe1b"
      (reference "#PWR0310") (unit 1) (value "GND") (footprint "")
    )
    (path "/e0858474-31a6-4c13-977f-120b7ca05c08"
      (reference "#PWR0311") (unit 1) (value "GND") (footprint "")
    )
    (path "/16464f2c-f0ca-4440-874c-3adae81333bc"
      (reference "#PWR0312") (unit 1) (value "GND") (footprint "")
    )
    (path "/3f43d730-2a73-49fe-9672-32428e7f5b49/e7987f0c-e4c6-4aae-a5d6-e1cfea057719"
      (reference "C1") (unit 1) (value "10uF") (footprint "Capacitor_SMD:C_1206_3216Metric")
    )
    (path "/3f43d730-2a73-49fe-9672-32428e7f5b49/96785331-65e6-4566-adf9-070f1845b78d"
      (reference "C2") (unit 1) (value "100nF") (footprint "Capacitor_SMD:C_0402_1005Metric")
    )
    (path "/3f43d730-2a73-49fe-9672-32428e7f5b49/5c03c1d9-d8b4-4ea8-b0da-dd0de7a34585"
      (reference "C3") (unit 1) (value "100nF") (footprint "Capacitor_SMD:C_0402_1005Metric")
    )
    (path "/3f43d730-2a73-49fe-9672-32428e7f5b49/85bb00e6-b011-4c26-a705-27e94bc057b1"
      (reference "C4") (unit 1) (value "100nF") (footprint "Capacitor_SMD:C_0402_1005Metric")
    )
    (path "/3f43d730-2a73-49fe-9672-32428e7f5b49/8bdf40b7-7312-4b98-8ee3-177dfa3c1a46"
      (reference "C5") (unit 1) (value "10nF") (footprint "Capacitor_SMD:C_0402_1005Metric")
    )
    (path "/3f43d730-2a73-49fe-9672-32428e7f5b49/89311f2b-7f4a-4f24-93ac-72dc2e834d5d"
      (reference "C6") (unit 1) (value "220u") (footprint "Capacitor_SMD:CP_Elec_10x10.5")
    )
    (path "/3f43d730-2a73-49fe-9672-32428e7f5b49/2d72a87b-e3f5-4fa8-bc66-4f3978b4ef5c"
      (reference "C7") (unit 1) (value "100nF") (footprint "Capacitor_SMD:C_0402_1005Metric")
    )
    (path "/3f43d730-2a73-49fe-9672-32428e7f5b49/536d7dd5-c7fc-46e3-8b0b-193383266d3a"
      (reference "C8") (unit 1) (value "100nF") (footprint "Capacitor_SMD:C_0402_1005Metric")
    )
    (path "/3f43d730-2a73-49fe-9672-32428e7f5b49/355c1c7a-4b91-4dcd-9fcb-1f852aeb6fda"
      (reference "C9") (unit 1) (value "22u") (footprint "Capacitor_SMD:C_1206_3216Metric")
    )
    (path "/3f43d730-2a73-49fe-9672-32428e7f5b49/75e8f473-367c-4be5-9551-9457c4270e8d"
      (reference "C10") (unit 1) (value "22u") (footprint "Capacitor_SMD:C_1206_3216Metric")
    )
    (path "/3f43d730-2a73-49fe-9672-32428e7f5b49/4e75bb39-7f9c-4c8c-9469-caeb1497b84f"
      (reference "C11") (unit 1) (value "100nF") (footprint "Capacitor_SMD:C_0402_1005Metric")
    )
    (path "/aff73507-4f3a-4fb5-a966-c2bc3ad0d300/18291427-2365-4ea5-924a-3f922dd9dd7f"
      (reference "C12") (unit 1) (value "100nF") (footprint "Capacitor_SMD:C_0402_1005Metric")
    )
    (path "/aff73507-4f3a-4fb5-a966-c2bc3ad0d300/9eb12eff-6a97-4ac1-b6d2-53f863488f02"
      (reference "C13") (unit 1) (value "100nF") (footprint "Capacitor_SMD:C_0402_1005Metric")
    )
    (path "/aff73507-4f3a-4fb5-a966-c2bc3ad0d300/5b32dac1-1891-466b-94d5-285807d47258"
      (reference "C14") (unit 1) (value "100nF") (footprint "Capacitor_SMD:C_0402_1005Metric")
    )
    (path "/aff73507-4f3a-4fb5-a966-c2bc3ad0d300/9da434be-a59f-45c6-b7fe-50ed7a20b8a9"
      (reference "C15") (unit 1) (value "100nF") (footprint "Capacitor_SMD:C_0402_1005Metric")
    )
    (path "/aff73507-4f3a-4fb5-a966-c2bc3ad0d300/2846dfe6-157e-4c2b-8277-e5055fe47cbd"
      (reference "C16") (unit 1) (value "100nF") (footprint "Capacitor_SMD:C_0402_1005Metric")
    )
    (path "/aff73507-4f3a-4fb5-a966-c2bc3ad0d300/7e5aeaab-bd6a-4a62-9068-9f1077c86c6c"
      (reference "C17") (unit 1) (value "100nF") (footprint "Capacitor_SMD:C_0402_1005Metric")
    )
    (path "/aff73507-4f3a-4fb5-a966-c2bc3ad0d300/4f878bc2-65f6-41f1-9060-bc121fcfa814"
      (reference "C18") (unit 1) (value "120u") (footprint "Capacitor_THT:CP_Radial_D5.0mm_P2.50mm")
    )
    (path "/aff73507-4f3a-4fb5-a966-c2bc3ad0d300/c907ac66-0b9a-4dae-9e46-24b1a24465c0"
      (reference "C19") (unit 1) (value "120u") (footprint "Capacitor_THT:CP_Radial_D5.0mm_P2.50mm")
    )
    (path "/aff73507-4f3a-4fb5-a966-c2bc3ad0d300/1a5fc22e-3110-452d-bd88-6affd9908b29"
      (reference "C20") (unit 1) (value "120u") (footprint "Capacitor_THT:CP_Radial_D5.0mm_P2.50mm")
    )
    (path "/aff73507-4f3a-4fb5-a966-c2bc3ad0d300/9324a98b-2c41-4c96-bfa3-e171c5dca820"
      (reference "C21") (unit 1) (value "100nF") (footprint "Capacitor_SMD:C_0402_1005Metric")
    )
    (path "/aff73507-4f3a-4fb5-a966-c2bc3ad0d300/b220281d-af17-4746-81ce-6e0c9e99072a"
      (reference "C22") (unit 1) (value "100nF") (footprint "Capacitor_SMD:C_0402_1005Metric")
    )
    (path "/aff73507-4f3a-4fb5-a966-c2bc3ad0d300/7f9c1cd1-e54e-4228-9e4c-85e5fc972316"
      (reference "C23") (unit 1) (value "100nF") (footprint "Capacitor_SMD:C_0402_1005Metric")
    )
    (path "/aff73507-4f3a-4fb5-a966-c2bc3ad0d300/c4afd35a-db96-498b-9768-2360b1544318"
      (reference "C24") (unit 1) (value "100nF") (footprint "Capacitor_SMD:C_0402_1005Metric")
    )
    (path "/aff73507-4f3a-4fb5-a966-c2bc3ad0d300/9ad1ad91-c009-4198-a11d-b93f34aca989"
      (reference "C25") (unit 1) (value "120u") (footprint "Capacitor_THT:CP_Radial_D5.0mm_P2.50mm")
    )
    (path "/aff73507-4f3a-4fb5-a966-c2bc3ad0d300/38bd84a5-6003-43d9-8b3e-e73b62ed2a38"
      (reference "C26") (unit 1) (value "120u") (footprint "Capacitor_THT:CP_Radial_D5.0mm_P2.50mm")
    )
    (path "/6311912c-38c9-4819-91b4-41931ccb7cc5/b299c175-c096-480f-a4a6-2a328dcdddad"
      (reference "C27") (unit 1) (value "12p") (footprint "Capacitor_SMD:C_0402_1005Metric")
    )
    (path "/6311912c-38c9-4819-91b4-41931ccb7cc5/ce946e9f-a410-43a9-bf8f-a868f6d9ae77"
      (reference "C28") (unit 1) (value "12p") (footprint "Capacitor_SMD:C_0402_1005Metric")
    )
    (path "/6311912c-38c9-4819-91b4-41931ccb7cc5/50ce98d9-281f-46d5-b163-c51bd72b02e8"
      (reference "C29") (unit 1) (value "100nF") (footprint "Capacitor_SMD:C_0402_1005Metric")
    )
    (path "/6311912c-38c9-4819-91b4-41931ccb7cc5/7bfe995b-370b-4c67-8010-4a8217575710"
      (reference "C30") (unit 1) (value "100nF") (footprint "Capacitor_SMD:C_0402_1005Metric")
    )
    (path "/6311912c-38c9-4819-91b4-41931ccb7cc5/c9cdc9ef-de6a-4078-9873-e1e7c1aca7f2"
      (reference "C31") (unit 1) (value "100nF") (footprint "Capacitor_SMD:C_0402_1005Metric")
    )
    (path "/6311912c-38c9-4819-91b4-41931ccb7cc5/69340ce2-b91d-4b81-ba35-a91f20fe9d68"
      (reference "C32") (unit 1) (value "100nF") (footprint "Capacitor_SMD:C_0402_1005Metric")
    )
    (path "/6311912c-38c9-4819-91b4-41931ccb7cc5/3745606c-df86-4a0d-9f47-ae30a43d5d19"
      (reference "C33") (unit 1) (value "1uF") (footprint "Capacitor_SMD:C_0402_1005Metric")
    )
    (path "/6311912c-38c9-4819-91b4-41931ccb7cc5/36eea958-4af4-4a6e-a858-5084100ec57e"
      (reference "C34") (unit 1) (value "1uF") (footprint "Capacitor_SMD:C_0402_1005Metric")
    )
    (path "/abfe2d16-5c1c-42e5-a5b8-7ee7611663a0/c377ac24-7c87-44ca-bdfa-0b7a7a004c07"
      (reference "C35") (unit 1) (value "1nF") (footprint "Capacitor_SMD:C_0402_1005Metric")
    )
    (path "/abfe2d16-5c1c-42e5-a5b8-7ee7611663a0/2486fb0f-fbec-4150-94e7-58f125569e37"
      (reference "C36") (unit 1) (value "1nF") (footprint "Capacitor_SMD:C_0402_1005Metric")
    )
    (path "/abfe2d16-5c1c-42e5-a5b8-7ee7611663a0/6758fe33-c8d5-4407-9f16-c72d8affd56a"
      (reference "C37") (unit 1) (value "1nF") (footprint "Capacitor_SMD:C_0402_1005Metric")
    )
    (path "/abfe2d16-5c1c-42e5-a5b8-7ee7611663a0/ddc5869d-0f6b-4907-aabc-2e029c3fcb63"
      (reference "C38") (unit 1) (value "1nF") (footprint "Capacitor_SMD:C_0402_1005Metric")
    )
    (path "/abfe2d16-5c1c-42e5-a5b8-7ee7611663a0/d1d95e0f-842d-44ee-8cda-c20e449c6af9"
      (reference "C39") (unit 1) (value "1nF") (footprint "Capacitor_SMD:C_0402_1005Metric")
    )
    (path "/abfe2d16-5c1c-42e5-a5b8-7ee7611663a0/8350daf6-008f-455e-af04-f26ed8f71c5d"
      (reference "C40") (unit 1) (value "1nF") (footprint "Capacitor_SMD:C_0402_1005Metric")
    )
    (path "/abfe2d16-5c1c-42e5-a5b8-7ee7611663a0/3c6eed25-022b-448e-8446-aa4809cd1840"
      (reference "C41") (unit 1) (value "1nF") (footprint "Capacitor_SMD:C_0402_1005Metric")
    )
    (path "/abfe2d16-5c1c-42e5-a5b8-7ee7611663a0/a661c62f-7afb-4b47-aac6-0c95eed59940"
      (reference "C42") (unit 1) (value "1nF") (footprint "Capacitor_SMD:C_0402_1005Metric")
    )
    (path "/abfe2d16-5c1c-42e5-a5b8-7ee7611663a0/9f84b156-b5e0-4ee6-99b3-a1234e06e013"
      (reference "C43") (unit 1) (value "1nF") (footprint "Capacitor_SMD:C_0402_1005Metric")
    )
    (path "/abfe2d16-5c1c-42e5-a5b8-7ee7611663a0/0bcf7ae7-65fb-4e6d-a186-c5fc3f5f049c"
      (reference "C44") (unit 1) (value "1nF") (footprint "Capacitor_SMD:C_0402_1005Metric")
    )
    (path "/abfe2d16-5c1c-42e5-a5b8-7ee7611663a0/b1321c3d-525d-47e8-9b28-23a0ce46a4d1"
      (reference "C45") (unit 1) (value "1nF") (footprint "Capacitor_SMD:C_0402_1005Metric")
    )
    (path "/abfe2d16-5c1c-42e5-a5b8-7ee7611663a0/51c6a56f-f741-4fe6-ad4a-c1d4ea909b67"
      (reference "C46") (unit 1) (value "1nF") (footprint "Capacitor_SMD:C_0402_1005Metric")
    )
    (path "/abfe2d16-5c1c-42e5-a5b8-7ee7611663a0/d88bfe19-cf8c-453b-9d02-f3d200416bd7"
      (reference "C47") (unit 1) (value "1nF") (footprint "Capacitor_SMD:C_0402_1005Metric")
    )
    (path "/abfe2d16-5c1c-42e5-a5b8-7ee7611663a0/0a6e2a3d-168f-4121-8e67-c7764fd03823"
      (reference "C48") (unit 1) (value "1nF") (footprint "Capacitor_SMD:C_0402_1005Metric")
    )
    (path "/abfe2d16-5c1c-42e5-a5b8-7ee7611663a0/25a883b1-db6e-4a77-af8e-4bd45a4eeaff"
      (reference "C49") (unit 1) (value "1nF") (footprint "Capacitor_SMD:C_0402_1005Metric")
    )
    (path "/abfe2d16-5c1c-42e5-a5b8-7ee7611663a0/fae7253c-e78a-4554-a7de-9663925925bd"
      (reference "C50") (unit 1) (value "1nF") (footprint "Capacitor_SMD:C_0402_1005Metric")
    )
    (path "/abfe2d16-5c1c-42e5-a5b8-7ee7611663a0/c604912a-f0be-46cd-aeca-d215bd051c96"
      (reference "C51") (unit 1) (value "1nF") (footprint "Capacitor_SMD:C_0402_1005Metric")
    )
    (path "/abfe2d16-5c1c-42e5-a5b8-7ee7611663a0/497bda94-f743-4317-ac64-0781b6fccc14"
      (reference "C52") (unit 1) (value "1nF") (footprint "Capacitor_SMD:C_0402_1005Metric")
    )
    (path "/abfe2d16-5c1c-42e5-a5b8-7ee7611663a0/07dd0ba4-4800-4842-a287-26d1f4b727e9"
      (reference "C53") (unit 1) (value "1nF") (footprint "Capacitor_SMD:C_0402_1005Metric")
    )
    (path "/abfe2d16-5c1c-42e5-a5b8-7ee7611663a0/23c6a907-c758-4bd1-86d3-c90485c08f05"
      (reference "C54") (unit 1) (value "1nF") (footprint "Capacitor_SMD:C_0402_1005Metric")
    )
    (path "/3f43d730-2a73-49fe-9672-32428e7f5b49/be498e5d-02d5-4b7e-87e4-141462cc4481"
      (reference "C55") (unit 1) (value "100nF") (footprint "Capacitor_SMD:C_0402_1005Metric")
    )
    (path "/aff73507-4f3a-4fb5-a966-c2bc3ad0d300/75797fbd-3c76-4f01-b161-b4edb486c6bf"
      (reference "C56") (unit 1) (value "100nF") (footprint "Capacitor_SMD:C_0402_1005Metric")
    )
    (path "/aff73507-4f3a-4fb5-a966-c2bc3ad0d300/c99b461b-5705-482f-b300-1f6081eb9a73"
      (reference "C57") (unit 1) (value "100nF") (footprint "Capacitor_SMD:C_0402_1005Metric")
    )
    (path "/aff73507-4f3a-4fb5-a966-c2bc3ad0d300/e53a1afb-1269-4ccc-9d39-72635457c7f7"
      (reference "C58") (unit 1) (value "120u") (footprint "Capacitor_THT:CP_Radial_D5.0mm_P2.50mm")
    )
    (path "/abfe2d16-5c1c-42e5-a5b8-7ee7611663a0/0ffc8648-8185-419d-a385-13fcca4bc05a"
      (reference "C59") (unit 1) (value "1nF") (footprint "Capacitor_SMD:C_0402_1005Metric")
    )
    (path "/abfe2d16-5c1c-42e5-a5b8-7ee7611663a0/b2fbb663-3ce2-4268-bc2c-a7badbb66aea"
      (reference "C60") (unit 1) (value "1nF") (footprint "Capacitor_SMD:C_0402_1005Metric")
    )
    (path "/abfe2d16-5c1c-42e5-a5b8-7ee7611663a0/eaeae2df-5d38-48b3-9c1e-7e6902466a65"
      (reference "C61") (unit 1) (value "1nF") (footprint "Capacitor_SMD:C_0402_1005Metric")
    )
    (path "/abfe2d16-5c1c-42e5-a5b8-7ee7611663a0/a2cd3a6c-83ed-4786-af59-93d4341eb529"
      (reference "C62") (unit 1) (value "1nF") (footprint "Capacitor_SMD:C_0402_1005Metric")
    )
    (path "/3f43d730-2a73-49fe-9672-32428e7f5b49/9206be15-a6d0-4c89-830c-2d3a4bf1f538"
      (reference "C63") (unit 1) (value "100nF") (footprint "Capacitor_SMD:C_0402_1005Metric")
    )
    (path "/3f43d730-2a73-49fe-9672-32428e7f5b49/0d5f7a1d-2e42-4e30-b807-83c6b99eb24e"
      (reference "D1") (unit 1) (value "RED LED") (footprint "LED_SMD:LED_0805_2012Metric")
    )
    (path "/6311912c-38c9-4819-91b4-41931ccb7cc5/27c9cb84-ded7-436f-ac1a-bf63cfdca484"
      (reference "D2") (unit 1) (value "RED LED") (footprint "LED_SMD:LED_0805_2012Metric")
    )
    (path "/6311912c-38c9-4819-91b4-41931ccb7cc5/4714f0ec-8f4b-4ff4-9f1b-1c48ba2978c0"
      (reference "D3") (unit 1) (value "D") (footprint "Diode_SMD:D_SOD-323")
    )
    (path "/6311912c-38c9-4819-91b4-41931ccb7cc5/cbba37cc-9c26-4477-8cf2-405ca617e1f9"
      (reference "D4") (unit 1) (value "D") (footprint "Diode_SMD:D_SOD-323")
    )
    (path "/6311912c-38c9-4819-91b4-41931ccb7cc5/0b3f0144-2db4-45e5-a266-6fce27622c73"
      (reference "D5") (unit 1) (value "3.3V") (footprint "Diode_SMD:D_MiniMELF")
    )
    (path "/6311912c-38c9-4819-91b4-41931ccb7cc5/a37fedb9-c740-4b88-b902-79e37cc77d0f"
      (reference "D6") (unit 1) (value "3.3V") (footprint "Diode_SMD:D_MiniMELF")
    )
    (path "/6311912c-38c9-4819-91b4-41931ccb7cc5/06793820-35b7-49df-b072-17d6f2568348"
      (reference "D7") (unit 1) (value "3.3V") (footprint "Diode_SMD:D_MiniMELF")
    )
    (path "/6311912c-38c9-4819-91b4-41931ccb7cc5/c16952f1-0bb0-44b3-8039-6be13791509b"
      (reference "D8") (unit 1) (value "3.3V") (footprint "Diode_SMD:D_MiniMELF")
    )
    (path "/6311912c-38c9-4819-91b4-41931ccb7cc5/f1b77f9a-d8da-4562-b801-ef9976e9747d"
      (reference "FB1") (unit 1) (value "120R") (footprint "Resistor_SMD:R_0805_2012Metric")
    )
    (path "/3f43d730-2a73-49fe-9672-32428e7f5b49/fdfc5d10-dbe9-4481-aa9c-c5719a97c333"
      (reference "FB2") (unit 1) (value "120R") (footprint "Resistor_SMD:R_0805_2012Metric")
    )
    (path "/3f43d730-2a73-49fe-9672-32428e7f5b49/ab95ca03-9d9c-44b6-ac26-2b8fb8dd6801"
      (reference "FB3") (unit 1) (value "120R") (footprint "Resistor_SMD:R_0805_2012Metric")
    )
    (path "/3f43d730-2a73-49fe-9672-32428e7f5b49/ca944158-712d-475a-b32a-2e8b4056b7f3"
      (reference "FB4") (unit 1) (value "120R") (footprint "Resistor_SMD:R_0805_2012Metric")
    )
    (path "/3f43d730-2a73-49fe-9672-32428e7f5b49/1840c81a-9014-4a16-a050-c025ffba1e26"
      (reference "FB5") (unit 1) (value "120R") (footprint "Resistor_SMD:R_0805_2012Metric")
    )
    (path "/3f43d730-2a73-49fe-9672-32428e7f5b49/d154c4db-90ab-4c52-bda4-ab0e802743aa"
      (reference "FB6") (unit 1) (value "120R") (footprint "Resistor_SMD:R_0805_2012Metric")
    )
    (path "/3f43d730-2a73-49fe-9672-32428e7f5b49/009be525-91a2-4be0-ad04-2ab18807676e"
      (reference "FB7") (unit 1) (value "120R") (footprint "Resistor_SMD:R_0805_2012Metric")
    )
    (path "/b053dcd2-5869-4afe-90f7-0d52577a3ce5"
      (reference "H1") (unit 1) (value "MountingHole_Pad") (footprint "MountingHole:MountingHole_3.2mm_M3_Pad_Via")
    )
    (path "/14932aff-5110-4d07-8611-373632fb735c"
      (reference "H2") (unit 1) (value "MountingHole_Pad") (footprint "MountingHole:MountingHole_3.2mm_M3_Pad_Via")
    )
    (path "/1bfa8854-5b92-4d76-b548-e33855d88d69"
      (reference "H3") (unit 1) (value "MountingHole_Pad") (footprint "MountingHole:MountingHole_3.2mm_M3_Pad_Via")
    )
    (path "/c4486852-abab-46dd-9e1e-920e3934e037"
      (reference "H4") (unit 1) (value "MountingHole_Pad") (footprint "MountingHole:MountingHole_3.2mm_M3_Pad_Via")
    )
    (path "/aff73507-4f3a-4fb5-a966-c2bc3ad0d300/2f64bb6c-dfc8-4206-85c2-60698ac1dea4"
      (reference "J1") (unit 1) (value "Screw_Terminal_01x02") (footprint "TerminalBlock:TerminalBlock_bornier-2_P5.08mm")
    )
    (path "/aff73507-4f3a-4fb5-a966-c2bc3ad0d300/0732a452-175d-4313-9391-a9018b294f9e"
      (reference "J2") (unit 1) (value "Screw_Terminal_01x02") (footprint "TerminalBlock:TerminalBlock_bornier-2_P5.08mm")
    )
    (path "/aff73507-4f3a-4fb5-a966-c2bc3ad0d300/ba59df08-8377-4f95-91a7-77a8ec978cf6"
      (reference "J3") (unit 1) (value "Screw_Terminal_01x02") (footprint "TerminalBlock:TerminalBlock_bornier-2_P5.08mm")
    )
    (path "/aff73507-4f3a-4fb5-a966-c2bc3ad0d300/f3879066-a91b-415e-b241-18f9d05de4a2"
      (reference "J4") (unit 1) (value "Screw_Terminal_01x02") (footprint "TerminalBlock:TerminalBlock_bornier-2_P5.08mm")
    )
    (path "/aff73507-4f3a-4fb5-a966-c2bc3ad0d300/2862e14a-cb2c-40d6-bb1d-8b6cdfa3b08b"
      (reference "J5") (unit 1) (value "Screw_Terminal_01x02") (footprint "TerminalBlock:TerminalBlock_bornier-2_P5.08mm")
    )
    (path "/6311912c-38c9-4819-91b4-41931ccb7cc5/90d5f3a6-5928-48ff-8d87-f6fb400d2efe"
      (reference "J6") (unit 1) (value "Conn_ARM_JTAG_SWD_10") (footprint "Connector:Tag-Connect_TC2050-IDC-FP_2x05_P1.27mm_Vertical")
    )
    (path "/6311912c-38c9-4819-91b4-41931ccb7cc5/7d6de20c-c688-4223-ab79-e63840887579"
      (reference "J7") (unit 1) (value "Conn_01x06_Female") (footprint "Connector_PinHeader_2.54mm:PinHeader_1x06_P2.54mm_Vertical")
    )
    (path "/6311912c-38c9-4819-91b4-41931ccb7cc5/79bf18db-f546-4b52-9e1a-426a24e165c6"
      (reference "J8") (unit 1) (value "Conn_01x06_Female") (footprint "Connector_PinHeader_2.54mm:PinHeader_1x06_P2.54mm_Vertical")
    )
    (path "/aff73507-4f3a-4fb5-a966-c2bc3ad0d300/f13a4bf9-fd9a-4160-84e8-bedf765609ee"
      (reference "J9") (unit 1) (value "Screw_Terminal_01x02") (footprint "TerminalBlock:TerminalBlock_bornier-2_P5.08mm")
    )
    (path "/abfe2d16-5c1c-42e5-a5b8-7ee7611663a0/e7f0a644-29a5-4000-b7b4-ceebc70d8c5f"
      (reference "J10") (unit 1) (value "Conn_01x04_Female") (footprint "Connector_PinHeader_2.54mm:PinHeader_1x04_P2.54mm_Vertical")
    )
    (path "/17367a18-62b6-48ee-8824-ba43c65939d9/24f5161b-a1b5-4e1d-a504-8f104c7765b7"
      (reference "J11") (unit 1) (value "Conn_01x06_Male") (footprint "Connector_PinHeader_2.54mm:PinHeader_1x06_P2.54mm_Vertical")
    )
    (path "/17367a18-62b6-48ee-8824-ba43c65939d9/a107a182-6ec2-4944-a771-844b03d2867a"
      (reference "J12") (unit 1) (value "Conn_01x06_Male") (footprint "Connector_PinHeader_2.54mm:PinHeader_1x06_P2.54mm_Vertical")
    )
    (path "/17367a18-62b6-48ee-8824-ba43c65939d9/5184beda-4204-4a1a-836c-6ca14ccda6ee"
      (reference "J13") (unit 1) (value "Conn_01x06_Male") (footprint "Connector_PinHeader_2.54mm:PinHeader_1x06_P2.54mm_Vertical")
    )
    (path "/17367a18-62b6-48ee-8824-ba43c65939d9/ef72dcba-4967-42a0-894b-470d1a941d84"
      (reference "J14") (unit 1) (value "Conn_01x06_Male") (footprint "Connector_PinHeader_2.54mm:PinHeader_1x06_P2.54mm_Vertical")
    )
    (path "/17367a18-62b6-48ee-8824-ba43c65939d9/8d260c62-d0d2-4b98-98c4-cf3a3f0777f9"
      (reference "J15") (unit 1) (value "Conn_01x06_Male") (footprint "Connector_PinHeader_2.54mm:PinHeader_1x06_P2.54mm_Vertical")
    )
    (path "/17367a18-62b6-48ee-8824-ba43c65939d9/d8d634c1-81f3-4d77-a124-ea7ce5f54027"
      (reference "J16") (unit 1) (value "Conn_01x06_Male") (footprint "Connector_PinHeader_2.54mm:PinHeader_1x06_P2.54mm_Vertical")
    )
    (path "/17367a18-62b6-48ee-8824-ba43c65939d9/0c868f7f-969a-4839-ae9a-f65fab5e4b20"
      (reference "J17") (unit 1) (value "Conn_01x04_Male") (footprint "Connector_PinHeader_2.54mm:PinHeader_1x04_P2.54mm_Vertical")
    )
    (path "/17367a18-62b6-48ee-8824-ba43c65939d9/b00bfa81-5984-4d56-ab23-4a87ece6134c"
      (reference "J18") (unit 1) (value "Conn_01x04_Male") (footprint "Connector_PinHeader_2.54mm:PinHeader_1x04_P2.54mm_Vertical")
    )
    (path "/abfe2d16-5c1c-42e5-a5b8-7ee7611663a0/035447b8-6a34-47b3-9fc8-38c97854ee5d"
      (reference "J19") (unit 1) (value "Conn_01x04_Female") (footprint "Connector_PinHeader_2.54mm:PinHeader_1x04_P2.54mm_Vertical")
    )
    (path "/abfe2d16-5c1c-42e5-a5b8-7ee7611663a0/7bf5f692-4180-4859-b3c0-5aa4ac45e9ab"
      (reference "J20") (unit 1) (value "Conn_01x04_Female") (footprint "Connector_PinHeader_2.54mm:PinHeader_1x04_P2.54mm_Vertical")
    )
    (path "/abfe2d16-5c1c-42e5-a5b8-7ee7611663a0/9fe22bcd-901b-4923-9025-ad0fc2a27265"
      (reference "J21") (unit 1) (value "Conn_01x04_Female") (footprint "Connector_PinHeader_2.54mm:PinHeader_1x04_P2.54mm_Vertical")
    )
    (path "/abfe2d16-5c1c-42e5-a5b8-7ee7611663a0/fd02f523-ae78-4108-90df-e5d2428c0b7d"
      (reference "J22") (unit 1) (value "Conn_01x04_Female") (footprint "Connector_PinHeader_2.54mm:PinHeader_1x04_P2.54mm_Vertical")
    )
    (path "/abfe2d16-5c1c-42e5-a5b8-7ee7611663a0/f586890f-ea3f-4342-976f-5bbc68c32bcf"
      (reference "J23") (unit 1) (value "Conn_01x04_Female") (footprint "Connector_PinHeader_2.54mm:PinHeader_1x04_P2.54mm_Vertical")
    )
    (path "/17367a18-62b6-48ee-8824-ba43c65939d9/c9a2c4f1-030e-4c61-a3bc-49f36817fc20"
      (reference "J24") (unit 1) (value "Conn_01x04_Male") (footprint "Connector_PinHeader_2.54mm:PinHeader_1x04_P2.54mm_Vertical")
    )
    (path "/17367a18-62b6-48ee-8824-ba43c65939d9/4d4678b4-6b5e-4783-a8fd-a62506f4b7f2"
      (reference "J25") (unit 1) (value "Conn_01x04_Male") (footprint "Connector_PinHeader_2.54mm:PinHeader_1x04_P2.54mm_Vertical")
    )
    (path "/17367a18-62b6-48ee-8824-ba43c65939d9/649f75a0-55ef-4cb8-bde2-c7892485ec08"
      (reference "J26") (unit 1) (value "Conn_01x04_Male") (footprint "Connector_PinHeader_2.54mm:PinHeader_1x04_P2.54mm_Vertical")
    )
    (path "/17367a18-62b6-48ee-8824-ba43c65939d9/b35399d9-f02c-49c0-bb18-9415d166763d"
      (reference "J27") (unit 1) (value "Conn_01x04_Male") (footprint "Connector_PinHeader_2.54mm:PinHeader_1x04_P2.54mm_Vertical")
    )
    (path "/3f43d730-2a73-49fe-9672-32428e7f5b49/b7be59b0-b898-4766-aeab-e0ce466688e0"
      (reference "J28") (unit 1) (value "Conn_01x02_Female") (footprint "Connector_AMASS:AMASS_XT60-F_1x02_P7.20mm_Vertical")
    )
    (path "/3f43d730-2a73-49fe-9672-32428e7f5b49/ea1b2b8d-0e28-46b2-aaf3-63afb1f82f2c"
      (reference "JP1") (unit 1) (value "Jumper_2_Open") (footprint "Jumper:SolderJumper-2_P1.3mm_Open_RoundedPad1.0x1.5mm")
    )
    (path "/3f43d730-2a73-49fe-9672-32428e7f5b49/282e3206-668a-48cc-84c3-89afbc2e3cb7"
      (reference "JP2") (unit 1) (value "Jumper_2_Open") (footprint "Jumper:SolderJumper-2_P1.3mm_Open_RoundedPad1.0x1.5mm")
    )
    (path "/3f43d730-2a73-49fe-9672-32428e7f5b49/0988bdab-20b2-4388-83a8-9cfbb33342b3"
      (reference "L1") (unit 1) (value "15u") (footprint "Inductor_SMD:L_Bourns_SRP7028A_7.3x6.6mm")
    )
    (path "/abfe2d16-5c1c-42e5-a5b8-7ee7611663a0/5350f565-038b-4476-80fa-5ad46f3d18fa"
      (reference "Q1") (unit 1) (value "2N7002") (footprint "Package_TO_SOT_SMD:SOT-23")
    )
    (path "/abfe2d16-5c1c-42e5-a5b8-7ee7611663a0/dbb185e8-7cbd-4b7a-9b35-9c1050822200"
      (reference "Q2") (unit 1) (value "2N7002") (footprint "Package_TO_SOT_SMD:SOT-23")
    )
    (path "/abfe2d16-5c1c-42e5-a5b8-7ee7611663a0/9e64cc99-b8c0-4716-9cfc-c540fe731f42"
      (reference "Q3") (unit 1) (value "2N7002") (footprint "Package_TO_SOT_SMD:SOT-23")
    )
    (path "/abfe2d16-5c1c-42e5-a5b8-7ee7611663a0/6cb161aa-fa95-4192-913c-4d4fe8559ca5"
      (reference "Q4") (unit 1) (value "2N7002") (footprint "Package_TO_SOT_SMD:SOT-23")
    )
    (path "/abfe2d16-5c1c-42e5-a5b8-7ee7611663a0/4b4c3a01-a9d3-46c8-9db6-b94944e6136d"
      (reference "Q5") (unit 1) (value "2N7002") (footprint "Package_TO_SOT_SMD:SOT-23")
    )
    (path "/abfe2d16-5c1c-42e5-a5b8-7ee7611663a0/2782879c-fbc9-4443-93e5-5a94a1758adb"
      (reference "Q6") (unit 1) (value "2N7002") (footprint "Package_TO_SOT_SMD:SOT-23")
    )
    (path "/abfe2d16-5c1c-42e5-a5b8-7ee7611663a0/97f58515-3a4f-4448-a950-5f5c672b5767"
      (reference "Q7") (unit 1) (value "2N7002") (footprint "Package_TO_SOT_SMD:SOT-23")
    )
    (path "/abfe2d16-5c1c-42e5-a5b8-7ee7611663a0/c973e728-28a7-486e-98a9-d293585cf295"
      (reference "Q8") (unit 1) (value "2N7002") (footprint "Package_TO_SOT_SMD:SOT-23")
    )
    (path "/abfe2d16-5c1c-42e5-a5b8-7ee7611663a0/07adea36-8542-4feb-9a00-53524a9f2ac6"
      (reference "Q9") (unit 1) (value "2N7002") (footprint "Package_TO_SOT_SMD:SOT-23")
    )
    (path "/abfe2d16-5c1c-42e5-a5b8-7ee7611663a0/6f315a8c-8e18-41cc-b12a-32456d45d15b"
      (reference "Q10") (unit 1) (value "2N7002") (footprint "Package_TO_SOT_SMD:SOT-23")
    )
    (path "/abfe2d16-5c1c-42e5-a5b8-7ee7611663a0/38a815fe-f6ad-432f-8daa-ed082e085653"
      (reference "Q11") (unit 1) (value "2N7002") (footprint "Package_TO_SOT_SMD:SOT-23")
    )
    (path "/abfe2d16-5c1c-42e5-a5b8-7ee7611663a0/f81148b9-b4d5-4143-8737-fec937fb3dc7"
      (reference "Q12") (unit 1) (value "2N7002") (footprint "Package_TO_SOT_SMD:SOT-23")
    )
    (path "/3f43d730-2a73-49fe-9672-32428e7f5b49/5a37b224-764d-4d06-aebb-5f69b0dca29c"
      (reference "R1") (unit 1) (value "0.01 0.25W") (footprint "Resistor_SMD:R_1206_3216Metric_Pad1.30x1.75mm_HandSolder")
    )
    (path "/3f43d730-2a73-49fe-9672-32428e7f5b49/5a34a473-4336-405d-b1b1-06ba0e85e54e"
      (reference "R2") (unit 1) (value "0.01 0.25W") (footprint "Resistor_SMD:R_1206_3216Metric_Pad1.30x1.75mm_HandSolder")
    )
    (path "/3f43d730-2a73-49fe-9672-32428e7f5b49/05df07ad-04ba-433b-a349-eae54c6731df"
      (reference "R3") (unit 1) (value "0.01 0.25W") (footprint "Resistor_SMD:R_1206_3216Metric_Pad1.30x1.75mm_HandSolder")
    )
    (path "/3f43d730-2a73-49fe-9672-32428e7f5b49/09c87f64-438f-4ea8-b138-354489ef627d"
      (reference "R4") (unit 1) (value "0.01 0.25W") (footprint "Resistor_SMD:R_1206_3216Metric_Pad1.30x1.75mm_HandSolder")
    )
    (path "/3f43d730-2a73-49fe-9672-32428e7f5b49/1b2d9972-5b47-49b9-84b9-a3a42645463a"
      (reference "R5") (unit 1) (value "0.01 0.25W") (footprint "Resistor_SMD:R_1206_3216Metric_Pad1.30x1.75mm_HandSolder")
    )
    (path "/3f43d730-2a73-49fe-9672-32428e7f5b49/1bc69943-163a-4f23-a1b2-869455d3610c"
      (reference "R6") (unit 1) (value "1Ok") (footprint "Resistor_SMD:R_0402_1005Metric_Pad0.72x0.64mm_HandSolder")
    )
    (path "/3f43d730-2a73-49fe-9672-32428e7f5b49/cf7c2f27-dfb2-4d35-9ded-39d46e2f0bdd"
      (reference "R7") (unit 1) (value "3k3") (footprint "Resistor_SMD:R_0402_1005Metric_Pad0.72x0.64mm_HandSolder")
    )
    (path "/3f43d730-2a73-49fe-9672-32428e7f5b49/51f2d1aa-7d23-426d-9854-ef17687e3e88"
      (reference "R8") (unit 1) (value "440") (footprint "Resistor_SMD:R_0402_1005Metric_Pad0.72x0.64mm_HandSolder")
    )
    (path "/aff73507-4f3a-4fb5-a966-c2bc3ad0d300/f5fe4bcc-e357-4c86-b809-3d59756ce258"
      (reference "R9") (unit 1) (value "0.1") (footprint "Resistor_SMD:R_1206_3216Metric_Pad1.30x1.75mm_HandSolder")
    )
    (path "/aff73507-4f3a-4fb5-a966-c2bc3ad0d300/58c7217f-8754-4d45-815f-775ef1f5e906"
      (reference "R10") (unit 1) (value "0.1") (footprint "Resistor_SMD:R_1206_3216Metric_Pad1.30x1.75mm_HandSolder")
    )
    (path "/aff73507-4f3a-4fb5-a966-c2bc3ad0d300/a3146865-b3ba-40be-b592-8d915320410e"
      (reference "R11") (unit 1) (value "0.1") (footprint "Resistor_SMD:R_1206_3216Metric_Pad1.30x1.75mm_HandSolder")
    )
    (path "/aff73507-4f3a-4fb5-a966-c2bc3ad0d300/c0f9b847-d113-426b-9595-fed6f69ea417"
      (reference "R12") (unit 1) (value "0.1") (footprint "Resistor_SMD:R_1206_3216Metric_Pad1.30x1.75mm_HandSolder")
    )
    (path "/aff73507-4f3a-4fb5-a966-c2bc3ad0d300/f612172d-782b-4bb9-86c2-d586acb93a28"
      (reference "R13") (unit 1) (value "0.1") (footprint "Resistor_SMD:R_1206_3216Metric_Pad1.30x1.75mm_HandSolder")
    )
    (path "/6311912c-38c9-4819-91b4-41931ccb7cc5/e6ec09a1-5891-4bd1-9ebc-e6d8732a5df7"
      (reference "R14") (unit 1) (value "2k2") (footprint "Resistor_SMD:R_0402_1005Metric")
    )
    (path "/6311912c-38c9-4819-91b4-41931ccb7cc5/f8b22288-fffb-41ac-8981-75be00c9fdb3"
      (reference "R15") (unit 1) (value "2k2") (footprint "Resistor_SMD:R_0402_1005Metric")
    )
    (path "/3f43d730-2a73-49fe-9672-32428e7f5b49/6a3d3243-78fa-48c3-9dfa-8b93b4577b87"
      (reference "R16") (unit 1) (value "0.01 0.25W") (footprint "Resistor_SMD:R_1206_3216Metric_Pad1.30x1.75mm_HandSolder")
    )
    (path "/3f43d730-2a73-49fe-9672-32428e7f5b49/734f64a1-643d-4142-9572-188be640708f"
      (reference "R17") (unit 1) (value "100K") (footprint "Resistor_SMD:R_0402_1005Metric")
    )
    (path "/6311912c-38c9-4819-91b4-41931ccb7cc5/a1cc2003-aee3-4dc6-ae4f-4e05fbf60928"
      (reference "R18") (unit 1) (value "1K") (footprint "Resistor_SMD:R_0402_1005Metric")
    )
    (path "/6311912c-38c9-4819-91b4-41931ccb7cc5/7d9cd0b6-2925-41e1-9546-707770b93e5e"
      (reference "R19") (unit 1) (value "1K") (footprint "Resistor_SMD:R_0402_1005Metric")
    )
    (path "/6311912c-38c9-4819-91b4-41931ccb7cc5/b1c9adc9-60c4-437b-a3c3-401778e4be8a"
      (reference "R20") (unit 1) (value "440") (footprint "Resistor_SMD:R_0402_1005Metric")
    )
    (path "/6311912c-38c9-4819-91b4-41931ccb7cc5/52a009c1-4978-46ae-bbc7-a05bf5789cfe"
      (reference "R21") (unit 1) (value "10K") (footprint "Resistor_SMD:R_0402_1005Metric")
    )
    (path "/6311912c-38c9-4819-91b4-41931ccb7cc5/2ac523f7-c48d-4c0b-92a1-f5f8cd88847e"
      (reference "R22") (unit 1) (value "10K") (footprint "Resistor_SMD:R_0402_1005Metric")
    )
    (path "/6311912c-38c9-4819-91b4-41931ccb7cc5/fbf48a70-ee6c-4416-924b-bef710eb2977"
      (reference "R23") (unit 1) (value "10K") (footprint "Resistor_SMD:R_0402_1005Metric")
    )
    (path "/abfe2d16-5c1c-42e5-a5b8-7ee7611663a0/470ece8c-4cf5-4a3d-be5d-b2f0f33bc9a8"
      (reference "R24") (unit 1) (value "10K") (footprint "Resistor_SMD:R_0402_1005Metric")
    )
    (path "/abfe2d16-5c1c-42e5-a5b8-7ee7611663a0/0884cb3f-aa38-4190-b69e-1eea2fc0d505"
      (reference "R25") (unit 1) (value "10K") (footprint "Resistor_SMD:R_0402_1005Metric")
    )
    (path "/abfe2d16-5c1c-42e5-a5b8-7ee7611663a0/e6815c3d-955d-4e9c-983d-1354644ffa9e"
      (reference "R26") (unit 1) (value "10K") (footprint "Resistor_SMD:R_0402_1005Metric")
    )
    (path "/abfe2d16-5c1c-42e5-a5b8-7ee7611663a0/8fe78eb1-d06c-40ab-b2fd-d4e1d09aadae"
      (reference "R27") (unit 1) (value "10K") (footprint "Resistor_SMD:R_0402_1005Metric")
    )
    (path "/abfe2d16-5c1c-42e5-a5b8-7ee7611663a0/325ac9a0-8a2e-478c-b432-bdcba56bed99"
      (reference "R28") (unit 1) (value "10K") (footprint "Resistor_SMD:R_0402_1005Metric")
    )
    (path "/abfe2d16-5c1c-42e5-a5b8-7ee7611663a0/31c40c42-296d-4bfe-8354-b88a42f91827"
      (reference "R29") (unit 1) (value "10K") (footprint "Resistor_SMD:R_0402_1005Metric")
    )
    (path "/abfe2d16-5c1c-42e5-a5b8-7ee7611663a0/0432f300-18af-426a-9b34-ad1ec300821d"
      (reference "R30") (unit 1) (value "10K") (footprint "Resistor_SMD:R_0402_1005Metric")
    )
    (path "/abfe2d16-5c1c-42e5-a5b8-7ee7611663a0/9773e58b-405d-4676-9c29-ae89083dce5d"
      (reference "R31") (unit 1) (value "10K") (footprint "Resistor_SMD:R_0402_1005Metric")
    )
    (path "/abfe2d16-5c1c-42e5-a5b8-7ee7611663a0/43653ba0-770a-4605-a93d-c4ddbf7b7f73"
      (reference "R32") (unit 1) (value "100") (footprint "Resistor_SMD:R_0402_1005Metric")
    )
    (path "/abfe2d16-5c1c-42e5-a5b8-7ee7611663a0/c9a3e2b3-1464-43e2-96ac-4ae21c2b3aba"
      (reference "R33") (unit 1) (value "100") (footprint "Resistor_SMD:R_0402_1005Metric")
    )
    (path "/abfe2d16-5c1c-42e5-a5b8-7ee7611663a0/8b7014f5-a9dc-4686-a07d-d8a7479c893d"
      (reference "R34") (unit 1) (value "100") (footprint "Resistor_SMD:R_0402_1005Metric")
    )
    (path "/abfe2d16-5c1c-42e5-a5b8-7ee7611663a0/af0c0232-64d2-4d64-b729-0dc165c7597a"
      (reference "R35") (unit 1) (value "100") (footprint "Resistor_SMD:R_0402_1005Metric")
    )
    (path "/abfe2d16-5c1c-42e5-a5b8-7ee7611663a0/e6625c75-47ec-47fb-adb5-0b2c553c532f"
      (reference "R36") (unit 1) (value "10K") (footprint "Resistor_SMD:R_0402_1005Metric")
    )
    (path "/abfe2d16-5c1c-42e5-a5b8-7ee7611663a0/cdbdb825-b956-4d37-8cfc-d7f2ec9c1170"
      (reference "R37") (unit 1) (value "10K") (footprint "Resistor_SMD:R_0402_1005Metric")
    )
    (path "/abfe2d16-5c1c-42e5-a5b8-7ee7611663a0/f8ca2066-dca5-44b1-898e-347f2546afa9"
      (reference "R38") (unit 1) (value "10K") (footprint "Resistor_SMD:R_0402_1005Metric")
    )
    (path "/abfe2d16-5c1c-42e5-a5b8-7ee7611663a0/bfaa779e-12ce-4e83-8537-c12951493aa5"
      (reference "R39") (unit 1) (value "10K") (footprint "Resistor_SMD:R_0402_1005Metric")
    )
    (path "/abfe2d16-5c1c-42e5-a5b8-7ee7611663a0/2ae0b3bb-76ec-43ca-b5a4-e99f3bafd137"
      (reference "R40") (unit 1) (value "10K") (footprint "Resistor_SMD:R_0402_1005Metric")
    )
    (path "/abfe2d16-5c1c-42e5-a5b8-7ee7611663a0/97df3a31-c848-4e0d-b91d-a269bddd404c"
      (reference "R41") (unit 1) (value "10K") (footprint "Resistor_SMD:R_0402_1005Metric")
    )
    (path "/abfe2d16-5c1c-42e5-a5b8-7ee7611663a0/76c77d8c-724c-468c-bc76-1e6cfd6f61a5"
      (reference "R42") (unit 1) (value "10K") (footprint "Resistor_SMD:R_0402_1005Metric")
    )
    (path "/abfe2d16-5c1c-42e5-a5b8-7ee7611663a0/2dc3d2bc-291d-4112-b788-a47eab2ae1a0"
      (reference "R43") (unit 1) (value "10K") (footprint "Resistor_SMD:R_0402_1005Metric")
    )
    (path "/abfe2d16-5c1c-42e5-a5b8-7ee7611663a0/cb096218-0380-4e0a-baf8-7f05d3dbfd79"
      (reference "R44") (unit 1) (value "100") (footprint "Resistor_SMD:R_0402_1005Metric")
    )
    (path "/abfe2d16-5c1c-42e5-a5b8-7ee7611663a0/1c0ede8c-1c36-4683-8989-77b5f7985c6c"
      (reference "R45") (unit 1) (value "100") (footprint "Resistor_SMD:R_0402_1005Metric")
    )
    (path "/abfe2d16-5c1c-42e5-a5b8-7ee7611663a0/5ee2b771-6f8d-4617-88d7-bfe64956fd6c"
      (reference "R46") (unit 1) (value "100") (footprint "Resistor_SMD:R_0402_1005Metric")
    )
    (path "/abfe2d16-5c1c-42e5-a5b8-7ee7611663a0/de57ce4d-2c9b-4b05-9d1f-c2d34cdb6fc2"
      (reference "R47") (unit 1) (value "100") (footprint "Resistor_SMD:R_0402_1005Metric")
    )
    (path "/abfe2d16-5c1c-42e5-a5b8-7ee7611663a0/51e5f469-eeef-4064-a033-05f3dc8d38fb"
      (reference "R48") (unit 1) (value "10K") (footprint "Resistor_SMD:R_0402_1005Metric")
    )
    (path "/abfe2d16-5c1c-42e5-a5b8-7ee7611663a0/17fd59fb-2df8-42aa-a335-dd7ebd224030"
      (reference "R49") (unit 1) (value "10K") (footprint "Resistor_SMD:R_0402_1005Metric")
    )
    (path "/abfe2d16-5c1c-42e5-a5b8-7ee7611663a0/e5d1f97c-3a4f-498c-a936-3ce4360f70b5"
      (reference "R50") (unit 1) (value "100") (footprint "Resistor_SMD:R_0402_1005Metric")
    )
    (path "/abfe2d16-5c1c-42e5-a5b8-7ee7611663a0/9e0057a6-9a3a-4624-992c-f0e4b3845d28"
      (reference "R51") (unit 1) (value "10K") (footprint "Resistor_SMD:R_0402_1005Metric")
    )
    (path "/abfe2d16-5c1c-42e5-a5b8-7ee7611663a0/3d249b27-1149-403d-acc2-21def95c9783"
      (reference "R52") (unit 1) (value "10K") (footprint "Resistor_SMD:R_0402_1005Metric_Pad0.72x0.64mm_HandSolder")
    )
    (path "/abfe2d16-5c1c-42e5-a5b8-7ee7611663a0/05ab11d0-4bc1-4268-8a3c-7b447547758b"
      (reference "R53") (unit 1) (value "100") (footprint "Resistor_SMD:R_0402_1005Metric")
    )
    (path "/3f43d730-2a73-49fe-9672-32428e7f5b49/c6f75fff-7428-400c-adf2-9a843209debc"
      (reference "R54") (unit 1) (value "10K") (footprint "Resistor_SMD:R_0402_1005Metric")
    )
    (path "/aff73507-4f3a-4fb5-a966-c2bc3ad0d300/08f152a7-5dd6-40b8-86c8-5a6a84e3e7cf"
      (reference "R55") (unit 1) (value "0.1") (footprint "Resistor_SMD:R_1206_3216Metric_Pad1.30x1.75mm_HandSolder")
    )
    (path "/abfe2d16-5c1c-42e5-a5b8-7ee7611663a0/13251f37-2721-461b-ae00-54a7db1c48c7"
      (reference "R56") (unit 1) (value "10K") (footprint "Resistor_SMD:R_0402_1005Metric")
    )
    (path "/abfe2d16-5c1c-42e5-a5b8-7ee7611663a0/e69cee5a-9cf3-497b-af57-1b96cf65f8e4"
      (reference "R57") (unit 1) (value "10K") (footprint "Resistor_SMD:R_0402_1005Metric")
    )
    (path "/abfe2d16-5c1c-42e5-a5b8-7ee7611663a0/f58fd01b-48ef-4c59-9fa4-8664a978616a"
      (reference "R58") (unit 1) (value "100") (footprint "Resistor_SMD:R_0402_1005Metric")
    )
    (path "/abfe2d16-5c1c-42e5-a5b8-7ee7611663a0/53b1132b-79a4-4a1e-ae52-e34627d2be5e"
      (reference "R59") (unit 1) (value "10K") (footprint "Resistor_SMD:R_0402_1005Metric")
    )
    (path "/abfe2d16-5c1c-42e5-a5b8-7ee7611663a0/d5b83ead-386c-4015-ac68-7ab63c1d2a67"
      (reference "R60") (unit 1) (value "10K") (footprint "Resistor_SMD:R_0402_1005Metric")
    )
    (path "/abfe2d16-5c1c-42e5-a5b8-7ee7611663a0/63da57a8-ff6e-42a2-b012-f3de58cf66b1"
      (reference "R61") (unit 1) (value "100") (footprint "Resistor_SMD:R_0402_1005Metric")
    )
    (path "/3f43d730-2a73-49fe-9672-32428e7f5b49/5c49fd7a-27b9-492e-8c57-22d9e843b4a3"
      (reference "R62") (unit 1) (value "10K") (footprint "Resistor_SMD:R_0402_1005Metric")
    )
    (path "/3f43d730-2a73-49fe-9672-32428e7f5b49/12da0cf8-736a-4404-8b03-21067421dd23"
      (reference "R63") (unit 1) (value "10K") (footprint "Resistor_SMD:R_0402_1005Metric")
    )
    (path "/3f43d730-2a73-49fe-9672-32428e7f5b49/42ba407d-a036-422b-9b59-0018a6ff74da"
      (reference "SS1") (unit 1) (value "D_Schottky") (footprint "Diode_SMD:D_2114_3652Metric")
    )
    (path "/3f43d730-2a73-49fe-9672-32428e7f5b49/673ed119-91db-4148-9876-56639d2d2321"
      (reference "U1") (unit 1) (value "TPS5430DDA") (footprint "Package_SO:TI_SO-PowerPAD-8_ThermalVias")
    )
    (path "/3f43d730-2a73-49fe-9672-32428e7f5b49/a1977b89-3531-4958-9fc2-f67bfb6bb931"
      (reference "U2") (unit 1) (value "INA181") (footprint "Package_TO_SOT_SMD:SOT-23-6")
    )
    (path "/3f43d730-2a73-49fe-9672-32428e7f5b49/d850bf61-00cc-47d7-a831-44310588d00f"
      (reference "U3") (unit 1) (value "INA181") (footprint "Package_TO_SOT_SMD:SOT-23-6")
    )
    (path "/3f43d730-2a73-49fe-9672-32428e7f5b49/1c3feff6-3b67-4283-a801-94c885a67e84"
      (reference "U4") (unit 1) (value "INA181") (footprint "Package_TO_SOT_SMD:SOT-23-6")
    )
    (path "/3f43d730-2a73-49fe-9672-32428e7f5b49/038e0195-3e8a-4e1e-9c55-563200ae992e"
      (reference "U5") (unit 1) (value "INA181") (footprint "Package_TO_SOT_SMD:SOT-23-6")
    )
    (path "/3f43d730-2a73-49fe-9672-32428e7f5b49/c86b2206-841e-48de-b8bf-1b2fe55dd6be"
      (reference "U6") (unit 1) (value "INA181") (footprint "Package_TO_SOT_SMD:SOT-23-6")
    )
    (path "/3f43d730-2a73-49fe-9672-32428e7f5b49/34112b6f-8d41-48f1-8a41-0140b895adf2"
      (reference "U7") (unit 1) (value "AMS1117-3.3") (footprint "Package_TO_SOT_SMD:SOT-223-3_TabPin2")
    )
    (path "/3f43d730-2a73-49fe-9672-32428e7f5b49/9c6dfa85-d11f-49d6-92e8-c1a32e3e0bbf"
      (reference "U8") (unit 1) (value "ADS7830") (footprint "Package_SO:TSSOP-16_4.4x5mm_P0.65mm")
    )
    (path "/aff73507-4f3a-4fb5-a966-c2bc3ad0d300/1fe45b04-0f11-4a65-9022-14d1da75276e"
      (reference "U9") (unit 1) (value "AT8870") (footprint "Package_SO:Diodes_PSOP-8")
    )
    (path "/aff73507-4f3a-4fb5-a966-c2bc3ad0d300/32243060-bf5d-42db-ad3b-643c10c26437"
      (reference "U10") (unit 1) (value "AT8870") (footprint "Package_SO:Diodes_PSOP-8")
    )
    (path "/aff73507-4f3a-4fb5-a966-c2bc3ad0d300/36832cf4-0a89-4bba-bbcf-e6ed1d9841fe"
      (reference "U11") (unit 1) (value "AT8870") (footprint "Package_SO:Diodes_PSOP-8")
    )
    (path "/aff73507-4f3a-4fb5-a966-c2bc3ad0d300/f5ddb397-39ab-4fbf-9fd3-c48b6fed8346"
      (reference "U12") (unit 1) (value "AT8870") (footprint "Package_SO:Diodes_PSOP-8")
    )
    (path "/aff73507-4f3a-4fb5-a966-c2bc3ad0d300/f018831d-a740-43a1-8de5-5d9b97a4c22a"
      (reference "U13") (unit 1) (value "AT8870") (footprint "Package_SO:Diodes_PSOP-8")
    )
    (path "/6311912c-38c9-4819-91b4-41931ccb7cc5/d6a7f71a-4da6-4997-9a3d-af77c0308253"
      (reference "U14") (unit 1) (value "STM32F030C8Tx") (footprint "Package_QFP:LQFP-48_7x7mm_P0.5mm")
    )
    (path "/3f43d730-2a73-49fe-9672-32428e7f5b49/373fabbc-958f-4987-8e73-c79cbf56d279"
      (reference "U15") (unit 1) (value "INA181") (footprint "Package_TO_SOT_SMD:SOT-23-6")
    )
    (path "/aff73507-4f3a-4fb5-a966-c2bc3ad0d300/946b8964-465e-4fe4-adac-47e599719e07"
      (reference "U16") (unit 1) (value "AT8870") (footprint "Package_SO:Diodes_PSOP-8")
    )
    (path "/6311912c-38c9-4819-91b4-41931ccb7cc5/867d4564-cb44-4c04-836f-7ab587f8da9a"
      (reference "Y1") (unit 1) (value "Crystal_GND24") (footprint "Crystal:Crystal_SMD_3225-4Pin_3.2x2.5mm")
    )
  )
)
