(kicad_sch (version 20211123) (generator eeschema)

  (uuid 8c5d7a6c-ac13-4b97-adbb-d3faa9937111)

  (paper "A4")

  (lib_symbols
    (symbol "Connector_Generic:Conn_02x03_Odd_Even" (pin_names (offset 1.016) hide) (in_bom yes) (on_board yes)
      (property "Reference" "J" (id 0) (at 1.27 5.08 0)
        (effects (font (size 1.27 1.27)))
      )
      (property "Value" "Conn_02x03_Odd_Even" (id 1) (at 1.27 -5.08 0)
        (effects (font (size 1.27 1.27)))
      )
      (property "Footprint" "" (id 2) (at 0 0 0)
        (effects (font (size 1.27 1.27)) hide)
      )
      (property "Datasheet" "~" (id 3) (at 0 0 0)
        (effects (font (size 1.27 1.27)) hide)
      )
      (property "ki_keywords" "connector" (id 4) (at 0 0 0)
        (effects (font (size 1.27 1.27)) hide)
      )
      (property "ki_description" "Generic connector, double row, 02x03, odd/even pin numbering scheme (row 1 odd numbers, row 2 even numbers), script generated (kicad-library-utils/schlib/autogen/connector/)" (id 5) (at 0 0 0)
        (effects (font (size 1.27 1.27)) hide)
      )
      (property "ki_fp_filters" "Connector*:*_2x??_*" (id 6) (at 0 0 0)
        (effects (font (size 1.27 1.27)) hide)
      )
      (symbol "Conn_02x03_Odd_Even_1_1"
        (rectangle (start -1.27 -2.413) (end 0 -2.667)
          (stroke (width 0.1524) (type default) (color 0 0 0 0))
          (fill (type none))
        )
        (rectangle (start -1.27 0.127) (end 0 -0.127)
          (stroke (width 0.1524) (type default) (color 0 0 0 0))
          (fill (type none))
        )
        (rectangle (start -1.27 2.667) (end 0 2.413)
          (stroke (width 0.1524) (type default) (color 0 0 0 0))
          (fill (type none))
        )
        (rectangle (start -1.27 3.81) (end 3.81 -3.81)
          (stroke (width 0.254) (type default) (color 0 0 0 0))
          (fill (type background))
        )
        (rectangle (start 3.81 -2.413) (end 2.54 -2.667)
          (stroke (width 0.1524) (type default) (color 0 0 0 0))
          (fill (type none))
        )
        (rectangle (start 3.81 0.127) (end 2.54 -0.127)
          (stroke (width 0.1524) (type default) (color 0 0 0 0))
          (fill (type none))
        )
        (rectangle (start 3.81 2.667) (end 2.54 2.413)
          (stroke (width 0.1524) (type default) (color 0 0 0 0))
          (fill (type none))
        )
        (pin passive line (at -5.08 2.54 0) (length 3.81)
          (name "Pin_1" (effects (font (size 1.27 1.27))))
          (number "1" (effects (font (size 1.27 1.27))))
        )
        (pin passive line (at 7.62 2.54 180) (length 3.81)
          (name "Pin_2" (effects (font (size 1.27 1.27))))
          (number "2" (effects (font (size 1.27 1.27))))
        )
        (pin passive line (at -5.08 0 0) (length 3.81)
          (name "Pin_3" (effects (font (size 1.27 1.27))))
          (number "3" (effects (font (size 1.27 1.27))))
        )
        (pin passive line (at 7.62 0 180) (length 3.81)
          (name "Pin_4" (effects (font (size 1.27 1.27))))
          (number "4" (effects (font (size 1.27 1.27))))
        )
        (pin passive line (at -5.08 -2.54 0) (length 3.81)
          (name "Pin_5" (effects (font (size 1.27 1.27))))
          (number "5" (effects (font (size 1.27 1.27))))
        )
        (pin passive line (at 7.62 -2.54 180) (length 3.81)
          (name "Pin_6" (effects (font (size 1.27 1.27))))
          (number "6" (effects (font (size 1.27 1.27))))
        )
      )
    )
    (symbol "Device:R" (pin_numbers hide) (pin_names (offset 0)) (in_bom yes) (on_board yes)
      (property "Reference" "R" (id 0) (at 2.032 0 90)
        (effects (font (size 1.27 1.27)))
      )
      (property "Value" "R" (id 1) (at 0 0 90)
        (effects (font (size 1.27 1.27)))
      )
      (property "Footprint" "" (id 2) (at -1.778 0 90)
        (effects (font (size 1.27 1.27)) hide)
      )
      (property "Datasheet" "~" (id 3) (at 0 0 0)
        (effects (font (size 1.27 1.27)) hide)
      )
      (property "ki_keywords" "R res resistor" (id 4) (at 0 0 0)
        (effects (font (size 1.27 1.27)) hide)
      )
      (property "ki_description" "Resistor" (id 5) (at 0 0 0)
        (effects (font (size 1.27 1.27)) hide)
      )
      (property "ki_fp_filters" "R_*" (id 6) (at 0 0 0)
        (effects (font (size 1.27 1.27)) hide)
      )
      (symbol "R_0_1"
        (rectangle (start -1.016 -2.54) (end 1.016 2.54)
          (stroke (width 0.254) (type default) (color 0 0 0 0))
          (fill (type none))
        )
      )
      (symbol "R_1_1"
        (pin passive line (at 0 3.81 270) (length 1.27)
          (name "~" (effects (font (size 1.27 1.27))))
          (number "1" (effects (font (size 1.27 1.27))))
        )
        (pin passive line (at 0 -3.81 90) (length 1.27)
          (name "~" (effects (font (size 1.27 1.27))))
          (number "2" (effects (font (size 1.27 1.27))))
        )
      )
    )
    (symbol "power:GND" (power) (pin_names (offset 0)) (in_bom yes) (on_board yes)
      (property "Reference" "#PWR" (id 0) (at 0 -6.35 0)
        (effects (font (size 1.27 1.27)) hide)
      )
      (property "Value" "GND" (id 1) (at 0 -3.81 0)
        (effects (font (size 1.27 1.27)))
      )
      (property "Footprint" "" (id 2) (at 0 0 0)
        (effects (font (size 1.27 1.27)) hide)
      )
      (property "Datasheet" "" (id 3) (at 0 0 0)
        (effects (font (size 1.27 1.27)) hide)
      )
      (property "ki_keywords" "power-flag" (id 4) (at 0 0 0)
        (effects (font (size 1.27 1.27)) hide)
      )
      (property "ki_description" "Power symbol creates a global label with name \"GND\" , ground" (id 5) (at 0 0 0)
        (effects (font (size 1.27 1.27)) hide)
      )
      (symbol "GND_0_1"
        (polyline
          (pts
            (xy 0 0)
            (xy 0 -1.27)
            (xy 1.27 -1.27)
            (xy 0 -2.54)
            (xy -1.27 -1.27)
            (xy 0 -1.27)
          )
          (stroke (width 0) (type default) (color 0 0 0 0))
          (fill (type none))
        )
      )
      (symbol "GND_1_1"
        (pin power_in line (at 0 0 270) (length 0) hide
          (name "GND" (effects (font (size 1.27 1.27))))
          (number "1" (effects (font (size 1.27 1.27))))
        )
      )
    )
  )


  (bus_entry (at 41.91 33.02) (size -2.54 2.54)
    (stroke (width 0) (type default) (color 0 0 0 0))
    (uuid 00b7d229-1173-4601-9fbb-0d09ecfd7e67)
  )
  (bus_entry (at 238.76 60.96) (size -2.54 2.54)
    (stroke (width 0) (type default) (color 0 0 0 0))
    (uuid 07242c27-8e5d-4815-957b-83caaa9a6687)
  )
  (bus_entry (at 238.76 35.56) (size -2.54 2.54)
    (stroke (width 0) (type default) (color 0 0 0 0))
    (uuid 081d4bc5-8b64-4d16-890c-8402bc1f4881)
  )
  (bus_entry (at 236.22 76.2) (size 2.54 -2.54)
    (stroke (width 0) (type default) (color 0 0 0 0))
    (uuid 12922f8e-1145-4963-a780-0f45eed5bbd7)
  )
  (bus_entry (at 238.76 71.12) (size -2.54 2.54)
    (stroke (width 0) (type default) (color 0 0 0 0))
    (uuid 17b97433-428b-455f-9d72-cd4764ae8272)
  )
  (bus_entry (at 39.37 27.94) (size 2.54 -2.54)
    (stroke (width 0) (type default) (color 0 0 0 0))
    (uuid 19bc0d0a-16d9-4446-905f-de7aa208b6ac)
  )
  (bus_entry (at 238.76 40.64) (size -2.54 2.54)
    (stroke (width 0) (type default) (color 0 0 0 0))
    (uuid 30c7879f-9552-41b5-a80c-a7c980a67363)
  )
  (bus_entry (at 236.22 45.72) (size 2.54 -2.54)
    (stroke (width 0) (type default) (color 0 0 0 0))
    (uuid 3f8aa169-b6ee-458e-aadd-9303677a6543)
  )
  (bus_entry (at 236.22 55.88) (size 2.54 -2.54)
    (stroke (width 0) (type default) (color 0 0 0 0))
    (uuid 47a7a101-e6ef-4fa2-87ca-76334940b757)
  )
  (bus_entry (at 39.37 43.18) (size 2.54 -2.54)
    (stroke (width 0) (type default) (color 0 0 0 0))
    (uuid 4c19870c-e758-4a29-929e-5c59170df057)
  )
  (bus_entry (at 238.76 66.04) (size -2.54 2.54)
    (stroke (width 0) (type default) (color 0 0 0 0))
    (uuid 4ea03ca2-d742-4805-9d06-8bcffc446990)
  )
  (bus_entry (at 238.76 76.2) (size -2.54 2.54)
    (stroke (width 0) (type default) (color 0 0 0 0))
    (uuid 529387b3-a2d3-444a-864c-47adc77cb50b)
  )
  (bus_entry (at 41.91 17.78) (size -2.54 2.54)
    (stroke (width 0) (type default) (color 0 0 0 0))
    (uuid 5b910ab1-5694-4468-9e80-3e69c48501e6)
  )
  (bus_entry (at 236.22 40.64) (size 2.54 -2.54)
    (stroke (width 0) (type default) (color 0 0 0 0))
    (uuid 704f6909-95dc-446f-8185-46f38bb54eaa)
  )
  (bus_entry (at 39.37 38.1) (size 2.54 -2.54)
    (stroke (width 0) (type default) (color 0 0 0 0))
    (uuid 70a3eaaa-956f-40ad-b6f2-c254722220ef)
  )
  (bus_entry (at 238.76 45.72) (size -2.54 2.54)
    (stroke (width 0) (type default) (color 0 0 0 0))
    (uuid 81674056-c53f-41c2-a43a-d9b6c652a622)
  )
  (bus_entry (at 238.76 81.28) (size -2.54 2.54)
    (stroke (width 0) (type default) (color 0 0 0 0))
    (uuid 865a128c-f803-42bd-a551-342b2971bf71)
  )
  (bus_entry (at 39.37 33.02) (size 2.54 -2.54)
    (stroke (width 0) (type default) (color 0 0 0 0))
    (uuid 8b2cbad5-cc53-4974-9c33-917953c9ed55)
  )
  (bus_entry (at 236.22 35.56) (size 2.54 -2.54)
    (stroke (width 0) (type default) (color 0 0 0 0))
    (uuid 95f60f90-ecfe-4edb-b9c0-ee52d5ba4a59)
  )
  (bus_entry (at 238.76 30.48) (size -2.54 2.54)
    (stroke (width 0) (type default) (color 0 0 0 0))
    (uuid 9683e1fe-041a-4f49-a16f-7b09ddcebe3f)
  )
  (bus_entry (at 41.91 22.86) (size -2.54 2.54)
    (stroke (width 0) (type default) (color 0 0 0 0))
    (uuid 9dbce36e-0cfe-4d67-901c-597560392f37)
  )
  (bus_entry (at 236.22 81.28) (size 2.54 -2.54)
    (stroke (width 0) (type default) (color 0 0 0 0))
    (uuid a4bac974-6950-46fc-80b6-6f288c8b409c)
  )
  (bus_entry (at 41.91 27.94) (size -2.54 2.54)
    (stroke (width 0) (type default) (color 0 0 0 0))
    (uuid ab6a020c-b60e-4e6e-854b-3258d2f0862d)
  )
  (bus_entry (at 238.76 50.8) (size -2.54 2.54)
    (stroke (width 0) (type default) (color 0 0 0 0))
    (uuid d35c5576-9408-4d2e-b66b-37b3f3ce2dd2)
  )
  (bus_entry (at 236.22 50.8) (size 2.54 -2.54)
    (stroke (width 0) (type default) (color 0 0 0 0))
    (uuid d71b5ef0-cca0-434b-9a45-7e75e9dea2f9)
  )
  (bus_entry (at 236.22 86.36) (size 2.54 -2.54)
    (stroke (width 0) (type default) (color 0 0 0 0))
    (uuid db842252-6b5a-4daf-9092-8fa419feb3a4)
  )
  (bus_entry (at 39.37 22.86) (size 2.54 -2.54)
    (stroke (width 0) (type default) (color 0 0 0 0))
    (uuid dec67842-e3b0-427b-bd71-a679168fb83f)
  )
  (bus_entry (at 41.91 38.1) (size -2.54 2.54)
    (stroke (width 0) (type default) (color 0 0 0 0))
    (uuid e0e9dec8-e066-4227-b9a6-469a9a80875d)
  )
  (bus_entry (at 236.22 71.12) (size 2.54 -2.54)
    (stroke (width 0) (type default) (color 0 0 0 0))
    (uuid e3148f91-ea2e-4f11-80b8-61ec615d6e17)
  )
  (bus_entry (at 236.22 66.04) (size 2.54 -2.54)
    (stroke (width 0) (type default) (color 0 0 0 0))
    (uuid eb599b52-679c-4d9e-a41a-caa8fb8865ef)
  )

  (wire (pts (xy 44.45 20.32) (xy 41.91 20.32))
    (stroke (width 0) (type default) (color 0 0 0 0))
    (uuid 002f50e2-29ec-4986-bae6-252daab8bdd4)
  )
  (wire (pts (xy 95.25 152.4) (xy 95.25 146.05))
    (stroke (width 0) (type default) (color 0 0 0 0))
    (uuid 01384694-eae9-4719-a8ba-09d1a7e5c9d3)
  )
  (wire (pts (xy 106.68 67.31) (xy 107.95 67.31))
    (stroke (width 0) (type default) (color 0 0 0 0))
    (uuid 07c93fe8-a9fe-4606-b618-00fe303a6c6c)
  )
  (wire (pts (xy 121.92 38.1) (xy 120.65 38.1))
    (stroke (width 0) (type default) (color 0 0 0 0))
    (uuid 09c48ed1-0810-4cf7-80f8-d92b33bb2aee)
  )
  (wire (pts (xy 233.68 55.88) (xy 236.22 55.88))
    (stroke (width 0) (type default) (color 0 0 0 0))
    (uuid 0ae52c2c-57d5-4c27-9a7a-ea8fc45ab3ed)
  )
  (wire (pts (xy 95.25 92.71) (xy 107.95 92.71))
    (stroke (width 0) (type default) (color 0 0 0 0))
    (uuid 0c7a8b48-9816-4a26-b7e4-226f254f5c1f)
  )
  (bus (pts (xy 39.37 40.64) (xy 39.37 43.18))
    (stroke (width 0) (type default) (color 0 0 0 0))
    (uuid 11cdd829-b29c-44c2-952a-a6c23a313843)
  )
  (bus (pts (xy 39.37 33.02) (xy 39.37 35.56))
    (stroke (width 0) (type default) (color 0 0 0 0))
    (uuid 16cd6b45-25c1-40e5-8ec5-ffb23c3883b1)
  )

  (wire (pts (xy 233.68 53.34) (xy 236.22 53.34))
    (stroke (width 0) (type default) (color 0 0 0 0))
    (uuid 1733d3f1-9045-4156-bdfa-b4fcc196b672)
  )
  (wire (pts (xy 233.68 35.56) (xy 236.22 35.56))
    (stroke (width 0) (type default) (color 0 0 0 0))
    (uuid 1a43073c-9828-47a6-926b-3980f60a77b9)
  )
  (wire (pts (xy 233.68 83.82) (xy 236.22 83.82))
    (stroke (width 0) (type default) (color 0 0 0 0))
    (uuid 1b634954-2d36-4b5b-8682-50292156c8c8)
  )
  (wire (pts (xy 44.45 33.02) (xy 41.91 33.02))
    (stroke (width 0) (type default) (color 0 0 0 0))
    (uuid 1d1eb72b-7373-4450-bf09-d82adabc9a18)
  )
  (wire (pts (xy 125.73 71.12) (xy 125.73 69.85))
    (stroke (width 0) (type default) (color 0 0 0 0))
    (uuid 1d3000b4-328e-46a6-a539-dc36ffc3e4e7)
  )
  (wire (pts (xy 95.25 41.91) (xy 95.25 35.56))
    (stroke (width 0) (type default) (color 0 0 0 0))
    (uuid 1ed5adce-5f3a-48fb-847a-b250e2764e1a)
  )
  (bus (pts (xy 36.83 43.18) (xy 39.37 43.18))
    (stroke (width 0) (type default) (color 0 0 0 0))
    (uuid 2022d659-9038-4ace-ac7a-00b0212e7172)
  )

  (wire (pts (xy 44.45 25.4) (xy 41.91 25.4))
    (stroke (width 0) (type default) (color 0 0 0 0))
    (uuid 207d5ef7-a9bf-472d-8bfd-154a4fb7cfb3)
  )
  (wire (pts (xy 133.35 125.73) (xy 133.35 119.38))
    (stroke (width 0) (type default) (color 0 0 0 0))
    (uuid 20a1a1e1-c5f2-494d-95a9-0b56dd17214d)
  )
  (wire (pts (xy 233.68 33.02) (xy 236.22 33.02))
    (stroke (width 0) (type default) (color 0 0 0 0))
    (uuid 22339885-9090-4a14-bfcb-873f9782813f)
  )
  (wire (pts (xy 95.25 64.77) (xy 107.95 64.77))
    (stroke (width 0) (type default) (color 0 0 0 0))
    (uuid 228252fe-e45b-44b9-afdd-450723b14fed)
  )
  (wire (pts (xy 102.87 152.4) (xy 102.87 151.13))
    (stroke (width 0) (type default) (color 0 0 0 0))
    (uuid 253dc745-324c-49f4-a9de-6ad4092c9429)
  )
  (wire (pts (xy 125.73 124.46) (xy 120.65 124.46))
    (stroke (width 0) (type default) (color 0 0 0 0))
    (uuid 25930e18-6dda-42aa-8691-4dcb40bf3972)
  )
  (wire (pts (xy 95.25 146.05) (xy 107.95 146.05))
    (stroke (width 0) (type default) (color 0 0 0 0))
    (uuid 25a4f078-38e2-4379-a8f2-22fb2305f266)
  )
  (wire (pts (xy 102.87 41.91) (xy 102.87 40.64))
    (stroke (width 0) (type default) (color 0 0 0 0))
    (uuid 273ba9b2-88a8-4fb0-aba2-ac9cd3f382b9)
  )
  (wire (pts (xy 125.73 152.4) (xy 125.73 151.13))
    (stroke (width 0) (type default) (color 0 0 0 0))
    (uuid 2839006b-dfee-4454-8aa5-ef344c2482e0)
  )
  (wire (pts (xy 133.35 152.4) (xy 133.35 146.05))
    (stroke (width 0) (type default) (color 0 0 0 0))
    (uuid 28813de1-1181-4954-9b30-8fdd54b5fb78)
  )
  (wire (pts (xy 233.68 68.58) (xy 236.22 68.58))
    (stroke (width 0) (type default) (color 0 0 0 0))
    (uuid 2b6203b8-0186-4732-b210-f75d8e5ef3ce)
  )
  (wire (pts (xy 233.68 73.66) (xy 236.22 73.66))
    (stroke (width 0) (type default) (color 0 0 0 0))
    (uuid 2c0ce4d5-21a4-42d8-8419-acb7ed642130)
  )
  (wire (pts (xy 44.45 35.56) (xy 41.91 35.56))
    (stroke (width 0) (type default) (color 0 0 0 0))
    (uuid 2d4607bb-3d67-4e26-aeda-1a7345ce0d41)
  )
  (wire (pts (xy 133.35 92.71) (xy 120.65 92.71))
    (stroke (width 0) (type default) (color 0 0 0 0))
    (uuid 2f39fead-128e-497f-9005-118a5c38bb73)
  )
  (wire (pts (xy 106.68 95.25) (xy 107.95 95.25))
    (stroke (width 0) (type default) (color 0 0 0 0))
    (uuid 3305d979-6736-4d34-b4c1-20897b1a7a3d)
  )
  (wire (pts (xy 102.87 71.12) (xy 102.87 69.85))
    (stroke (width 0) (type default) (color 0 0 0 0))
    (uuid 335ba644-ac5c-440a-9994-982f379c6d84)
  )
  (wire (pts (xy 233.68 86.36) (xy 236.22 86.36))
    (stroke (width 0) (type default) (color 0 0 0 0))
    (uuid 37fb92a3-23dd-49be-a90e-8b9825c7c06b)
  )
  (bus (pts (xy 241.3 30.48) (xy 238.76 30.48))
    (stroke (width 0) (type default) (color 0 0 0 0))
    (uuid 38260fcb-9268-46dc-b578-2005a0839834)
  )

  (wire (pts (xy 102.87 151.13) (xy 107.95 151.13))
    (stroke (width 0) (type default) (color 0 0 0 0))
    (uuid 382d59c3-8996-4c7f-aa46-b44b26206cc9)
  )
  (wire (pts (xy 44.45 38.1) (xy 41.91 38.1))
    (stroke (width 0) (type default) (color 0 0 0 0))
    (uuid 393b1aea-21a6-4477-b1c9-3cacce89cc7e)
  )
  (bus (pts (xy 241.3 60.96) (xy 238.76 60.96))
    (stroke (width 0) (type default) (color 0 0 0 0))
    (uuid 3a7ca09c-7aee-49c6-9ba8-72c2db867cbf)
  )

  (wire (pts (xy 125.73 97.79) (xy 120.65 97.79))
    (stroke (width 0) (type default) (color 0 0 0 0))
    (uuid 402ffd25-8708-41b3-8d0d-46f69a8da348)
  )
  (bus (pts (xy 238.76 68.58) (xy 238.76 66.04))
    (stroke (width 0) (type default) (color 0 0 0 0))
    (uuid 40f1b309-c487-4302-9e1e-9432a0e877cb)
  )
  (bus (pts (xy 238.76 71.12) (xy 238.76 68.58))
    (stroke (width 0) (type default) (color 0 0 0 0))
    (uuid 45f925a1-f510-465e-a6d7-38c9d08e8918)
  )

  (wire (pts (xy 121.92 95.25) (xy 120.65 95.25))
    (stroke (width 0) (type default) (color 0 0 0 0))
    (uuid 46d81839-919d-46bd-b7e4-0875bcd2bf17)
  )
  (wire (pts (xy 44.45 22.86) (xy 41.91 22.86))
    (stroke (width 0) (type default) (color 0 0 0 0))
    (uuid 47a5bec7-93a3-41d7-b5be-9dcf8a39a1df)
  )
  (wire (pts (xy 233.68 71.12) (xy 236.22 71.12))
    (stroke (width 0) (type default) (color 0 0 0 0))
    (uuid 49f912aa-f006-4b23-89a1-daf01c5ea4cd)
  )
  (wire (pts (xy 233.68 43.18) (xy 236.22 43.18))
    (stroke (width 0) (type default) (color 0 0 0 0))
    (uuid 4a69aff8-7227-4250-8038-820c44e17899)
  )
  (wire (pts (xy 102.87 125.73) (xy 102.87 124.46))
    (stroke (width 0) (type default) (color 0 0 0 0))
    (uuid 51d6018b-1c90-4f6b-9c7d-60493f3101aa)
  )
  (wire (pts (xy 106.68 148.59) (xy 107.95 148.59))
    (stroke (width 0) (type default) (color 0 0 0 0))
    (uuid 547fd10b-4cdf-4529-b7fa-a78119b105f1)
  )
  (bus (pts (xy 238.76 33.02) (xy 238.76 30.48))
    (stroke (width 0) (type default) (color 0 0 0 0))
    (uuid 558bd39c-d996-4325-81df-73ef35960c07)
  )
  (bus (pts (xy 39.37 30.48) (xy 39.37 33.02))
    (stroke (width 0) (type default) (color 0 0 0 0))
    (uuid 59a832d7-3e3b-4623-a7c8-8809cb49aa72)
  )
  (bus (pts (xy 238.76 43.18) (xy 238.76 40.64))
    (stroke (width 0) (type default) (color 0 0 0 0))
    (uuid 59f7e62b-e6b0-4a04-9e3d-07d6a2697c94)
  )

  (wire (pts (xy 125.73 151.13) (xy 120.65 151.13))
    (stroke (width 0) (type default) (color 0 0 0 0))
    (uuid 5c6176f3-7385-4980-bf20-2ecb698d961f)
  )
  (wire (pts (xy 44.45 40.64) (xy 41.91 40.64))
    (stroke (width 0) (type default) (color 0 0 0 0))
    (uuid 5df24041-068a-4ca2-84ac-a85afb64b827)
  )
  (bus (pts (xy 39.37 22.86) (xy 39.37 25.4))
    (stroke (width 0) (type default) (color 0 0 0 0))
    (uuid 5fbb2797-c14c-4856-a5e9-e1c3dc9ed994)
  )

  (wire (pts (xy 233.68 45.72) (xy 236.22 45.72))
    (stroke (width 0) (type default) (color 0 0 0 0))
    (uuid 6684dd98-0e59-4fd1-b888-850e30735389)
  )
  (bus (pts (xy 238.76 81.28) (xy 238.76 78.74))
    (stroke (width 0) (type default) (color 0 0 0 0))
    (uuid 69c46436-f385-470b-abfc-6984d335717f)
  )

  (wire (pts (xy 133.35 146.05) (xy 120.65 146.05))
    (stroke (width 0) (type default) (color 0 0 0 0))
    (uuid 6dc2a342-e82a-425a-a260-cddf0067c7e7)
  )
  (wire (pts (xy 95.25 99.06) (xy 95.25 92.71))
    (stroke (width 0) (type default) (color 0 0 0 0))
    (uuid 70c1f4fc-74d7-474f-9c0c-3855d71a0322)
  )
  (wire (pts (xy 133.35 64.77) (xy 120.65 64.77))
    (stroke (width 0) (type default) (color 0 0 0 0))
    (uuid 72e2a98b-56a6-4b2f-b11e-ababac588ddb)
  )
  (wire (pts (xy 233.68 78.74) (xy 236.22 78.74))
    (stroke (width 0) (type default) (color 0 0 0 0))
    (uuid 73eda855-da1b-4919-881a-b853290ead9d)
  )
  (bus (pts (xy 238.76 53.34) (xy 238.76 50.8))
    (stroke (width 0) (type default) (color 0 0 0 0))
    (uuid 77a0d40f-8590-4c21-81b5-bf74f1c32126)
  )
  (bus (pts (xy 39.37 20.32) (xy 39.37 22.86))
    (stroke (width 0) (type default) (color 0 0 0 0))
    (uuid 77da79aa-78d6-432b-b810-1bd0b6176633)
  )

  (wire (pts (xy 106.68 121.92) (xy 107.95 121.92))
    (stroke (width 0) (type default) (color 0 0 0 0))
    (uuid 795f8950-cc88-438c-90d3-fa439dbed3f8)
  )
  (wire (pts (xy 233.68 50.8) (xy 236.22 50.8))
    (stroke (width 0) (type default) (color 0 0 0 0))
    (uuid 7996cca0-477c-4020-948f-aa5299cd7c85)
  )
  (bus (pts (xy 238.76 66.04) (xy 238.76 63.5))
    (stroke (width 0) (type default) (color 0 0 0 0))
    (uuid 7c021f16-52f8-4c46-a216-84696137fd3b)
  )
  (bus (pts (xy 238.76 73.66) (xy 238.76 71.12))
    (stroke (width 0) (type default) (color 0 0 0 0))
    (uuid 7cddee81-32bd-4cdb-bc80-ffaf14d6635e)
  )

  (wire (pts (xy 233.68 63.5) (xy 236.22 63.5))
    (stroke (width 0) (type default) (color 0 0 0 0))
    (uuid 7d0524d1-52ce-48de-a5ec-bb15453d3f9f)
  )
  (wire (pts (xy 121.92 148.59) (xy 120.65 148.59))
    (stroke (width 0) (type default) (color 0 0 0 0))
    (uuid 809d9e1e-0b33-4e70-b29b-2d1c7b07cd60)
  )
  (wire (pts (xy 233.68 76.2) (xy 236.22 76.2))
    (stroke (width 0) (type default) (color 0 0 0 0))
    (uuid 88a12471-1601-4ef7-9dff-da15d103724d)
  )
  (wire (pts (xy 233.68 48.26) (xy 236.22 48.26))
    (stroke (width 0) (type default) (color 0 0 0 0))
    (uuid 8ce45827-5dab-4d34-af28-79cd71f80b94)
  )
  (wire (pts (xy 106.68 38.1) (xy 107.95 38.1))
    (stroke (width 0) (type default) (color 0 0 0 0))
    (uuid 8d04384f-bc44-4ced-a232-712dd74f2966)
  )
  (wire (pts (xy 102.87 124.46) (xy 107.95 124.46))
    (stroke (width 0) (type default) (color 0 0 0 0))
    (uuid 8e1fc143-25b2-4fd4-90db-86f27779ff8d)
  )
  (bus (pts (xy 238.76 78.74) (xy 238.76 76.2))
    (stroke (width 0) (type default) (color 0 0 0 0))
    (uuid 93498e43-ca2f-453c-999d-a21ed0d97e80)
  )

  (wire (pts (xy 133.35 119.38) (xy 120.65 119.38))
    (stroke (width 0) (type default) (color 0 0 0 0))
    (uuid 98c1093f-7d63-4c7c-b7a6-7ad551dfde13)
  )
  (wire (pts (xy 133.35 35.56) (xy 120.65 35.56))
    (stroke (width 0) (type default) (color 0 0 0 0))
    (uuid 99e83263-793f-4fa2-98e8-81ad72e290e9)
  )
  (wire (pts (xy 121.92 67.31) (xy 120.65 67.31))
    (stroke (width 0) (type default) (color 0 0 0 0))
    (uuid 9a892f47-9dc2-4b86-866b-8f97ad4dc2b2)
  )
  (wire (pts (xy 125.73 125.73) (xy 125.73 124.46))
    (stroke (width 0) (type default) (color 0 0 0 0))
    (uuid a27c710b-c003-4d58-95b8-d7937f4633a3)
  )
  (wire (pts (xy 102.87 97.79) (xy 107.95 97.79))
    (stroke (width 0) (type default) (color 0 0 0 0))
    (uuid a3d5947d-48d9-4cfb-8b57-bccedd26be65)
  )
  (bus (pts (xy 238.76 40.64) (xy 238.76 38.1))
    (stroke (width 0) (type default) (color 0 0 0 0))
    (uuid a4bf9445-609e-47f0-85de-5fa995c148a2)
  )
  (bus (pts (xy 238.76 83.82) (xy 238.76 81.28))
    (stroke (width 0) (type default) (color 0 0 0 0))
    (uuid a56f25b2-4012-49fa-8499-dd127ce98c93)
  )

  (wire (pts (xy 233.68 81.28) (xy 236.22 81.28))
    (stroke (width 0) (type default) (color 0 0 0 0))
    (uuid a7f0b1ad-d42e-46dd-9c53-449cfbb87f50)
  )
  (wire (pts (xy 133.35 41.91) (xy 133.35 35.56))
    (stroke (width 0) (type default) (color 0 0 0 0))
    (uuid a8450514-7fe3-4c6c-9f88-6acfa23d93ad)
  )
  (wire (pts (xy 125.73 99.06) (xy 125.73 97.79))
    (stroke (width 0) (type default) (color 0 0 0 0))
    (uuid a9fba900-cb02-448a-8f28-7952f7111e45)
  )
  (wire (pts (xy 102.87 69.85) (xy 107.95 69.85))
    (stroke (width 0) (type default) (color 0 0 0 0))
    (uuid aa1b700c-1303-43ee-a58c-9696f0a011fe)
  )
  (bus (pts (xy 238.76 76.2) (xy 238.76 73.66))
    (stroke (width 0) (type default) (color 0 0 0 0))
    (uuid aaaf007a-eb55-4305-9b84-d24162db5f0c)
  )
  (bus (pts (xy 238.76 50.8) (xy 238.76 48.26))
    (stroke (width 0) (type default) (color 0 0 0 0))
    (uuid aab0a18f-a64a-4102-a56a-1043b32cb328)
  )

  (wire (pts (xy 44.45 27.94) (xy 41.91 27.94))
    (stroke (width 0) (type default) (color 0 0 0 0))
    (uuid b01164f3-c14e-4163-87d7-96e045c35e64)
  )
  (wire (pts (xy 133.35 99.06) (xy 133.35 92.71))
    (stroke (width 0) (type default) (color 0 0 0 0))
    (uuid b08accb0-0724-438c-b1a2-b208747dfe9a)
  )
  (wire (pts (xy 95.25 35.56) (xy 107.95 35.56))
    (stroke (width 0) (type default) (color 0 0 0 0))
    (uuid b3a54db3-5800-471f-996a-f3b4c2742b48)
  )
  (wire (pts (xy 233.68 66.04) (xy 236.22 66.04))
    (stroke (width 0) (type default) (color 0 0 0 0))
    (uuid c37a07c8-5f7b-4abb-a529-a28e145ea8a7)
  )
  (wire (pts (xy 102.87 99.06) (xy 102.87 97.79))
    (stroke (width 0) (type default) (color 0 0 0 0))
    (uuid c381f116-d632-462f-bf87-9be467f56c46)
  )
  (bus (pts (xy 39.37 25.4) (xy 39.37 27.94))
    (stroke (width 0) (type default) (color 0 0 0 0))
    (uuid c54ba1d5-fae2-4379-bf68-abcfd8137817)
  )

  (wire (pts (xy 44.45 17.78) (xy 41.91 17.78))
    (stroke (width 0) (type default) (color 0 0 0 0))
    (uuid c5bbb7ab-8bd9-473d-825e-3cf9d2291c9f)
  )
  (bus (pts (xy 39.37 27.94) (xy 39.37 30.48))
    (stroke (width 0) (type default) (color 0 0 0 0))
    (uuid ce503d11-7fce-45b0-b69b-beedf3dd3525)
  )

  (wire (pts (xy 95.25 125.73) (xy 95.25 119.38))
    (stroke (width 0) (type default) (color 0 0 0 0))
    (uuid d27501dc-da61-4ef1-b6e5-75c065d8e7b6)
  )
  (wire (pts (xy 125.73 40.64) (xy 120.65 40.64))
    (stroke (width 0) (type default) (color 0 0 0 0))
    (uuid d29792b5-972d-4269-a76f-bf5ed1a9089c)
  )
  (bus (pts (xy 238.76 38.1) (xy 238.76 35.56))
    (stroke (width 0) (type default) (color 0 0 0 0))
    (uuid d4c18bd8-7432-42e4-bb2e-7160b6455c26)
  )

  (wire (pts (xy 125.73 41.91) (xy 125.73 40.64))
    (stroke (width 0) (type default) (color 0 0 0 0))
    (uuid d5319936-0fad-496b-9170-9c7ab7d4e2f9)
  )
  (bus (pts (xy 238.76 35.56) (xy 238.76 33.02))
    (stroke (width 0) (type default) (color 0 0 0 0))
    (uuid da875ab0-1d64-40f7-9fbb-ce03906d4dd9)
  )
  (bus (pts (xy 238.76 48.26) (xy 238.76 45.72))
    (stroke (width 0) (type default) (color 0 0 0 0))
    (uuid ddcc3e02-67f2-4dfa-a32a-75a02cf8a472)
  )

  (wire (pts (xy 95.25 119.38) (xy 107.95 119.38))
    (stroke (width 0) (type default) (color 0 0 0 0))
    (uuid df41e00d-f22e-4600-8eb9-81dbad5ad44a)
  )
  (wire (pts (xy 102.87 40.64) (xy 107.95 40.64))
    (stroke (width 0) (type default) (color 0 0 0 0))
    (uuid e0afa0a7-40dc-4309-ae54-7a7c4d7d4285)
  )
  (wire (pts (xy 95.25 71.12) (xy 95.25 64.77))
    (stroke (width 0) (type default) (color 0 0 0 0))
    (uuid e346cd96-913f-46e6-b730-8f2908021761)
  )
  (wire (pts (xy 125.73 69.85) (xy 120.65 69.85))
    (stroke (width 0) (type default) (color 0 0 0 0))
    (uuid e436efb6-61ea-4f96-87a2-3dcfde08aad1)
  )
  (bus (pts (xy 39.37 35.56) (xy 39.37 38.1))
    (stroke (width 0) (type default) (color 0 0 0 0))
    (uuid e8bbbf26-adbc-4057-91cc-99b706a37110)
  )
  (bus (pts (xy 238.76 63.5) (xy 238.76 60.96))
    (stroke (width 0) (type default) (color 0 0 0 0))
    (uuid e967cd21-adec-4686-877d-26d5a46b60b8)
  )

  (wire (pts (xy 121.92 121.92) (xy 120.65 121.92))
    (stroke (width 0) (type default) (color 0 0 0 0))
    (uuid f1c8c671-f41f-49d7-a5ef-4dc13517e013)
  )
  (wire (pts (xy 133.35 71.12) (xy 133.35 64.77))
    (stroke (width 0) (type default) (color 0 0 0 0))
    (uuid f2a1c280-9a1c-4504-9482-0f389a0fd9a7)
  )
  (bus (pts (xy 39.37 38.1) (xy 39.37 40.64))
    (stroke (width 0) (type default) (color 0 0 0 0))
    (uuid f3ea2bcd-335f-47f8-ae3d-ad197a218a8f)
  )

  (wire (pts (xy 44.45 30.48) (xy 41.91 30.48))
    (stroke (width 0) (type default) (color 0 0 0 0))
    (uuid f52cf280-584f-4075-a54d-0e2ad15c2ee4)
  )
  (wire (pts (xy 233.68 40.64) (xy 236.22 40.64))
    (stroke (width 0) (type default) (color 0 0 0 0))
    (uuid f564c6df-f8ba-4759-a4da-d49c67371e19)
  )
  (bus (pts (xy 238.76 45.72) (xy 238.76 43.18))
    (stroke (width 0) (type default) (color 0 0 0 0))
    (uuid f988a0ca-1939-4499-9a5b-12f182483801)
  )

  (wire (pts (xy 233.68 38.1) (xy 236.22 38.1))
    (stroke (width 0) (type default) (color 0 0 0 0))
    (uuid fbcc5402-fe91-4fcb-a988-dae62a03ec77)
  )

  (label "MOTOR_3B" (at 44.45 35.56 0)
    (effects (font (size 1.27 1.27)) (justify left bottom))
    (uuid 000460c5-e0e5-418f-a599-292873447a0b)
  )
  (label "M4_0" (at 233.68 83.82 180)
    (effects (font (size 1.27 1.27)) (justify right bottom))
    (uuid 0090a9d7-1eea-4e11-8aeb-44de0043bec0)
  )
  (label "STEP3" (at 106.68 119.38 180)
    (effects (font (size 1.27 1.27)) (justify right bottom))
    (uuid 0b2eca83-316a-411b-b897-ed0e53245c36)
  )
  (label "MOTOR_4A" (at 106.68 148.59 180)
    (effects (font (size 1.27 1.27)) (justify right bottom))
    (uuid 0d08c8f8-4944-4372-9370-12d140eaa24f)
  )
  (label "M1_0" (at 233.68 68.58 180)
    (effects (font (size 1.27 1.27)) (justify right bottom))
    (uuid 140ff98d-21b7-427c-9bcd-9e0e4d868a17)
  )
  (label "M0_1" (at 233.68 66.04 180)
    (effects (font (size 1.27 1.27)) (justify right bottom))
    (uuid 1a1b346d-cc8d-4302-a813-ed81c3604363)
  )
  (label "DIR2" (at 121.92 92.71 0)
    (effects (font (size 1.27 1.27)) (justify left bottom))
    (uuid 1c0af079-242f-4b10-89b4-dcfea42e1839)
  )
  (label "DIR1" (at 233.68 40.64 180)
    (effects (font (size 1.27 1.27)) (justify right bottom))
    (uuid 1d5b98c4-03ce-47d3-b89c-f681c526e06e)
  )
  (label "MOTOR_2B" (at 44.45 30.48 0)
    (effects (font (size 1.27 1.27)) (justify left bottom))
    (uuid 20794a0b-fe35-40f3-a754-b40fcfac7344)
  )
  (label "M3_0" (at 233.68 78.74 180)
    (effects (font (size 1.27 1.27)) (justify right bottom))
    (uuid 208bd06e-7906-4534-b063-0650ced56a6d)
  )
  (label "STEP1" (at 233.68 38.1 180)
    (effects (font (size 1.27 1.27)) (justify right bottom))
    (uuid 2153831a-3871-44d1-8c32-6da9b621cf31)
  )
  (label "STEP4" (at 106.68 146.05 180)
    (effects (font (size 1.27 1.27)) (justify right bottom))
    (uuid 24e2fcb0-497e-4381-8579-670dbe56864e)
  )
  (label "MOTOR_2B" (at 121.92 95.25 0)
    (effects (font (size 1.27 1.27)) (justify left bottom))
    (uuid 2873a7e6-168c-4cbf-a0b1-b4c56075c2ed)
  )
  (label "MOTOR_2A" (at 44.45 27.94 0)
    (effects (font (size 1.27 1.27)) (justify left bottom))
    (uuid 2a6f0025-963b-42a0-aba5-4dc7aadbc56f)
  )
  (label "MOTOR_4B" (at 44.45 40.64 0)
    (effects (font (size 1.27 1.27)) (justify left bottom))
    (uuid 34c30132-1127-4868-a874-07377eff130f)
  )
  (label "M0_1" (at 121.92 40.64 0)
    (effects (font (size 1.27 1.27)) (justify left bottom))
    (uuid 3dc65757-724c-4719-93ba-27972dd1a8c2)
  )
  (label "MOTOR_3A" (at 44.45 33.02 0)
    (effects (font (size 1.27 1.27)) (justify left bottom))
    (uuid 3ec2a83f-7270-42d1-a1ce-a2b90a4b5cf1)
  )
  (label "MOTOR_1A" (at 44.45 22.86 0)
    (effects (font (size 1.27 1.27)) (justify left bottom))
    (uuid 43c7ef45-5a2a-4575-967c-2997b1bce479)
  )
  (label "STEP2" (at 106.68 92.71 180)
    (effects (font (size 1.27 1.27)) (justify right bottom))
    (uuid 4df9d07f-5291-40b7-a101-6d19ecdaea0c)
  )
  (label "M3_1" (at 121.92 124.46 0)
    (effects (font (size 1.27 1.27)) (justify left bottom))
    (uuid 4e71d805-72c7-4d8e-b7ec-9791fbd0019e)
  )
  (label "M2_1" (at 121.92 97.79 0)
    (effects (font (size 1.27 1.27)) (justify left bottom))
    (uuid 5a0069bf-c698-45ab-8f03-e521f923e212)
  )
  (label "M0_0" (at 106.68 40.64 180)
    (effects (font (size 1.27 1.27)) (justify right bottom))
    (uuid 5b91d1c3-3790-4613-9c68-3da91319160a)
  )
  (label "STEP4" (at 233.68 53.34 180)
    (effects (font (size 1.27 1.27)) (justify right bottom))
    (uuid 5e741123-10d7-4fbc-b540-99a29e4546dc)
  )
  (label "DIR2" (at 233.68 45.72 180)
    (effects (font (size 1.27 1.27)) (justify right bottom))
    (uuid 6164aa86-891d-4cbd-a5d7-fc8e1d0844a4)
  )
  (label "M1_0" (at 106.68 69.85 180)
    (effects (font (size 1.27 1.27)) (justify right bottom))
    (uuid 659b069c-5076-465b-acd7-c3eabb6986c8)
  )
  (label "STEP1" (at 106.68 64.77 180)
    (effects (font (size 1.27 1.27)) (justify right bottom))
    (uuid 73075826-ef10-459c-ac78-3a6d653e1985)
  )
  (label "DIR4" (at 121.92 146.05 0)
    (effects (font (size 1.27 1.27)) (justify left bottom))
    (uuid 768e2ed3-9b2d-4a0c-9b2a-ed16fdb19e24)
  )
  (label "MOTOR_4B" (at 121.92 148.59 0)
    (effects (font (size 1.27 1.27)) (justify left bottom))
    (uuid 77c5bb93-d674-4856-9d7a-914fa4943c7c)
  )
  (label "STEP0" (at 233.68 33.02 180)
    (effects (font (size 1.27 1.27)) (justify right bottom))
    (uuid 79af90e9-d26c-428d-b612-422291c52662)
  )
  (label "MOTOR_1A" (at 106.68 67.31 180)
    (effects (font (size 1.27 1.27)) (justify right bottom))
    (uuid 810bca6a-1c03-4b96-9daa-54515b04fc39)
  )
  (label "M4_0" (at 106.68 151.13 180)
    (effects (font (size 1.27 1.27)) (justify right bottom))
    (uuid 870fa69a-f92d-4f79-adc2-25447d3076f6)
  )
  (label "MOTOR_2A" (at 106.68 95.25 180)
    (effects (font (size 1.27 1.27)) (justify right bottom))
    (uuid 879893a3-a471-42eb-9b7a-4ede9e1bea92)
  )
  (label "MOTOR_0B" (at 121.92 38.1 0)
    (effects (font (size 1.27 1.27)) (justify left bottom))
    (uuid 883454b1-4e45-4301-981b-f2b670069f75)
  )
  (label "M4_1" (at 233.68 86.36 180)
    (effects (font (size 1.27 1.27)) (justify right bottom))
    (uuid 8d64a691-d0ef-4ebc-a0ab-b4f765136248)
  )
  (label "MOTOR_3A" (at 106.68 121.92 180)
    (effects (font (size 1.27 1.27)) (justify right bottom))
    (uuid 8d9a26e4-ad10-4f61-a389-a3a1673ed59a)
  )
  (label "M3_1" (at 233.68 81.28 180)
    (effects (font (size 1.27 1.27)) (justify right bottom))
    (uuid 8e77c42d-cd51-4b8e-b890-69473bb06bcb)
  )
  (label "STEP0" (at 106.68 35.56 180)
    (effects (font (size 1.27 1.27)) (justify right bottom))
    (uuid 92be0634-6bf4-4b20-9cf5-e4cbb3fc71ad)
  )
  (label "DIR4" (at 233.68 55.88 180)
    (effects (font (size 1.27 1.27)) (justify right bottom))
    (uuid 95324b4b-c478-44bf-852f-32b67dde7e1a)
  )
  (label "MOTOR_4A" (at 44.45 38.1 0)
    (effects (font (size 1.27 1.27)) (justify left bottom))
    (uuid 98cf15e4-1466-498c-912c-ff8e56f266c4)
  )
  (label "MOTOR_3B" (at 121.92 121.92 0)
    (effects (font (size 1.27 1.27)) (justify left bottom))
    (uuid 9d8770f9-ed1d-408b-aab0-6c70477ba702)
  )
  (label "M1_1" (at 121.92 69.85 0)
    (effects (font (size 1.27 1.27)) (justify left bottom))
    (uuid 9f6314dc-6d89-44db-a877-5b9cbeb8dbc4)
  )
  (label "STEP2" (at 233.68 43.18 180)
    (effects (font (size 1.27 1.27)) (justify right bottom))
    (uuid a33350a4-4760-43d3-a0c1-98c2958aee66)
  )
  (label "DIR3" (at 233.68 50.8 180)
    (effects (font (size 1.27 1.27)) (justify right bottom))
    (uuid a4dc8206-fa70-446e-8f8c-61882cf77c32)
  )
  (label "DIR3" (at 121.92 119.38 0)
    (effects (font (size 1.27 1.27)) (justify left bottom))
    (uuid a8be5eff-7ea3-4057-84f8-1db30bcfd6a5)
  )
  (label "M1_1" (at 233.68 71.12 180)
    (effects (font (size 1.27 1.27)) (justify right bottom))
    (uuid ad14e1e9-cd32-4e5d-9bb7-e0454f35fc2f)
  )
  (label "M4_1" (at 121.92 151.13 0)
    (effects (font (size 1.27 1.27)) (justify left bottom))
    (uuid add3d8f4-7454-4293-92ad-c688857c9f68)
  )
  (label "MOTOR_1B" (at 44.45 25.4 0)
    (effects (font (size 1.27 1.27)) (justify left bottom))
    (uuid b5586ae9-c789-4954-9c7b-75ae64535f37)
  )
  (label "M3_0" (at 106.68 124.46 180)
    (effects (font (size 1.27 1.27)) (justify right bottom))
    (uuid bcc2df82-be78-4aa5-a97c-d57fe575e52e)
  )
  (label "M2_0" (at 106.68 97.79 180)
    (effects (font (size 1.27 1.27)) (justify right bottom))
    (uuid ca90d1bc-2130-4474-b42e-87ca6b29d717)
  )
  (label "M0_0" (at 233.68 63.5 180)
    (effects (font (size 1.27 1.27)) (justify right bottom))
    (uuid cebf6cca-2fbb-4134-ade8-8c0342e5941f)
  )
  (label "DIR0" (at 121.92 35.56 0)
    (effects (font (size 1.27 1.27)) (justify left bottom))
    (uuid d4cac58a-3b1c-4ed7-a2bd-a4119cea1450)
  )
  (label "MOTOR_0B" (at 44.45 20.32 0)
    (effects (font (size 1.27 1.27)) (justify left bottom))
    (uuid d8ad82fc-46bb-4c25-bf5c-877852689d19)
  )
  (label "M2_1" (at 233.68 76.2 180)
    (effects (font (size 1.27 1.27)) (justify right bottom))
    (uuid de58633a-fd11-4098-b7ee-fce01a9bd80f)
  )
  (label "DIR0" (at 233.68 35.56 180)
    (effects (font (size 1.27 1.27)) (justify right bottom))
    (uuid e1631d0f-d09a-4729-a1fe-7231fca74e54)
  )
  (label "M2_0" (at 233.68 73.66 180)
    (effects (font (size 1.27 1.27)) (justify right bottom))
    (uuid e1acdc68-e53e-4ff1-aab4-3bb15d913976)
  )
  (label "DIR1" (at 121.92 64.77 0)
    (effects (font (size 1.27 1.27)) (justify left bottom))
    (uuid e2207b85-1697-489f-a9c5-30213661d06e)
  )
  (label "MOTOR_0A" (at 44.45 17.78 0)
    (effects (font (size 1.27 1.27)) (justify left bottom))
    (uuid ee3b2f3c-1775-4d2b-8a31-0aca30305acc)
  )
  (label "STEP3" (at 233.68 48.26 180)
    (effects (font (size 1.27 1.27)) (justify right bottom))
    (uuid f6ac3c28-673f-44c7-a8ed-dbb5e71ed5eb)
  )
  (label "MOTOR_1B" (at 121.92 67.31 0)
    (effects (font (size 1.27 1.27)) (justify left bottom))
    (uuid fbdaa59d-a08d-4a0a-b040-e7b861a1339b)
  )
  (label "MOTOR_0A" (at 106.68 38.1 180)
    (effects (font (size 1.27 1.27)) (justify right bottom))
    (uuid fcc9551b-8fce-4da9-8814-0ff238f3459b)
  )

  (hierarchical_label "BRUSHED_CONTROLS" (shape output) (at 241.3 60.96 0)
    (effects (font (size 1.27 1.27)) (justify left))
    (uuid 16ae4e97-7bd4-4316-a7e2-61d1761245d5)
  )
  (hierarchical_label "MOTOR_CONTROLS" (shape input) (at 36.83 43.18 180)
    (effects (font (size 1.27 1.27)) (justify right))
    (uuid b9dae278-ec6d-4440-9cc4-6bb8265b73b0)
  )
  (hierarchical_label "STEPPER_CONTROLS" (shape output) (at 241.3 30.48 0)
    (effects (font (size 1.27 1.27)) (justify left))
    (uuid bbaecebf-5b3b-4270-b295-ca8c9c6a79ce)
  )

  (symbol (lib_id "Device:R") (at 133.35 156.21 0) (mirror x) (unit 1)
    (in_bom yes) (on_board yes)
    (uuid 011cc9af-3eae-47c4-b385-0323da0675b7)
    (property "Reference" "R93" (id 0) (at 132.08 154.94 0)
      (effects (font (size 1.27 1.27)) (justify right))
    )
    (property "Value" "10K" (id 1) (at 132.08 157.48 0)
      (effects (font (size 1.27 1.27)) (justify right))
    )
    (property "Footprint" "Resistor_SMD:R_0402_1005Metric" (id 2) (at 131.572 156.21 90)
      (effects (font (size 1.27 1.27)) hide)
    )
    (property "Datasheet" "https://datasheet.lcsc.com/lcsc/2206010100_UNI-ROYAL-Uniroyal-Elec-0402WGF1002TCE_C25744.pdf" (id 3) (at 133.35 156.21 0)
      (effects (font (size 1.27 1.27)) hide)
    )
    (pin "1" (uuid bcc76935-c9e0-43fe-a7c0-3000e8296dc2))
    (pin "2" (uuid aabd85e8-63e6-40ec-a64d-697c0fb503c4))
  )

  (symbol (lib_id "power:GND") (at 95.25 106.68 0) (unit 1)
    (in_bom yes) (on_board yes) (fields_autoplaced)
    (uuid 15baa082-9271-468c-ae21-6b835ce5b3ed)
    (property "Reference" "#PWR0308" (id 0) (at 95.25 113.03 0)
      (effects (font (size 1.27 1.27)) hide)
    )
    (property "Value" "GND" (id 1) (at 95.25 111.76 0))
    (property "Footprint" "" (id 2) (at 95.25 106.68 0)
      (effects (font (size 1.27 1.27)) hide)
    )
    (property "Datasheet" "" (id 3) (at 95.25 106.68 0)
      (effects (font (size 1.27 1.27)) hide)
    )
    (pin "1" (uuid 02732d34-040c-4362-97f5-9129bd0677b6))
  )

  (symbol (lib_id "Device:R") (at 102.87 45.72 180) (unit 1)
    (in_bom yes) (on_board yes)
    (uuid 1f12b470-e4c9-4e67-950c-f1a5091c5aae)
    (property "Reference" "R79" (id 0) (at 104.14 44.45 0)
      (effects (font (size 1.27 1.27)) (justify right))
    )
    (property "Value" "10K" (id 1) (at 104.14 46.99 0)
      (effects (font (size 1.27 1.27)) (justify right))
    )
    (property "Footprint" "Resistor_SMD:R_0402_1005Metric" (id 2) (at 104.648 45.72 90)
      (effects (font (size 1.27 1.27)) hide)
    )
    (property "Datasheet" "https://datasheet.lcsc.com/lcsc/2206010100_UNI-ROYAL-Uniroyal-Elec-0402WGF1002TCE_C25744.pdf" (id 3) (at 102.87 45.72 0)
      (effects (font (size 1.27 1.27)) hide)
    )
    (pin "1" (uuid 1b2740cb-1f88-42f3-afd5-6e0860f7d32d))
    (pin "2" (uuid b3d03e85-22ba-48ce-8ff5-76a96274a608))
  )

  (symbol (lib_id "Device:R") (at 133.35 74.93 0) (mirror x) (unit 1)
    (in_bom yes) (on_board yes)
    (uuid 26afa74b-d60f-425d-b789-9df1d2f47211)
    (property "Reference" "R90" (id 0) (at 132.08 73.66 0)
      (effects (font (size 1.27 1.27)) (justify right))
    )
    (property "Value" "10K" (id 1) (at 132.08 76.2 0)
      (effects (font (size 1.27 1.27)) (justify right))
    )
    (property "Footprint" "Resistor_SMD:R_0402_1005Metric" (id 2) (at 131.572 74.93 90)
      (effects (font (size 1.27 1.27)) hide)
    )
    (property "Datasheet" "https://datasheet.lcsc.com/lcsc/2206010100_UNI-ROYAL-Uniroyal-Elec-0402WGF1002TCE_C25744.pdf" (id 3) (at 133.35 74.93 0)
      (effects (font (size 1.27 1.27)) hide)
    )
    (pin "1" (uuid 216c4a2d-8fb7-4e97-8050-7710d3bb0351))
    (pin "2" (uuid 43caaa26-1cdd-483c-8376-f8a7b1910060))
  )

  (symbol (lib_id "Connector_Generic:Conn_02x03_Odd_Even") (at 113.03 148.59 0) (unit 1)
    (in_bom yes) (on_board yes) (fields_autoplaced)
    (uuid 28ebe813-6f9b-4b8c-8f2c-c88d722b3f01)
    (property "Reference" "J38" (id 0) (at 114.3 139.7 0))
    (property "Value" "Conn_02x03_Odd_Even" (id 1) (at 114.3 142.24 0))
    (property "Footprint" "Connector_PinHeader_2.54mm:PinHeader_2x03_P2.54mm_Vertical" (id 2) (at 113.03 148.59 0)
      (effects (font (size 1.27 1.27)) hide)
    )
    (property "Datasheet" "~" (id 3) (at 113.03 148.59 0)
      (effects (font (size 1.27 1.27)) hide)
    )
    (pin "1" (uuid fc7ee562-6797-47ab-a684-1525c3c2d899))
    (pin "2" (uuid d88ff98e-7c55-4e4c-8f4c-fcceb7c06909))
    (pin "3" (uuid 4cf3c758-014d-4904-b5ba-c489a5114df7))
    (pin "4" (uuid c591fe6e-70b4-41e6-8212-7b0b76cdfbc3))
    (pin "5" (uuid 4e9f6b06-3942-47ec-91b6-302ef574306f))
    (pin "6" (uuid 840e96dd-a7c3-46e9-88eb-4253a1e2b944))
  )

  (symbol (lib_id "Device:R") (at 102.87 156.21 180) (unit 1)
    (in_bom yes) (on_board yes)
    (uuid 2d701f63-5412-484b-8328-dc83a3fe03a5)
    (property "Reference" "R83" (id 0) (at 104.14 154.94 0)
      (effects (font (size 1.27 1.27)) (justify right))
    )
    (property "Value" "10K" (id 1) (at 104.14 157.48 0)
      (effects (font (size 1.27 1.27)) (justify right))
    )
    (property "Footprint" "Resistor_SMD:R_0402_1005Metric" (id 2) (at 104.648 156.21 90)
      (effects (font (size 1.27 1.27)) hide)
    )
    (property "Datasheet" "https://datasheet.lcsc.com/lcsc/2206010100_UNI-ROYAL-Uniroyal-Elec-0402WGF1002TCE_C25744.pdf" (id 3) (at 102.87 156.21 0)
      (effects (font (size 1.27 1.27)) hide)
    )
    (pin "1" (uuid 49831d3e-eb75-472b-80dc-a8143ce76db1))
    (pin "2" (uuid 899da906-b427-4467-85a0-7d3e145af60b))
  )

  (symbol (lib_id "Device:R") (at 133.35 129.54 0) (mirror x) (unit 1)
    (in_bom yes) (on_board yes)
    (uuid 3beec6c0-b4f5-40e3-9daa-963203477b87)
    (property "Reference" "R92" (id 0) (at 132.08 128.27 0)
      (effects (font (size 1.27 1.27)) (justify right))
    )
    (property "Value" "10K" (id 1) (at 132.08 130.81 0)
      (effects (font (size 1.27 1.27)) (justify right))
    )
    (property "Footprint" "Resistor_SMD:R_0402_1005Metric" (id 2) (at 131.572 129.54 90)
      (effects (font (size 1.27 1.27)) hide)
    )
    (property "Datasheet" "https://datasheet.lcsc.com/lcsc/2206010100_UNI-ROYAL-Uniroyal-Elec-0402WGF1002TCE_C25744.pdf" (id 3) (at 133.35 129.54 0)
      (effects (font (size 1.27 1.27)) hide)
    )
    (pin "1" (uuid a9f1a39d-48ca-4ab5-8fb3-3857e30ee23f))
    (pin "2" (uuid 2421e57d-7d61-4303-a314-956478869ed4))
  )

  (symbol (lib_id "power:GND") (at 102.87 49.53 0) (unit 1)
    (in_bom yes) (on_board yes) (fields_autoplaced)
    (uuid 436ad6e6-5b3a-41b5-a79f-ab86937aaee5)
    (property "Reference" "#PWR0289" (id 0) (at 102.87 55.88 0)
      (effects (font (size 1.27 1.27)) hide)
    )
    (property "Value" "GND" (id 1) (at 102.87 54.61 0))
    (property "Footprint" "" (id 2) (at 102.87 49.53 0)
      (effects (font (size 1.27 1.27)) hide)
    )
    (property "Datasheet" "" (id 3) (at 102.87 49.53 0)
      (effects (font (size 1.27 1.27)) hide)
    )
    (pin "1" (uuid c9f63052-4cf5-4bad-9735-6dff2d104173))
  )

  (symbol (lib_id "Device:R") (at 95.25 102.87 180) (unit 1)
    (in_bom yes) (on_board yes)
    (uuid 4948cb14-f99b-4ec5-8bb1-38a64c604d8a)
    (property "Reference" "R76" (id 0) (at 96.52 101.6 0)
      (effects (font (size 1.27 1.27)) (justify right))
    )
    (property "Value" "10K" (id 1) (at 96.52 104.14 0)
      (effects (font (size 1.27 1.27)) (justify right))
    )
    (property "Footprint" "Resistor_SMD:R_0402_1005Metric" (id 2) (at 97.028 102.87 90)
      (effects (font (size 1.27 1.27)) hide)
    )
    (property "Datasheet" "https://datasheet.lcsc.com/lcsc/2206010100_UNI-ROYAL-Uniroyal-Elec-0402WGF1002TCE_C25744.pdf" (id 3) (at 95.25 102.87 0)
      (effects (font (size 1.27 1.27)) hide)
    )
    (pin "1" (uuid 7d5eda83-f629-4b31-878c-dd63f4502095))
    (pin "2" (uuid fa5ecb9a-2ed2-4c37-8fa5-ae218f667c22))
  )

  (symbol (lib_id "power:GND") (at 95.25 160.02 0) (unit 1)
    (in_bom yes) (on_board yes) (fields_autoplaced)
    (uuid 52c7ac4a-0ff0-4de6-95af-1c9779d6d575)
    (property "Reference" "#PWR0301" (id 0) (at 95.25 166.37 0)
      (effects (font (size 1.27 1.27)) hide)
    )
    (property "Value" "GND" (id 1) (at 95.25 165.1 0))
    (property "Footprint" "" (id 2) (at 95.25 160.02 0)
      (effects (font (size 1.27 1.27)) hide)
    )
    (property "Datasheet" "" (id 3) (at 95.25 160.02 0)
      (effects (font (size 1.27 1.27)) hide)
    )
    (pin "1" (uuid b864ba2f-db2d-4df5-ada9-0b0bac14875b))
  )

  (symbol (lib_id "power:GND") (at 95.25 133.35 0) (unit 1)
    (in_bom yes) (on_board yes) (fields_autoplaced)
    (uuid 592a95bc-df52-4209-a67e-7aa9bbcbe1ec)
    (property "Reference" "#PWR0297" (id 0) (at 95.25 139.7 0)
      (effects (font (size 1.27 1.27)) hide)
    )
    (property "Value" "GND" (id 1) (at 95.25 138.43 0))
    (property "Footprint" "" (id 2) (at 95.25 133.35 0)
      (effects (font (size 1.27 1.27)) hide)
    )
    (property "Datasheet" "" (id 3) (at 95.25 133.35 0)
      (effects (font (size 1.27 1.27)) hide)
    )
    (pin "1" (uuid 83cfb841-6307-4c6c-9f0b-4df6fff2d900))
  )

  (symbol (lib_id "Device:R") (at 95.25 129.54 180) (unit 1)
    (in_bom yes) (on_board yes)
    (uuid 5aeeecdd-07e8-4812-9a8f-260b9d90aded)
    (property "Reference" "R77" (id 0) (at 96.52 128.27 0)
      (effects (font (size 1.27 1.27)) (justify right))
    )
    (property "Value" "10K" (id 1) (at 96.52 130.81 0)
      (effects (font (size 1.27 1.27)) (justify right))
    )
    (property "Footprint" "Resistor_SMD:R_0402_1005Metric" (id 2) (at 97.028 129.54 90)
      (effects (font (size 1.27 1.27)) hide)
    )
    (property "Datasheet" "https://datasheet.lcsc.com/lcsc/2206010100_UNI-ROYAL-Uniroyal-Elec-0402WGF1002TCE_C25744.pdf" (id 3) (at 95.25 129.54 0)
      (effects (font (size 1.27 1.27)) hide)
    )
    (pin "1" (uuid 6b952404-fd78-4f45-8afd-48ad09cab538))
    (pin "2" (uuid 3c9235b2-b9e0-45b5-aa75-db58099ed8c8))
  )

  (symbol (lib_id "Connector_Generic:Conn_02x03_Odd_Even") (at 113.03 38.1 0) (unit 1)
    (in_bom yes) (on_board yes) (fields_autoplaced)
    (uuid 5b110ef5-9788-4ed5-bd20-67265f041396)
    (property "Reference" "J34" (id 0) (at 114.3 29.21 0))
    (property "Value" "Conn_02x03_Odd_Even" (id 1) (at 114.3 31.75 0))
    (property "Footprint" "Connector_PinHeader_2.54mm:PinHeader_2x03_P2.54mm_Vertical" (id 2) (at 113.03 38.1 0)
      (effects (font (size 1.27 1.27)) hide)
    )
    (property "Datasheet" "~" (id 3) (at 113.03 38.1 0)
      (effects (font (size 1.27 1.27)) hide)
    )
    (pin "1" (uuid 194900b3-d374-4d98-8d54-d804c5fe6670))
    (pin "2" (uuid f2ef340e-c5fd-47cd-ab02-2d337bfc620a))
    (pin "3" (uuid 9d67c105-c8e0-47da-bee8-87154e6a77e7))
    (pin "4" (uuid 3cb8c66a-a350-4393-83a7-6a0c2285214d))
    (pin "5" (uuid 12d2b142-b3cc-4ab4-9b0c-58c6c0b9c375))
    (pin "6" (uuid d6c36453-1559-46e4-a34a-7ea263eb8289))
  )

  (symbol (lib_id "Connector_Generic:Conn_02x03_Odd_Even") (at 113.03 67.31 0) (unit 1)
    (in_bom yes) (on_board yes) (fields_autoplaced)
    (uuid 64339504-0822-4916-a3e7-fb7f2bf1305c)
    (property "Reference" "J35" (id 0) (at 114.3 58.42 0))
    (property "Value" "Conn_02x03_Odd_Even" (id 1) (at 114.3 60.96 0))
    (property "Footprint" "Connector_PinHeader_2.54mm:PinHeader_2x03_P2.54mm_Vertical" (id 2) (at 113.03 67.31 0)
      (effects (font (size 1.27 1.27)) hide)
    )
    (property "Datasheet" "~" (id 3) (at 113.03 67.31 0)
      (effects (font (size 1.27 1.27)) hide)
    )
    (pin "1" (uuid 69b40a6a-bf29-4db0-9e91-27d48eb3310e))
    (pin "2" (uuid 832c6cac-223d-466e-966e-adb74313e78f))
    (pin "3" (uuid d5230f99-ecea-4026-a189-20d897fdc8bf))
    (pin "4" (uuid 7f0742c5-7fb5-47f3-b290-a712fcd3a319))
    (pin "5" (uuid 19a36078-1ee2-4e77-8438-c72be16b1be7))
    (pin "6" (uuid 2cd4daeb-c744-4518-bc1b-bcbd82919c8f))
  )

  (symbol (lib_id "power:GND") (at 125.73 78.74 0) (unit 1)
    (in_bom yes) (on_board yes) (fields_autoplaced)
    (uuid 6d42408d-3225-4978-942f-d691da311314)
    (property "Reference" "#PWR0294" (id 0) (at 125.73 85.09 0)
      (effects (font (size 1.27 1.27)) hide)
    )
    (property "Value" "GND" (id 1) (at 125.73 83.82 0))
    (property "Footprint" "" (id 2) (at 125.73 78.74 0)
      (effects (font (size 1.27 1.27)) hide)
    )
    (property "Datasheet" "" (id 3) (at 125.73 78.74 0)
      (effects (font (size 1.27 1.27)) hide)
    )
    (pin "1" (uuid b35634a0-0365-4548-8861-e44ade7c28b3))
  )

  (symbol (lib_id "power:GND") (at 102.87 133.35 0) (unit 1)
    (in_bom yes) (on_board yes) (fields_autoplaced)
    (uuid 70edadb6-5968-49f7-af56-95ff70c1ff40)
    (property "Reference" "#PWR0298" (id 0) (at 102.87 139.7 0)
      (effects (font (size 1.27 1.27)) hide)
    )
    (property "Value" "GND" (id 1) (at 102.87 138.43 0))
    (property "Footprint" "" (id 2) (at 102.87 133.35 0)
      (effects (font (size 1.27 1.27)) hide)
    )
    (property "Datasheet" "" (id 3) (at 102.87 133.35 0)
      (effects (font (size 1.27 1.27)) hide)
    )
    (pin "1" (uuid a548ced2-7357-4e58-bacf-402d1fe36048))
  )

  (symbol (lib_id "power:GND") (at 125.73 160.02 0) (unit 1)
    (in_bom yes) (on_board yes) (fields_autoplaced)
    (uuid 71837fa6-9540-4353-a285-c1c51f68d4a2)
    (property "Reference" "#PWR0304" (id 0) (at 125.73 166.37 0)
      (effects (font (size 1.27 1.27)) hide)
    )
    (property "Value" "GND" (id 1) (at 125.73 165.1 0))
    (property "Footprint" "" (id 2) (at 125.73 160.02 0)
      (effects (font (size 1.27 1.27)) hide)
    )
    (property "Datasheet" "" (id 3) (at 125.73 160.02 0)
      (effects (font (size 1.27 1.27)) hide)
    )
    (pin "1" (uuid d7483c54-def9-45b3-890a-cd075aa7783a))
  )

  (symbol (lib_id "Device:R") (at 125.73 129.54 0) (mirror x) (unit 1)
    (in_bom yes) (on_board yes)
    (uuid 73b34fc7-6cd2-4d25-b4e6-0508672a8496)
    (property "Reference" "R87" (id 0) (at 124.46 128.27 0)
      (effects (font (size 1.27 1.27)) (justify right))
    )
    (property "Value" "10K" (id 1) (at 124.46 130.81 0)
      (effects (font (size 1.27 1.27)) (justify right))
    )
    (property "Footprint" "Resistor_SMD:R_0402_1005Metric" (id 2) (at 123.952 129.54 90)
      (effects (font (size 1.27 1.27)) hide)
    )
    (property "Datasheet" "https://datasheet.lcsc.com/lcsc/2206010100_UNI-ROYAL-Uniroyal-Elec-0402WGF1002TCE_C25744.pdf" (id 3) (at 125.73 129.54 0)
      (effects (font (size 1.27 1.27)) hide)
    )
    (pin "1" (uuid 698b9714-3d51-48bb-b835-a5956783bf8b))
    (pin "2" (uuid 01ec6fb6-f966-41c8-b8ea-0cbca6284783))
  )

  (symbol (lib_id "Device:R") (at 125.73 45.72 0) (mirror x) (unit 1)
    (in_bom yes) (on_board yes)
    (uuid 75355b05-93d8-448d-8ea3-ac6e9b8a31c4)
    (property "Reference" "R84" (id 0) (at 124.46 44.45 0)
      (effects (font (size 1.27 1.27)) (justify right))
    )
    (property "Value" "10K" (id 1) (at 124.46 46.99 0)
      (effects (font (size 1.27 1.27)) (justify right))
    )
    (property "Footprint" "Resistor_SMD:R_0402_1005Metric" (id 2) (at 123.952 45.72 90)
      (effects (font (size 1.27 1.27)) hide)
    )
    (property "Datasheet" "https://datasheet.lcsc.com/lcsc/2206010100_UNI-ROYAL-Uniroyal-Elec-0402WGF1002TCE_C25744.pdf" (id 3) (at 125.73 45.72 0)
      (effects (font (size 1.27 1.27)) hide)
    )
    (pin "1" (uuid 2d7e70f0-c5c3-4ce7-acbe-79be5a1e48a6))
    (pin "2" (uuid 857a3db0-a8a6-4d99-8ac5-08d358c43e46))
  )

  (symbol (lib_id "power:GND") (at 102.87 106.68 0) (unit 1)
    (in_bom yes) (on_board yes) (fields_autoplaced)
    (uuid 7e125c29-c413-446e-9e7e-9eb5236ed49b)
    (property "Reference" "#PWR0307" (id 0) (at 102.87 113.03 0)
      (effects (font (size 1.27 1.27)) hide)
    )
    (property "Value" "GND" (id 1) (at 102.87 111.76 0))
    (property "Footprint" "" (id 2) (at 102.87 106.68 0)
      (effects (font (size 1.27 1.27)) hide)
    )
    (property "Datasheet" "" (id 3) (at 102.87 106.68 0)
      (effects (font (size 1.27 1.27)) hide)
    )
    (pin "1" (uuid d6b33c35-126e-4cba-8983-4ab95aea1982))
  )

  (symbol (lib_id "Device:R") (at 95.25 156.21 180) (unit 1)
    (in_bom yes) (on_board yes)
    (uuid 7ff92d25-3505-420f-9fbf-5fbfa79e9b00)
    (property "Reference" "R78" (id 0) (at 96.52 154.94 0)
      (effects (font (size 1.27 1.27)) (justify right))
    )
    (property "Value" "10K" (id 1) (at 96.52 157.48 0)
      (effects (font (size 1.27 1.27)) (justify right))
    )
    (property "Footprint" "Resistor_SMD:R_0402_1005Metric" (id 2) (at 97.028 156.21 90)
      (effects (font (size 1.27 1.27)) hide)
    )
    (property "Datasheet" "https://datasheet.lcsc.com/lcsc/2206010100_UNI-ROYAL-Uniroyal-Elec-0402WGF1002TCE_C25744.pdf" (id 3) (at 95.25 156.21 0)
      (effects (font (size 1.27 1.27)) hide)
    )
    (pin "1" (uuid 8a9c537f-c65e-44c4-ac1b-a49ad14eeebc))
    (pin "2" (uuid 00917485-2f38-4ff2-bb9b-417c6a5c7c1f))
  )

  (symbol (lib_id "Device:R") (at 95.25 45.72 180) (unit 1)
    (in_bom yes) (on_board yes)
    (uuid 80d1908a-3214-4dad-8712-d8b4383494aa)
    (property "Reference" "R74" (id 0) (at 96.52 44.45 0)
      (effects (font (size 1.27 1.27)) (justify right))
    )
    (property "Value" "10K" (id 1) (at 96.52 46.99 0)
      (effects (font (size 1.27 1.27)) (justify right))
    )
    (property "Footprint" "Resistor_SMD:R_0402_1005Metric" (id 2) (at 97.028 45.72 90)
      (effects (font (size 1.27 1.27)) hide)
    )
    (property "Datasheet" "https://datasheet.lcsc.com/lcsc/2206010100_UNI-ROYAL-Uniroyal-Elec-0402WGF1002TCE_C25744.pdf" (id 3) (at 95.25 45.72 0)
      (effects (font (size 1.27 1.27)) hide)
    )
    (pin "1" (uuid da24a637-1119-493b-99b2-41806848bde9))
    (pin "2" (uuid be05dc07-d0e3-43cb-af52-17028c65bae4))
  )

  (symbol (lib_id "power:GND") (at 102.87 160.02 0) (unit 1)
    (in_bom yes) (on_board yes) (fields_autoplaced)
    (uuid 877dc7a1-bee5-4acf-8816-39b07793edd0)
    (property "Reference" "#PWR0302" (id 0) (at 102.87 166.37 0)
      (effects (font (size 1.27 1.27)) hide)
    )
    (property "Value" "GND" (id 1) (at 102.87 165.1 0))
    (property "Footprint" "" (id 2) (at 102.87 160.02 0)
      (effects (font (size 1.27 1.27)) hide)
    )
    (property "Datasheet" "" (id 3) (at 102.87 160.02 0)
      (effects (font (size 1.27 1.27)) hide)
    )
    (pin "1" (uuid 628f8fdb-c877-4329-8f6a-2b71f06fde07))
  )

  (symbol (lib_id "Device:R") (at 102.87 74.93 180) (unit 1)
    (in_bom yes) (on_board yes)
    (uuid 881c82f2-a7c5-4c4b-b815-3415ee4019a9)
    (property "Reference" "R80" (id 0) (at 104.14 73.66 0)
      (effects (font (size 1.27 1.27)) (justify right))
    )
    (property "Value" "10K" (id 1) (at 104.14 76.2 0)
      (effects (font (size 1.27 1.27)) (justify right))
    )
    (property "Footprint" "Resistor_SMD:R_0402_1005Metric" (id 2) (at 104.648 74.93 90)
      (effects (font (size 1.27 1.27)) hide)
    )
    (property "Datasheet" "https://datasheet.lcsc.com/lcsc/2206010100_UNI-ROYAL-Uniroyal-Elec-0402WGF1002TCE_C25744.pdf" (id 3) (at 102.87 74.93 0)
      (effects (font (size 1.27 1.27)) hide)
    )
    (pin "1" (uuid 95e078aa-f491-4b6c-a976-40a469770fb3))
    (pin "2" (uuid 880b86d6-e52e-4ca3-973b-a3bf9d39ff29))
  )

  (symbol (lib_id "Device:R") (at 125.73 102.87 0) (mirror x) (unit 1)
    (in_bom yes) (on_board yes)
    (uuid 89110e8c-8e1f-4b84-9adf-eb0e18e80de4)
    (property "Reference" "R86" (id 0) (at 124.46 101.6 0)
      (effects (font (size 1.27 1.27)) (justify right))
    )
    (property "Value" "10K" (id 1) (at 124.46 104.14 0)
      (effects (font (size 1.27 1.27)) (justify right))
    )
    (property "Footprint" "Resistor_SMD:R_0402_1005Metric" (id 2) (at 123.952 102.87 90)
      (effects (font (size 1.27 1.27)) hide)
    )
    (property "Datasheet" "https://datasheet.lcsc.com/lcsc/2206010100_UNI-ROYAL-Uniroyal-Elec-0402WGF1002TCE_C25744.pdf" (id 3) (at 125.73 102.87 0)
      (effects (font (size 1.27 1.27)) hide)
    )
    (pin "1" (uuid a99aeb7e-1762-4cc2-a5f9-cd6fa5bd3d31))
    (pin "2" (uuid a06b1364-fa24-4b45-b45f-1af810f45bcc))
  )

  (symbol (lib_id "power:GND") (at 125.73 133.35 0) (unit 1)
    (in_bom yes) (on_board yes) (fields_autoplaced)
    (uuid 8b0b11f7-1cdc-4109-b0e3-c6545a350e90)
    (property "Reference" "#PWR0299" (id 0) (at 125.73 139.7 0)
      (effects (font (size 1.27 1.27)) hide)
    )
    (property "Value" "GND" (id 1) (at 125.73 138.43 0))
    (property "Footprint" "" (id 2) (at 125.73 133.35 0)
      (effects (font (size 1.27 1.27)) hide)
    )
    (property "Datasheet" "" (id 3) (at 125.73 133.35 0)
      (effects (font (size 1.27 1.27)) hide)
    )
    (pin "1" (uuid b1c38868-2105-4a97-9b1b-0f1ce40ff3ea))
  )

  (symbol (lib_id "power:GND") (at 125.73 49.53 0) (unit 1)
    (in_bom yes) (on_board yes) (fields_autoplaced)
    (uuid 8cbf0438-17ef-405b-a315-58c127a8731b)
    (property "Reference" "#PWR0291" (id 0) (at 125.73 55.88 0)
      (effects (font (size 1.27 1.27)) hide)
    )
    (property "Value" "GND" (id 1) (at 125.73 54.61 0))
    (property "Footprint" "" (id 2) (at 125.73 49.53 0)
      (effects (font (size 1.27 1.27)) hide)
    )
    (property "Datasheet" "" (id 3) (at 125.73 49.53 0)
      (effects (font (size 1.27 1.27)) hide)
    )
    (pin "1" (uuid a2b9779f-b4db-4f5c-9bfa-3f78c7c42f19))
  )

  (symbol (lib_id "Device:R") (at 125.73 74.93 0) (mirror x) (unit 1)
    (in_bom yes) (on_board yes)
    (uuid 9417a6f9-eaf2-4cd5-8a16-3a062153e57f)
    (property "Reference" "R85" (id 0) (at 124.46 73.66 0)
      (effects (font (size 1.27 1.27)) (justify right))
    )
    (property "Value" "10K" (id 1) (at 124.46 76.2 0)
      (effects (font (size 1.27 1.27)) (justify right))
    )
    (property "Footprint" "Resistor_SMD:R_0402_1005Metric" (id 2) (at 123.952 74.93 90)
      (effects (font (size 1.27 1.27)) hide)
    )
    (property "Datasheet" "https://datasheet.lcsc.com/lcsc/2206010100_UNI-ROYAL-Uniroyal-Elec-0402WGF1002TCE_C25744.pdf" (id 3) (at 125.73 74.93 0)
      (effects (font (size 1.27 1.27)) hide)
    )
    (pin "1" (uuid 32c43136-95bc-4e95-bef8-5cb6b51d0760))
    (pin "2" (uuid c2810a9e-4f9b-4dd2-a77d-279e9123a6e2))
  )

  (symbol (lib_id "power:GND") (at 133.35 49.53 0) (unit 1)
    (in_bom yes) (on_board yes) (fields_autoplaced)
    (uuid 96657b4e-50d9-46c1-88bb-d97296a2209a)
    (property "Reference" "#PWR0292" (id 0) (at 133.35 55.88 0)
      (effects (font (size 1.27 1.27)) hide)
    )
    (property "Value" "GND" (id 1) (at 133.35 54.61 0))
    (property "Footprint" "" (id 2) (at 133.35 49.53 0)
      (effects (font (size 1.27 1.27)) hide)
    )
    (property "Datasheet" "" (id 3) (at 133.35 49.53 0)
      (effects (font (size 1.27 1.27)) hide)
    )
    (pin "1" (uuid 83787720-ac30-4497-829d-e1104087bcb3))
  )

  (symbol (lib_id "Device:R") (at 102.87 129.54 180) (unit 1)
    (in_bom yes) (on_board yes)
    (uuid 969e4540-bf26-470a-aa76-a90607cc1016)
    (property "Reference" "R82" (id 0) (at 104.14 128.27 0)
      (effects (font (size 1.27 1.27)) (justify right))
    )
    (property "Value" "10K" (id 1) (at 104.14 130.81 0)
      (effects (font (size 1.27 1.27)) (justify right))
    )
    (property "Footprint" "Resistor_SMD:R_0402_1005Metric" (id 2) (at 104.648 129.54 90)
      (effects (font (size 1.27 1.27)) hide)
    )
    (property "Datasheet" "https://datasheet.lcsc.com/lcsc/2206010100_UNI-ROYAL-Uniroyal-Elec-0402WGF1002TCE_C25744.pdf" (id 3) (at 102.87 129.54 0)
      (effects (font (size 1.27 1.27)) hide)
    )
    (pin "1" (uuid 71851e0a-55a6-44fc-9ff2-e6a6c3087a7d))
    (pin "2" (uuid 6c9fac5e-93e2-4675-86f5-49b1cda24c13))
  )

  (symbol (lib_id "Device:R") (at 125.73 156.21 0) (mirror x) (unit 1)
    (in_bom yes) (on_board yes)
    (uuid 9e70e5e5-b425-4bc4-b9ae-8941114126b6)
    (property "Reference" "R88" (id 0) (at 124.46 154.94 0)
      (effects (font (size 1.27 1.27)) (justify right))
    )
    (property "Value" "10K" (id 1) (at 124.46 157.48 0)
      (effects (font (size 1.27 1.27)) (justify right))
    )
    (property "Footprint" "Resistor_SMD:R_0402_1005Metric" (id 2) (at 123.952 156.21 90)
      (effects (font (size 1.27 1.27)) hide)
    )
    (property "Datasheet" "https://datasheet.lcsc.com/lcsc/2206010100_UNI-ROYAL-Uniroyal-Elec-0402WGF1002TCE_C25744.pdf" (id 3) (at 125.73 156.21 0)
      (effects (font (size 1.27 1.27)) hide)
    )
    (pin "1" (uuid cf3bd754-89c1-4d53-b1eb-1553648addc3))
    (pin "2" (uuid 893a0aac-5e6a-4259-83cd-c033eb799ace))
  )

  (symbol (lib_id "power:GND") (at 133.35 78.74 0) (unit 1)
    (in_bom yes) (on_board yes) (fields_autoplaced)
    (uuid a2b2a767-aea2-4a50-960b-17ea5bf4c9b1)
    (property "Reference" "#PWR0295" (id 0) (at 133.35 85.09 0)
      (effects (font (size 1.27 1.27)) hide)
    )
    (property "Value" "GND" (id 1) (at 133.35 83.82 0))
    (property "Footprint" "" (id 2) (at 133.35 78.74 0)
      (effects (font (size 1.27 1.27)) hide)
    )
    (property "Datasheet" "" (id 3) (at 133.35 78.74 0)
      (effects (font (size 1.27 1.27)) hide)
    )
    (pin "1" (uuid 901cfb5a-b5f0-46e5-a369-07970e050f5c))
  )

  (symbol (lib_id "power:GND") (at 133.35 160.02 0) (unit 1)
    (in_bom yes) (on_board yes) (fields_autoplaced)
    (uuid a2f69f6a-c078-4fb2-adc1-5912a9de7cb4)
    (property "Reference" "#PWR0303" (id 0) (at 133.35 166.37 0)
      (effects (font (size 1.27 1.27)) hide)
    )
    (property "Value" "GND" (id 1) (at 133.35 165.1 0))
    (property "Footprint" "" (id 2) (at 133.35 160.02 0)
      (effects (font (size 1.27 1.27)) hide)
    )
    (property "Datasheet" "" (id 3) (at 133.35 160.02 0)
      (effects (font (size 1.27 1.27)) hide)
    )
    (pin "1" (uuid 505b0cea-bcfa-4765-bea3-00b2180a3c59))
  )

  (symbol (lib_id "power:GND") (at 95.25 49.53 0) (unit 1)
    (in_bom yes) (on_board yes) (fields_autoplaced)
    (uuid a913891e-01d0-4941-9b47-e2ec22238eb6)
    (property "Reference" "#PWR0290" (id 0) (at 95.25 55.88 0)
      (effects (font (size 1.27 1.27)) hide)
    )
    (property "Value" "GND" (id 1) (at 95.25 54.61 0))
    (property "Footprint" "" (id 2) (at 95.25 49.53 0)
      (effects (font (size 1.27 1.27)) hide)
    )
    (property "Datasheet" "" (id 3) (at 95.25 49.53 0)
      (effects (font (size 1.27 1.27)) hide)
    )
    (pin "1" (uuid a4c7deb1-a97d-4991-a913-6f8da0c74bde))
  )

  (symbol (lib_id "Connector_Generic:Conn_02x03_Odd_Even") (at 113.03 121.92 0) (unit 1)
    (in_bom yes) (on_board yes) (fields_autoplaced)
    (uuid acce822e-be60-4e5d-8e5f-c1e35811cca6)
    (property "Reference" "J37" (id 0) (at 114.3 113.03 0))
    (property "Value" "Conn_02x03_Odd_Even" (id 1) (at 114.3 115.57 0))
    (property "Footprint" "Connector_PinHeader_2.54mm:PinHeader_2x03_P2.54mm_Vertical" (id 2) (at 113.03 121.92 0)
      (effects (font (size 1.27 1.27)) hide)
    )
    (property "Datasheet" "~" (id 3) (at 113.03 121.92 0)
      (effects (font (size 1.27 1.27)) hide)
    )
    (pin "1" (uuid bd36aed6-feb5-47c6-98ea-5ef69b818446))
    (pin "2" (uuid c1d7374c-8c78-4e31-ba29-0f42b1ad41cd))
    (pin "3" (uuid d08fdeb0-c071-4605-9501-603026678320))
    (pin "4" (uuid d8657cbe-faca-43f4-aaff-4a3a11db9d3c))
    (pin "5" (uuid 570cdc98-01f4-477c-be98-030fbb7be4e6))
    (pin "6" (uuid 36548618-cfff-4c00-b7ed-e85f732e4cce))
  )

  (symbol (lib_id "power:GND") (at 95.25 78.74 0) (unit 1)
    (in_bom yes) (on_board yes) (fields_autoplaced)
    (uuid c0280cef-81d8-4750-b74b-a386da3772c1)
    (property "Reference" "#PWR0296" (id 0) (at 95.25 85.09 0)
      (effects (font (size 1.27 1.27)) hide)
    )
    (property "Value" "GND" (id 1) (at 95.25 83.82 0))
    (property "Footprint" "" (id 2) (at 95.25 78.74 0)
      (effects (font (size 1.27 1.27)) hide)
    )
    (property "Datasheet" "" (id 3) (at 95.25 78.74 0)
      (effects (font (size 1.27 1.27)) hide)
    )
    (pin "1" (uuid e104c108-d1e4-41ce-9308-2ecf8eebae04))
  )

  (symbol (lib_id "power:GND") (at 133.35 106.68 0) (unit 1)
    (in_bom yes) (on_board yes) (fields_autoplaced)
    (uuid d5a33e25-b467-4a05-b07d-537f40ed6eab)
    (property "Reference" "#PWR0305" (id 0) (at 133.35 113.03 0)
      (effects (font (size 1.27 1.27)) hide)
    )
    (property "Value" "GND" (id 1) (at 133.35 111.76 0))
    (property "Footprint" "" (id 2) (at 133.35 106.68 0)
      (effects (font (size 1.27 1.27)) hide)
    )
    (property "Datasheet" "" (id 3) (at 133.35 106.68 0)
      (effects (font (size 1.27 1.27)) hide)
    )
    (pin "1" (uuid d51021ff-a506-4936-8dba-4f690ec43cf5))
  )

  (symbol (lib_id "Connector_Generic:Conn_02x03_Odd_Even") (at 113.03 95.25 0) (unit 1)
    (in_bom yes) (on_board yes) (fields_autoplaced)
    (uuid dfcc3c54-6aa6-47d9-8de6-34d60b89c2c5)
    (property "Reference" "J36" (id 0) (at 114.3 86.36 0))
    (property "Value" "Conn_02x03_Odd_Even" (id 1) (at 114.3 88.9 0))
    (property "Footprint" "Connector_PinHeader_2.54mm:PinHeader_2x03_P2.54mm_Vertical" (id 2) (at 113.03 95.25 0)
      (effects (font (size 1.27 1.27)) hide)
    )
    (property "Datasheet" "~" (id 3) (at 113.03 95.25 0)
      (effects (font (size 1.27 1.27)) hide)
    )
    (pin "1" (uuid 05d5a887-8483-4c16-a0ec-056d53f4c3ec))
    (pin "2" (uuid fcd3963a-3c84-43a4-801c-3fec2459daa9))
    (pin "3" (uuid 348092a3-37dc-462a-8acd-0b4ae7d2fe81))
    (pin "4" (uuid 764723e7-b6ce-481a-9be4-7b2cc017a162))
    (pin "5" (uuid 4038da08-faf8-4c95-acc7-a8fd4f641d12))
    (pin "6" (uuid 31221a64-ca8b-4a09-98a3-61525646b773))
  )

  (symbol (lib_id "power:GND") (at 125.73 106.68 0) (unit 1)
    (in_bom yes) (on_board yes) (fields_autoplaced)
    (uuid e10b7987-094d-4f1a-81ce-81ecce1d176a)
    (property "Reference" "#PWR0306" (id 0) (at 125.73 113.03 0)
      (effects (font (size 1.27 1.27)) hide)
    )
    (property "Value" "GND" (id 1) (at 125.73 111.76 0))
    (property "Footprint" "" (id 2) (at 125.73 106.68 0)
      (effects (font (size 1.27 1.27)) hide)
    )
    (property "Datasheet" "" (id 3) (at 125.73 106.68 0)
      (effects (font (size 1.27 1.27)) hide)
    )
    (pin "1" (uuid 3311ea65-3fb3-488a-88fc-fc9257ca6d44))
  )

  (symbol (lib_id "power:GND") (at 102.87 78.74 0) (unit 1)
    (in_bom yes) (on_board yes) (fields_autoplaced)
    (uuid e15b40bf-4880-4681-8f0e-9ce2d0d46367)
    (property "Reference" "#PWR0293" (id 0) (at 102.87 85.09 0)
      (effects (font (size 1.27 1.27)) hide)
    )
    (property "Value" "GND" (id 1) (at 102.87 83.82 0))
    (property "Footprint" "" (id 2) (at 102.87 78.74 0)
      (effects (font (size 1.27 1.27)) hide)
    )
    (property "Datasheet" "" (id 3) (at 102.87 78.74 0)
      (effects (font (size 1.27 1.27)) hide)
    )
    (pin "1" (uuid b771c329-39eb-44ab-b3f3-55f020070296))
  )

  (symbol (lib_id "Device:R") (at 95.25 74.93 180) (unit 1)
    (in_bom yes) (on_board yes)
    (uuid f44edcd7-8c6e-4adb-9ae8-3e49964283a1)
    (property "Reference" "R75" (id 0) (at 96.52 73.66 0)
      (effects (font (size 1.27 1.27)) (justify right))
    )
    (property "Value" "10K" (id 1) (at 96.52 76.2 0)
      (effects (font (size 1.27 1.27)) (justify right))
    )
    (property "Footprint" "Resistor_SMD:R_0402_1005Metric" (id 2) (at 97.028 74.93 90)
      (effects (font (size 1.27 1.27)) hide)
    )
    (property "Datasheet" "https://datasheet.lcsc.com/lcsc/2206010100_UNI-ROYAL-Uniroyal-Elec-0402WGF1002TCE_C25744.pdf" (id 3) (at 95.25 74.93 0)
      (effects (font (size 1.27 1.27)) hide)
    )
    (pin "1" (uuid b01ef7c8-ee08-4af4-85e4-9d468e473bee))
    (pin "2" (uuid d71bf815-e4b5-410b-b5d8-4c1793a91444))
  )

  (symbol (lib_id "power:GND") (at 133.35 133.35 0) (unit 1)
    (in_bom yes) (on_board yes) (fields_autoplaced)
    (uuid f9f1aee7-5550-47d3-815b-0331522c3bb3)
    (property "Reference" "#PWR0300" (id 0) (at 133.35 139.7 0)
      (effects (font (size 1.27 1.27)) hide)
    )
    (property "Value" "GND" (id 1) (at 133.35 138.43 0))
    (property "Footprint" "" (id 2) (at 133.35 133.35 0)
      (effects (font (size 1.27 1.27)) hide)
    )
    (property "Datasheet" "" (id 3) (at 133.35 133.35 0)
      (effects (font (size 1.27 1.27)) hide)
    )
    (pin "1" (uuid 8de929e7-670f-451b-b0a1-8aa3f7ef452d))
  )

  (symbol (lib_id "Device:R") (at 102.87 102.87 180) (unit 1)
    (in_bom yes) (on_board yes)
    (uuid fe8142da-73a9-4351-b6b1-ea1306ee8749)
    (property "Reference" "R81" (id 0) (at 104.14 101.6 0)
      (effects (font (size 1.27 1.27)) (justify right))
    )
    (property "Value" "10K" (id 1) (at 104.14 104.14 0)
      (effects (font (size 1.27 1.27)) (justify right))
    )
    (property "Footprint" "Resistor_SMD:R_0402_1005Metric" (id 2) (at 104.648 102.87 90)
      (effects (font (size 1.27 1.27)) hide)
    )
    (property "Datasheet" "https://datasheet.lcsc.com/lcsc/2206010100_UNI-ROYAL-Uniroyal-Elec-0402WGF1002TCE_C25744.pdf" (id 3) (at 102.87 102.87 0)
      (effects (font (size 1.27 1.27)) hide)
    )
    (pin "1" (uuid 8dd62e6c-db0c-4477-9ffe-f801cfb4c5a2))
    (pin "2" (uuid e1fffb61-7b81-4cd2-854d-8744fbbed3d8))
  )

  (symbol (lib_id "Device:R") (at 133.35 102.87 0) (mirror x) (unit 1)
    (in_bom yes) (on_board yes)
    (uuid ffd84e13-2118-4b5b-882f-9de52851319c)
    (property "Reference" "R91" (id 0) (at 132.08 101.6 0)
      (effects (font (size 1.27 1.27)) (justify right))
    )
    (property "Value" "10K" (id 1) (at 132.08 104.14 0)
      (effects (font (size 1.27 1.27)) (justify right))
    )
    (property "Footprint" "Resistor_SMD:R_0402_1005Metric" (id 2) (at 131.572 102.87 90)
      (effects (font (size 1.27 1.27)) hide)
    )
    (property "Datasheet" "https://datasheet.lcsc.com/lcsc/2206010100_UNI-ROYAL-Uniroyal-Elec-0402WGF1002TCE_C25744.pdf" (id 3) (at 133.35 102.87 0)
      (effects (font (size 1.27 1.27)) hide)
    )
    (pin "1" (uuid 09d078d2-963a-4ddc-a361-a12a1e5c6db1))
    (pin "2" (uuid 24929545-24e3-4b06-b053-d633db11350d))
  )

  (symbol (lib_id "Device:R") (at 133.35 45.72 0) (mirror x) (unit 1)
    (in_bom yes) (on_board yes)
    (uuid fff93b73-7e10-483a-b06e-84e69eb0deea)
    (property "Reference" "R89" (id 0) (at 132.08 44.45 0)
      (effects (font (size 1.27 1.27)) (justify right))
    )
    (property "Value" "10K" (id 1) (at 132.08 46.99 0)
      (effects (font (size 1.27 1.27)) (justify right))
    )
    (property "Footprint" "Resistor_SMD:R_0402_1005Metric" (id 2) (at 131.572 45.72 90)
      (effects (font (size 1.27 1.27)) hide)
    )
    (property "Datasheet" "https://datasheet.lcsc.com/lcsc/2206010100_UNI-ROYAL-Uniroyal-Elec-0402WGF1002TCE_C25744.pdf" (id 3) (at 133.35 45.72 0)
      (effects (font (size 1.27 1.27)) hide)
    )
    (pin "1" (uuid 89ec7ec5-cc98-4887-aac7-95d7e6862598))
    (pin "2" (uuid 6dbdb027-0a31-4921-ad68-5d521924fc36))
  )
)
