%TF.GenerationSoftware,KiCad,Pcbnew,(6.0.2)*%
%TF.CreationDate,2022-07-20T19:51:26+02:00*%
%TF.ProjectId,MotorController,4d6f746f-7243-46f6-9e74-726f6c6c6572,rev?*%
%TF.SameCoordinates,Original*%
%TF.FileFunction,Copper,L2,Inr*%
%TF.FilePolarity,Positive*%
%FSLAX46Y46*%
G04 Gerber Fmt 4.6, Leading zero omitted, Abs format (unit mm)*
G04 Created by KiCad (PCBNEW (6.0.2)) date 2022-07-20 19:51:26*
%MOMM*%
%LPD*%
G01*
G04 APERTURE LIST*
G04 Aperture macros list*
%AMRoundRect*
0 Rectangle with rounded corners*
0 $1 Rounding radius*
0 $2 $3 $4 $5 $6 $7 $8 $9 X,Y pos of 4 corners*
0 Add a 4 corners polygon primitive as box body*
4,1,4,$2,$3,$4,$5,$6,$7,$8,$9,$2,$3,0*
0 Add four circle primitives for the rounded corners*
1,1,$1+$1,$2,$3*
1,1,$1+$1,$4,$5*
1,1,$1+$1,$6,$7*
1,1,$1+$1,$8,$9*
0 Add four rect primitives between the rounded corners*
20,1,$1+$1,$2,$3,$4,$5,0*
20,1,$1+$1,$4,$5,$6,$7,0*
20,1,$1+$1,$6,$7,$8,$9,0*
20,1,$1+$1,$8,$9,$2,$3,0*%
G04 Aperture macros list end*
%TA.AperFunction,ComponentPad*%
%ADD10C,0.800000*%
%TD*%
%TA.AperFunction,ComponentPad*%
%ADD11C,6.400000*%
%TD*%
%TA.AperFunction,ComponentPad*%
%ADD12R,1.700000X1.700000*%
%TD*%
%TA.AperFunction,ComponentPad*%
%ADD13O,1.700000X1.700000*%
%TD*%
%TA.AperFunction,ComponentPad*%
%ADD14R,1.600000X1.600000*%
%TD*%
%TA.AperFunction,ComponentPad*%
%ADD15C,1.600000*%
%TD*%
%TA.AperFunction,ComponentPad*%
%ADD16RoundRect,1.500000X1.500000X-1.500000X1.500000X1.500000X-1.500000X1.500000X-1.500000X-1.500000X0*%
%TD*%
%TA.AperFunction,ComponentPad*%
%ADD17C,6.000000*%
%TD*%
%TA.AperFunction,ComponentPad*%
%ADD18C,0.600000*%
%TD*%
%TA.AperFunction,ComponentPad*%
%ADD19R,3.000000X3.000000*%
%TD*%
%TA.AperFunction,ComponentPad*%
%ADD20C,3.000000*%
%TD*%
%TA.AperFunction,ViaPad*%
%ADD21C,0.450000*%
%TD*%
%TA.AperFunction,ViaPad*%
%ADD22C,0.800000*%
%TD*%
%TA.AperFunction,Conductor*%
%ADD23C,1.200000*%
%TD*%
%TA.AperFunction,Conductor*%
%ADD24C,0.300000*%
%TD*%
G04 APERTURE END LIST*
D10*
%TO.N,GND*%
%TO.C,H2*%
X103702944Y-45697056D03*
X107097056Y-42302944D03*
X105400000Y-46400000D03*
X107097056Y-45697056D03*
X107800000Y-44000000D03*
X105400000Y-41600000D03*
X103702944Y-42302944D03*
X103000000Y-44000000D03*
D11*
X105400000Y-44000000D03*
%TD*%
D12*
%TO.N,GND*%
%TO.C,J19*%
X18200000Y-110220000D03*
D13*
%TO.N,/Encoders/ENCODER_0B_H*%
X18200000Y-112760000D03*
%TO.N,/Encoders/ENCODER_0A_H*%
X18200000Y-115300000D03*
%TO.N,+5V*%
X18200000Y-117840000D03*
%TD*%
D12*
%TO.N,GND*%
%TO.C,J16*%
X85300000Y-112500000D03*
D13*
%TO.N,+5V*%
X87840000Y-112500000D03*
%TO.N,/ENCODERS COMMUNICATION/ENCODER_5A*%
X90380000Y-112500000D03*
%TO.N,/ENCODERS COMMUNICATION/MOSI*%
X92920000Y-112500000D03*
%TO.N,/ENCODERS COMMUNICATION/MISO*%
X95460000Y-112500000D03*
%TO.N,/ENCODERS COMMUNICATION/SCK*%
X98000000Y-112500000D03*
%TD*%
D12*
%TO.N,GND*%
%TO.C,J14*%
X85350000Y-88800000D03*
D13*
%TO.N,+5V*%
X87890000Y-88800000D03*
%TO.N,/ENCODERS COMMUNICATION/ENCODER_3A*%
X90430000Y-88800000D03*
%TO.N,/ENCODERS COMMUNICATION/MOSI*%
X92970000Y-88800000D03*
%TO.N,/ENCODERS COMMUNICATION/MISO*%
X95510000Y-88800000D03*
%TO.N,/ENCODERS COMMUNICATION/SCK*%
X98050000Y-88800000D03*
%TD*%
D12*
%TO.N,GND*%
%TO.C,J26*%
X85110000Y-96000000D03*
D13*
%TO.N,+3V3*%
X87650000Y-96000000D03*
%TO.N,/ENCODERS COMMUNICATION/SDA*%
X90190000Y-96000000D03*
%TO.N,/ENCODERS COMMUNICATION/SCL*%
X92730000Y-96000000D03*
%TD*%
D14*
%TO.N,VL4*%
%TO.C,C20*%
X88620000Y-47205113D03*
D15*
%TO.N,GND*%
X88620000Y-44705113D03*
%TD*%
D12*
%TO.N,/STM32/MCU_RST*%
%TO.C,J7*%
X62900000Y-128000000D03*
D13*
%TO.N,/STM32/IN_EM_1*%
X60360000Y-128000000D03*
%TO.N,/STM32/USART1_RX*%
X57820000Y-128000000D03*
%TO.N,/STM32/USART1_TX*%
X55280000Y-128000000D03*
%TO.N,+5V*%
X52740000Y-128000000D03*
%TO.N,GND*%
X50200000Y-128000000D03*
%TD*%
D16*
%TO.N,GND*%
%TO.C,J28*%
X109500000Y-72900000D03*
D17*
%TO.N,VCC*%
X109500000Y-65700000D03*
%TD*%
D12*
%TO.N,GND*%
%TO.C,J20*%
X18100000Y-81920000D03*
D13*
%TO.N,/Encoders/ENCODER_2B_H*%
X18100000Y-84460000D03*
%TO.N,/Encoders/ENCODER_2A_H*%
X18100000Y-87000000D03*
%TO.N,+5V*%
X18100000Y-89540000D03*
%TD*%
D18*
%TO.N,GND*%
%TO.C,U1*%
X26400000Y-67087500D03*
X24000000Y-68287500D03*
X26400000Y-68287500D03*
X25300000Y-68287500D03*
X24000000Y-67087500D03*
X22800000Y-67087500D03*
X22800000Y-68287500D03*
X25300000Y-67087500D03*
%TD*%
D14*
%TO.N,VL2*%
%TO.C,C19*%
X67560000Y-47205113D03*
D15*
%TO.N,GND*%
X67560000Y-44705113D03*
%TD*%
D19*
%TO.N,Net-(J4-Pad1)*%
%TO.C,J4*%
X49785000Y-38600000D03*
D20*
%TO.N,Net-(J4-Pad2)*%
X54865000Y-38600000D03*
%TD*%
D12*
%TO.N,GND*%
%TO.C,J25*%
X85350000Y-85000000D03*
D13*
%TO.N,+3V3*%
X87890000Y-85000000D03*
%TO.N,/ENCODERS COMMUNICATION/SDA*%
X90430000Y-85000000D03*
%TO.N,/ENCODERS COMMUNICATION/SCL*%
X92970000Y-85000000D03*
%TD*%
D12*
%TO.N,GND*%
%TO.C,J11*%
X44150000Y-117020000D03*
D13*
%TO.N,+5V*%
X41610000Y-117020000D03*
%TO.N,/ENCODERS COMMUNICATION/ENCODER_0A*%
X39070000Y-117020000D03*
%TO.N,/ENCODERS COMMUNICATION/MOSI*%
X36530000Y-117020000D03*
%TO.N,/ENCODERS COMMUNICATION/MISO*%
X33990000Y-117020000D03*
%TO.N,/ENCODERS COMMUNICATION/SCK*%
X31450000Y-117020000D03*
%TD*%
D19*
%TO.N,Net-(J2-Pad1)*%
%TO.C,J2*%
X60460000Y-38600000D03*
D20*
%TO.N,Net-(J2-Pad2)*%
X65540000Y-38600000D03*
%TD*%
D14*
%TO.N,VL1*%
%TO.C,C25*%
X56985000Y-47205113D03*
D15*
%TO.N,GND*%
X56985000Y-44705113D03*
%TD*%
D12*
%TO.N,GND*%
%TO.C,J10*%
X112950000Y-118110000D03*
D13*
%TO.N,/Encoders/ENCODER_5B_H*%
X112950000Y-115570000D03*
%TO.N,/Encoders/ENCODER_5A_H*%
X112950000Y-113030000D03*
%TO.N,+5V*%
X112950000Y-110490000D03*
%TD*%
D10*
%TO.N,GND*%
%TO.C,H3*%
X27097056Y-125697056D03*
X23000000Y-124000000D03*
X25400000Y-126400000D03*
D11*
X25400000Y-124000000D03*
D10*
X27800000Y-124000000D03*
X25400000Y-121600000D03*
X23702944Y-125697056D03*
X27097056Y-122302944D03*
X23702944Y-122302944D03*
%TD*%
%TO.N,GND*%
%TO.C,H1*%
X25400000Y-41600000D03*
X27800000Y-44000000D03*
X27097056Y-42302944D03*
X23702944Y-42302944D03*
X23702944Y-45697056D03*
X25400000Y-46400000D03*
X23000000Y-44000000D03*
D11*
X25400000Y-44000000D03*
D10*
X27097056Y-45697056D03*
%TD*%
D12*
%TO.N,GND*%
%TO.C,J23*%
X113050000Y-89580000D03*
D13*
%TO.N,/Encoders/ENCODER_3B_H*%
X113050000Y-87040000D03*
%TO.N,/Encoders/ENCODER_3A_H*%
X113050000Y-84500000D03*
%TO.N,+5V*%
X113050000Y-81960000D03*
%TD*%
D19*
%TO.N,Net-(J5-Pad1)*%
%TO.C,J5*%
X71120000Y-38600000D03*
D20*
%TO.N,Net-(J5-Pad2)*%
X76200000Y-38600000D03*
%TD*%
D10*
%TO.N,GND*%
%TO.C,H4*%
X103702944Y-122302944D03*
X107097056Y-125697056D03*
X107800000Y-124000000D03*
X107097056Y-122302944D03*
D11*
X105400000Y-124000000D03*
D10*
X103702944Y-125697056D03*
X105400000Y-126400000D03*
X103000000Y-124000000D03*
X105400000Y-121600000D03*
%TD*%
D14*
%TO.N,VL3*%
%TO.C,C26*%
X78120000Y-47205113D03*
D15*
%TO.N,GND*%
X78120000Y-44705113D03*
%TD*%
D19*
%TO.N,Net-(J1-Pad1)*%
%TO.C,J1*%
X39120000Y-38600000D03*
D20*
%TO.N,Net-(J1-Pad2)*%
X44200000Y-38600000D03*
%TD*%
D12*
%TO.N,GND*%
%TO.C,J18*%
X44300000Y-108720000D03*
D13*
%TO.N,+3V3*%
X41760000Y-108720000D03*
%TO.N,/ENCODERS COMMUNICATION/SDA*%
X39220000Y-108720000D03*
%TO.N,/ENCODERS COMMUNICATION/SCL*%
X36680000Y-108720000D03*
%TD*%
D12*
%TO.N,GND*%
%TO.C,J17*%
X44140000Y-120920000D03*
D13*
%TO.N,+3V3*%
X41600000Y-120920000D03*
%TO.N,/ENCODERS COMMUNICATION/SDA*%
X39060000Y-120920000D03*
%TO.N,/ENCODERS COMMUNICATION/SCL*%
X36520000Y-120920000D03*
%TD*%
D14*
%TO.N,VL0*%
%TO.C,C18*%
X46360000Y-47205113D03*
D15*
%TO.N,GND*%
X46360000Y-44705113D03*
%TD*%
D19*
%TO.N,Net-(J9-Pad1)*%
%TO.C,J9*%
X92320000Y-38600000D03*
D20*
%TO.N,Net-(J9-Pad2)*%
X97400000Y-38600000D03*
%TD*%
D12*
%TO.N,GND*%
%TO.C,J13*%
X44450000Y-92120000D03*
D13*
%TO.N,+5V*%
X41910000Y-92120000D03*
%TO.N,/ENCODERS COMMUNICATION/ENCODER_2A*%
X39370000Y-92120000D03*
%TO.N,/ENCODERS COMMUNICATION/MOSI*%
X36830000Y-92120000D03*
%TO.N,/ENCODERS COMMUNICATION/MISO*%
X34290000Y-92120000D03*
%TO.N,/ENCODERS COMMUNICATION/SCK*%
X31750000Y-92120000D03*
%TD*%
D14*
%TO.N,VL5*%
%TO.C,C58*%
X99260000Y-47300000D03*
D15*
%TO.N,GND*%
X99260000Y-44800000D03*
%TD*%
D19*
%TO.N,Net-(J3-Pad1)*%
%TO.C,J3*%
X81720000Y-38600000D03*
D20*
%TO.N,Net-(J3-Pad2)*%
X86800000Y-38600000D03*
%TD*%
D12*
%TO.N,GND*%
%TO.C,J24*%
X44440000Y-96020000D03*
D13*
%TO.N,+3V3*%
X41900000Y-96020000D03*
%TO.N,/ENCODERS COMMUNICATION/SDA*%
X39360000Y-96020000D03*
%TO.N,/ENCODERS COMMUNICATION/SCL*%
X36820000Y-96020000D03*
%TD*%
D12*
%TO.N,GND*%
%TO.C,J12*%
X44250000Y-104820000D03*
D13*
%TO.N,+5V*%
X41710000Y-104820000D03*
%TO.N,/ENCODERS COMMUNICATION/ENCODER_1A*%
X39170000Y-104820000D03*
%TO.N,/ENCODERS COMMUNICATION/MOSI*%
X36630000Y-104820000D03*
%TO.N,/ENCODERS COMMUNICATION/MISO*%
X34090000Y-104820000D03*
%TO.N,/ENCODERS COMMUNICATION/SCK*%
X31550000Y-104820000D03*
%TD*%
D12*
%TO.N,GND*%
%TO.C,J27*%
X85250000Y-108700000D03*
D13*
%TO.N,+3V3*%
X87790000Y-108700000D03*
%TO.N,/ENCODERS COMMUNICATION/SDA*%
X90330000Y-108700000D03*
%TO.N,/ENCODERS COMMUNICATION/SCL*%
X92870000Y-108700000D03*
%TD*%
D12*
%TO.N,GND*%
%TO.C,J22*%
X18100000Y-96220000D03*
D13*
%TO.N,/Encoders/ENCODER_1B_H*%
X18100000Y-98760000D03*
%TO.N,/Encoders/ENCODER_1A_H*%
X18100000Y-101300000D03*
%TO.N,+5V*%
X18100000Y-103840000D03*
%TD*%
D12*
%TO.N,/STM32/MCU_RST*%
%TO.C,J8*%
X82100000Y-127900000D03*
D13*
%TO.N,/STM32/IN_EM_2*%
X79560000Y-127900000D03*
%TO.N,/STM32/USART2_RX*%
X77020000Y-127900000D03*
%TO.N,/STM32/USART2_TX*%
X74480000Y-127900000D03*
%TO.N,+5V*%
X71940000Y-127900000D03*
%TO.N,GND*%
X69400000Y-127900000D03*
%TD*%
D12*
%TO.N,GND*%
%TO.C,J21*%
X112930000Y-104500000D03*
D13*
%TO.N,/Encoders/ENCODER_4B_H*%
X112930000Y-101960000D03*
%TO.N,/Encoders/ENCODER_4A_H*%
X112930000Y-99420000D03*
%TO.N,+5V*%
X112930000Y-96880000D03*
%TD*%
D12*
%TO.N,GND*%
%TO.C,J15*%
X85150000Y-99800000D03*
D13*
%TO.N,+5V*%
X87690000Y-99800000D03*
%TO.N,/ENCODERS COMMUNICATION/ENCODER_4A*%
X90230000Y-99800000D03*
%TO.N,/ENCODERS COMMUNICATION/MOSI*%
X92770000Y-99800000D03*
%TO.N,/ENCODERS COMMUNICATION/MISO*%
X95310000Y-99800000D03*
%TO.N,/ENCODERS COMMUNICATION/SCK*%
X97850000Y-99800000D03*
%TD*%
D21*
%TO.N,GND*%
X97920000Y-61000000D03*
X65900000Y-61300000D03*
X95900000Y-52500000D03*
X38700000Y-51800000D03*
X93700000Y-126600000D03*
X49200000Y-51800000D03*
X22400000Y-114420000D03*
X50800000Y-121500000D03*
X44959192Y-73483712D03*
X20400000Y-53900000D03*
X44900000Y-78000000D03*
X54700000Y-51800000D03*
X64896914Y-78009290D03*
X86200000Y-51700000D03*
X70100000Y-123900000D03*
X64500000Y-50800000D03*
X20400000Y-55200000D03*
X85600000Y-51700000D03*
X65400000Y-51700000D03*
X44900000Y-76900000D03*
X44100000Y-61400000D03*
X50800000Y-124000000D03*
X96500000Y-52500000D03*
X95800000Y-132400000D03*
X102450000Y-117000000D03*
X54700000Y-51200000D03*
X45740115Y-74359319D03*
X43300000Y-51700000D03*
X61500000Y-42800000D03*
X108650000Y-117400000D03*
X28700000Y-97220000D03*
X82700000Y-42700000D03*
X38900000Y-55600000D03*
X49500000Y-55700000D03*
X75100000Y-51200000D03*
X38700000Y-51000000D03*
X40100000Y-42600000D03*
X95900000Y-51800000D03*
X102748839Y-84924500D03*
X19300000Y-66300000D03*
X95900000Y-51100000D03*
X28700000Y-82720000D03*
X23100000Y-57500000D03*
X97200000Y-51800000D03*
X76300000Y-51800000D03*
X76400000Y-61600000D03*
X44298434Y-56029633D03*
X85900000Y-53100000D03*
X60500000Y-84100000D03*
X22600000Y-82320000D03*
X44900000Y-74900000D03*
X28700000Y-86420000D03*
X59800000Y-51800000D03*
X75100000Y-51800000D03*
X97920503Y-55701258D03*
X108150000Y-99100000D03*
X61100000Y-84100000D03*
X75100000Y-50600000D03*
X22400000Y-110320000D03*
X44100000Y-51700000D03*
X22700000Y-96720000D03*
X43300000Y-51000000D03*
X20400000Y-54600000D03*
X22600000Y-86300000D03*
X108700000Y-89300000D03*
X49200000Y-51100000D03*
X70207647Y-90892353D03*
X53800000Y-51800000D03*
X102150000Y-98900000D03*
X31800000Y-58200000D03*
X53800000Y-51200000D03*
X65000000Y-122500000D03*
X91500000Y-51300000D03*
X50900000Y-42600000D03*
X76600000Y-56200000D03*
X75700000Y-51800000D03*
X22700000Y-100720000D03*
X44900000Y-75900000D03*
X87084494Y-56000000D03*
X66140000Y-55877500D03*
X93100000Y-42600000D03*
X28500000Y-114820000D03*
X86929863Y-61157670D03*
X55000000Y-61800000D03*
X28600000Y-110620000D03*
X56600000Y-83700000D03*
X102647513Y-88824500D03*
X108600000Y-85300000D03*
X20400000Y-52600000D03*
X91400000Y-53000000D03*
X108650000Y-113100000D03*
X85600000Y-51100000D03*
X59600000Y-77700000D03*
X56300000Y-81300000D03*
X98100000Y-126300000D03*
X72200000Y-42600000D03*
X64500000Y-51700000D03*
X81000000Y-51500000D03*
X59800000Y-51100000D03*
X108050000Y-103100000D03*
X28700000Y-101020000D03*
X97200000Y-52500000D03*
X57600000Y-86300000D03*
X92590000Y-120710000D03*
X70100000Y-121500000D03*
X96500000Y-51800000D03*
X62233732Y-78375500D03*
X55120000Y-56377500D03*
X86800000Y-51700000D03*
X102750000Y-112600000D03*
X102050000Y-102600000D03*
X48300000Y-84900000D03*
%TO.N,+3V3*%
X54200000Y-55200000D03*
X76600000Y-79600000D03*
X105650000Y-87800000D03*
X94900000Y-60900000D03*
X25500000Y-102120000D03*
X40100000Y-80200000D03*
X25400000Y-83820000D03*
X25500000Y-98320000D03*
X105350000Y-116000000D03*
X86200000Y-55200000D03*
X72300000Y-80600000D03*
X41300000Y-81600000D03*
X97000000Y-55100000D03*
X43600000Y-55200000D03*
X104950000Y-101600000D03*
X63100000Y-60900000D03*
X42400000Y-82300000D03*
X105050000Y-97800000D03*
D22*
X21100000Y-58300000D03*
D21*
X52100000Y-61300000D03*
X64200000Y-80200000D03*
X41300000Y-80900000D03*
X94846971Y-117353029D03*
X25200000Y-111820000D03*
X105650000Y-111600000D03*
X71700000Y-90200000D03*
X25200000Y-115920000D03*
X42400000Y-83000000D03*
X40100000Y-82300000D03*
X75700000Y-55200000D03*
X64200000Y-79400000D03*
X65000000Y-55100000D03*
X57600000Y-84000000D03*
X40100000Y-83000000D03*
X41300000Y-83000000D03*
X73800000Y-61400000D03*
X92590000Y-117510000D03*
X41300000Y-82300000D03*
X38800000Y-80200000D03*
X105750000Y-83900000D03*
X25400000Y-87520000D03*
X38800000Y-81600000D03*
X40100000Y-80900000D03*
X38800000Y-80900000D03*
X40800000Y-61200000D03*
X40100000Y-81600000D03*
X84100000Y-61200000D03*
%TO.N,VCC*%
X49400000Y-63000000D03*
X102800000Y-63400000D03*
X70800000Y-63400000D03*
X91600000Y-63100000D03*
X81600000Y-63200000D03*
X59300000Y-63400000D03*
%TO.N,+5V*%
X27800000Y-76600000D03*
X110400000Y-96100000D03*
X109700000Y-86400000D03*
X110400000Y-100300000D03*
X28500000Y-76600000D03*
X21600000Y-85300000D03*
X21600000Y-99700000D03*
X27200000Y-76600000D03*
X110400000Y-81700000D03*
X21600000Y-103900000D03*
X25800000Y-76600000D03*
X21600000Y-89380000D03*
X110400000Y-109600000D03*
X29300000Y-76600000D03*
X21300000Y-117300000D03*
X109700000Y-114400000D03*
X26500000Y-76600000D03*
X21600000Y-113200000D03*
%TO.N,/STM32/EMERGENCY_SIGNAL*%
X65900000Y-96500000D03*
X66600000Y-85700000D03*
X75300000Y-117600000D03*
X73400000Y-117700000D03*
%TO.N,/STM32/USART1_RX*%
X67474099Y-77921487D03*
X64800000Y-93600000D03*
%TO.N,/STM32/USART2_RX*%
X66025989Y-95244549D03*
X69933327Y-79206440D03*
%TO.N,/STM32/USART1_TX*%
X65100000Y-92700000D03*
X68300000Y-77800000D03*
%TO.N,/STM32/USART2_TX*%
X65506233Y-95893767D03*
X64716336Y-87228802D03*
%TO.N,/STM32/SWCLK*%
X91900000Y-127800000D03*
X69500000Y-82800000D03*
%TO.N,/STM32/SWDIO*%
X95800000Y-129400000D03*
X73100000Y-82800000D03*
D22*
%TO.N,Net-(R18-Pad1)*%
X64600000Y-98000000D03*
X68200000Y-100200000D03*
X76556277Y-105996323D03*
D21*
X64800000Y-84000000D03*
%TO.N,Net-(R19-Pad1)*%
X75400000Y-104700000D03*
X80100000Y-76600000D03*
X63000000Y-72300000D03*
X67119792Y-77375802D03*
%TO.N,/Power Distribution/ADC_CH4*%
X86020000Y-59476961D03*
X32500000Y-54700000D03*
%TO.N,/Power Distribution/ADC_CH2*%
X30400000Y-55900000D03*
X64840000Y-59377500D03*
%TO.N,/Power Distribution/ADC_CH0*%
X43020000Y-59507500D03*
X29000000Y-57200000D03*
%TO.N,/Power Distribution/ADC_CH3*%
X75400000Y-59700000D03*
X31000000Y-55300000D03*
%TO.N,/Power Distribution/ADC_CH1*%
X53820000Y-59777500D03*
X29700000Y-56600000D03*
%TO.N,/ENCODERS COMMUNICATION/MOSI*%
X75500000Y-89300000D03*
X70400000Y-87100000D03*
%TO.N,/ENCODERS COMMUNICATION/MISO*%
X76400000Y-88700000D03*
X70300000Y-85600000D03*
%TO.N,/ENCODERS COMMUNICATION/SCK*%
X70556233Y-84556233D03*
X75906233Y-87893767D03*
%TO.N,/ENCODERS COMMUNICATION/SDA*%
X90400000Y-79600000D03*
X37950000Y-70950000D03*
X23800000Y-56800000D03*
%TO.N,/ENCODERS COMMUNICATION/SCL*%
X38100000Y-72000000D03*
X92900000Y-82324500D03*
X70600000Y-82200000D03*
X70950999Y-80600000D03*
X24500000Y-58400000D03*
%TO.N,/Power Distribution/ADC_CH5*%
X33100000Y-54000000D03*
X96820000Y-59100000D03*
%TO.N,/Encoders/ENCODER4*%
X50300000Y-86000000D03*
X65400000Y-83100000D03*
%TO.N,/Encoders/ENCODER5*%
X50200000Y-85200000D03*
X64800000Y-82525500D03*
%TO.N,/DC Drivers/MOTOR0*%
X65300000Y-77500000D03*
X40400000Y-56000000D03*
%TO.N,/DC Drivers/MOTOR1*%
X66100000Y-77399998D03*
X41425569Y-55925569D03*
%TO.N,/DC Drivers/MOTOR4*%
X61400000Y-55700000D03*
X74800000Y-84500000D03*
%TO.N,/DC Drivers/MOTOR5*%
X62700000Y-55700000D03*
X75400000Y-84900000D03*
%TO.N,/DC Drivers/MOTOR8*%
X68846633Y-92575381D03*
X82700000Y-55800000D03*
%TO.N,/DC Drivers/MOTOR9*%
X84000000Y-55800000D03*
X68262093Y-92858517D03*
%TO.N,/DC Drivers/MOTOR2*%
X50700000Y-55800000D03*
X73700000Y-83575500D03*
%TO.N,/DC Drivers/MOTOR3*%
X74200000Y-84075500D03*
X52000000Y-55700000D03*
%TO.N,/DC Drivers/MOTOR6*%
X76000000Y-85300000D03*
X72200000Y-55800000D03*
%TO.N,/DC Drivers/MOTOR7*%
X73500000Y-55800000D03*
X76600000Y-85800000D03*
%TO.N,/DC Drivers/MOTOR10*%
X67774500Y-93287593D03*
X92975960Y-56132627D03*
%TO.N,/DC Drivers/MOTOR11*%
X95073721Y-56631605D03*
X67774500Y-94440390D03*
%TD*%
D23*
%TO.N,+3V3*%
X28000000Y-81000000D02*
X25400000Y-83600000D01*
X52100000Y-57300000D02*
X54200000Y-55200000D01*
X105050000Y-97800000D02*
X102800000Y-97800000D01*
X81800000Y-88947919D02*
X81800000Y-88000000D01*
X97500000Y-83900000D02*
X96350000Y-82750000D01*
X71800000Y-79600000D02*
X68600000Y-76400000D01*
X63100000Y-60900000D02*
X63100000Y-57000000D01*
X104950000Y-115600000D02*
X105350000Y-116000000D01*
X87890000Y-83797919D02*
X85392081Y-81300000D01*
X65500000Y-54600000D02*
X65000000Y-55100000D01*
X76600000Y-79600000D02*
X78300000Y-81300000D01*
X104950000Y-101600000D02*
X104950000Y-99950000D01*
X71900000Y-90000000D02*
X71900000Y-81000000D01*
X96098222Y-56001778D02*
X96098222Y-57055968D01*
X41600000Y-120920000D02*
X41600000Y-122122081D01*
X29980000Y-111820000D02*
X29300000Y-111820000D01*
D24*
X92590000Y-117510000D02*
X94690000Y-117510000D01*
D23*
X81800000Y-82800000D02*
X81800000Y-88000000D01*
X63600000Y-78600000D02*
X62800000Y-79400000D01*
X101650000Y-115600000D02*
X101300000Y-115600000D01*
X87650000Y-96000000D02*
X87650000Y-94797919D01*
X73300000Y-79600000D02*
X72300000Y-80600000D01*
X84100000Y-61200000D02*
X84100000Y-57300000D01*
X44200000Y-54600000D02*
X43600000Y-55200000D01*
X40000000Y-111820000D02*
X29980000Y-111820000D01*
X87126041Y-94273959D02*
X81800000Y-88947919D01*
X37000000Y-74200000D02*
X22250000Y-59450000D01*
X67592854Y-76400000D02*
X67544155Y-76351301D01*
X99546971Y-117353029D02*
X101300000Y-115600000D01*
X48000000Y-102879022D02*
X41900000Y-96779022D01*
X63100000Y-57000000D02*
X65000000Y-55100000D01*
X87890000Y-85000000D02*
X87890000Y-83797919D01*
X76300000Y-54600000D02*
X86800000Y-54600000D01*
X76300000Y-54600000D02*
X65500000Y-54600000D01*
X68600000Y-76400000D02*
X67592854Y-76400000D01*
X64748699Y-76351301D02*
X63600000Y-77500000D01*
X37600000Y-61200000D02*
X37400000Y-61200000D01*
X40800000Y-58000000D02*
X43600000Y-55200000D01*
X52100000Y-61300000D02*
X52100000Y-57300000D01*
X101100489Y-107050489D02*
X105650000Y-111600000D01*
X37400000Y-61200000D02*
X24000000Y-61200000D01*
X28920000Y-98320000D02*
X25500000Y-98320000D01*
X102800000Y-97800000D02*
X101200000Y-96200000D01*
X62800000Y-81600000D02*
X60000000Y-81600000D01*
X94900000Y-58254190D02*
X94900000Y-60900000D01*
X87790000Y-108700000D02*
X87790000Y-107497919D01*
X73800000Y-57100000D02*
X75700000Y-55200000D01*
X39600000Y-98320000D02*
X28920000Y-98320000D01*
X101200000Y-96200000D02*
X99350489Y-94350489D01*
X105750000Y-83900000D02*
X97500000Y-83900000D01*
X87790000Y-107497919D02*
X81800000Y-101507919D01*
X65500000Y-54600000D02*
X54800000Y-54600000D01*
X25400000Y-83600000D02*
X25400000Y-83820000D01*
X83300000Y-81300000D02*
X81800000Y-82800000D01*
X73300000Y-79600000D02*
X71800000Y-79600000D01*
X87790000Y-107497919D02*
X88237430Y-107050489D01*
X28920000Y-98320000D02*
X28920000Y-98700000D01*
X45900000Y-123700000D02*
X48000000Y-121600000D01*
X85392081Y-81300000D02*
X83300000Y-81300000D01*
X43177919Y-123700000D02*
X45900000Y-123700000D01*
X94900000Y-81300000D02*
X85392081Y-81300000D01*
X87650000Y-94797919D02*
X87126041Y-94273959D01*
X101300000Y-115600000D02*
X104950000Y-115600000D01*
X63600000Y-77500000D02*
X63600000Y-78600000D01*
X84100000Y-57300000D02*
X86200000Y-55200000D01*
X29300000Y-111820000D02*
X25200000Y-115920000D01*
X101400000Y-87800000D02*
X96350000Y-82750000D01*
X40800000Y-61200000D02*
X40800000Y-58000000D01*
X36629022Y-81000000D02*
X28000000Y-81000000D01*
X37000000Y-81370978D02*
X37000000Y-74200000D01*
X41760000Y-110060000D02*
X40000000Y-111820000D01*
X97000000Y-55100000D02*
X96098222Y-56001778D01*
X71900000Y-81000000D02*
X72300000Y-80600000D01*
X22250000Y-59450000D02*
X21100000Y-58300000D01*
X105650000Y-87800000D02*
X101400000Y-87800000D01*
X96098222Y-57055968D02*
X94900000Y-58254190D01*
X86200000Y-55200000D02*
X86800000Y-54600000D01*
X48000000Y-121600000D02*
X48000000Y-116300000D01*
D24*
X94690000Y-117510000D02*
X94846971Y-117353029D01*
D23*
X24000000Y-61200000D02*
X22250000Y-59450000D01*
X48000000Y-116300000D02*
X41760000Y-110060000D01*
X67544155Y-76351301D02*
X64748699Y-76351301D01*
X48000000Y-102879022D02*
X48000000Y-92370978D01*
X99350489Y-94350489D02*
X87202571Y-94350489D01*
X64200000Y-79400000D02*
X64200000Y-80200000D01*
X105650000Y-111600000D02*
X101650000Y-115600000D01*
X41900000Y-96020000D02*
X39600000Y-98320000D01*
X73800000Y-61400000D02*
X73800000Y-57100000D01*
X37000000Y-81370978D02*
X36629022Y-81000000D01*
X76600000Y-79600000D02*
X73300000Y-79600000D01*
X87202571Y-94350489D02*
X87126041Y-94273959D01*
X94846971Y-117353029D02*
X99546971Y-117353029D01*
X41760000Y-110060000D02*
X41760000Y-108720000D01*
X96350000Y-82750000D02*
X94900000Y-81300000D01*
X28920000Y-98700000D02*
X25500000Y-102120000D01*
X40800000Y-58000000D02*
X37600000Y-61200000D01*
X64200000Y-79400000D02*
X62800000Y-79400000D01*
X54800000Y-54600000D02*
X54200000Y-55200000D01*
X40800000Y-61200000D02*
X37400000Y-61200000D01*
X96500000Y-54600000D02*
X97000000Y-55100000D01*
X41900000Y-96779022D02*
X41900000Y-96020000D01*
X81800000Y-101507919D02*
X81800000Y-88000000D01*
X88237430Y-107050489D02*
X101100489Y-107050489D01*
X104950000Y-99950000D02*
X101200000Y-96200000D01*
X75700000Y-55200000D02*
X76300000Y-54600000D01*
X64200000Y-80200000D02*
X62800000Y-81600000D01*
X86800000Y-54600000D02*
X96500000Y-54600000D01*
X78300000Y-81300000D02*
X83300000Y-81300000D01*
X41600000Y-122122081D02*
X43177919Y-123700000D01*
X54800000Y-54600000D02*
X44200000Y-54600000D01*
X29980000Y-111820000D02*
X25200000Y-111820000D01*
X62800000Y-79400000D02*
X43700000Y-79400000D01*
X71700000Y-90200000D02*
X71900000Y-90000000D01*
X60000000Y-81600000D02*
X57600000Y-84000000D01*
X48000000Y-116300000D02*
X48000000Y-102879022D01*
X48000000Y-92370978D02*
X37000000Y-81370978D01*
X25400000Y-87520000D02*
X25400000Y-83820000D01*
%TO.N,VL0*%
X46165113Y-47400000D02*
X46360000Y-47205113D01*
%TO.N,+5V*%
X87840000Y-113702081D02*
X87840000Y-112500000D01*
X75416601Y-126125480D02*
X87371041Y-114171041D01*
D24*
X21300000Y-113200000D02*
X20900000Y-113600000D01*
D23*
X39590000Y-102700000D02*
X29800000Y-102700000D01*
X20900000Y-86700000D02*
X20900000Y-85700000D01*
X42700000Y-131600000D02*
X49200000Y-131600000D01*
X90390000Y-102500000D02*
X99860000Y-102500000D01*
X23200000Y-104600000D02*
X20900000Y-102300000D01*
D24*
X21600000Y-113200000D02*
X21300000Y-113200000D01*
D23*
X23079511Y-117319511D02*
X23060000Y-117300000D01*
X109100000Y-119100000D02*
X110400000Y-117800000D01*
X41610000Y-117020000D02*
X39290000Y-114700000D01*
X20900000Y-83800000D02*
X20900000Y-78400000D01*
X110400000Y-113040000D02*
X112950000Y-110490000D01*
X20900000Y-102300000D02*
X20900000Y-113600000D01*
X73724520Y-126125480D02*
X75416601Y-126125480D01*
D24*
X21000000Y-99700000D02*
X20900000Y-99600000D01*
X21400000Y-89180000D02*
X20900000Y-89180000D01*
D23*
X30700000Y-114700000D02*
X28250000Y-117150000D01*
X99860000Y-102500000D02*
X110400000Y-113040000D01*
X23960000Y-89800000D02*
X20900000Y-86740000D01*
X68250000Y-131600000D02*
X71950000Y-127900000D01*
X28080489Y-117319511D02*
X23079511Y-117319511D01*
D24*
X21600000Y-89380000D02*
X21400000Y-89180000D01*
D23*
X110400000Y-100300000D02*
X110400000Y-99410000D01*
X90690000Y-91600000D02*
X102590000Y-91600000D01*
X20900000Y-85700000D02*
X20900000Y-83800000D01*
X102590000Y-91600000D02*
X110400000Y-99410000D01*
X23060000Y-117300000D02*
X20900000Y-115140000D01*
X110400000Y-96100000D02*
X110400000Y-99410000D01*
D24*
X21300000Y-117300000D02*
X23060000Y-117300000D01*
D23*
X110400000Y-84610000D02*
X110400000Y-81700000D01*
X110400000Y-109600000D02*
X110400000Y-100300000D01*
X20900000Y-99600000D02*
X20900000Y-88900000D01*
D24*
X21300000Y-85300000D02*
X20900000Y-85700000D01*
D23*
X41710000Y-104820000D02*
X39590000Y-102700000D01*
X49200000Y-131600000D02*
X68250000Y-131600000D01*
X39290000Y-114700000D02*
X30700000Y-114700000D01*
X110400000Y-117800000D02*
X110400000Y-114500000D01*
X110400000Y-99410000D02*
X112930000Y-96880000D01*
X110400000Y-113040000D02*
X110400000Y-109600000D01*
X18100000Y-103840000D02*
X19360000Y-103840000D01*
X87371041Y-114171041D02*
X92300000Y-119100000D01*
X20900000Y-86740000D02*
X20900000Y-86700000D01*
X20900000Y-102300000D02*
X20900000Y-99600000D01*
D24*
X110200000Y-86400000D02*
X110400000Y-86600000D01*
D23*
X39590000Y-89800000D02*
X23960000Y-89800000D01*
X20900000Y-115140000D02*
X18200000Y-117840000D01*
X20900000Y-113600000D02*
X20900000Y-115140000D01*
X68250000Y-131600000D02*
X73724520Y-126125480D01*
D24*
X110300000Y-114400000D02*
X110400000Y-114500000D01*
D23*
X92300000Y-119100000D02*
X109100000Y-119100000D01*
X29800000Y-102700000D02*
X27900000Y-104600000D01*
X28250000Y-117150000D02*
X28080489Y-117319511D01*
X41910000Y-92120000D02*
X39590000Y-89800000D01*
X18100000Y-89540000D02*
X20900000Y-86740000D01*
X28250000Y-117150000D02*
X42700000Y-131600000D01*
X87890000Y-88800000D02*
X90690000Y-91600000D01*
X87371041Y-114171041D02*
X87840000Y-113702081D01*
X20900000Y-88900000D02*
X20900000Y-86700000D01*
X110400000Y-86600000D02*
X110400000Y-96100000D01*
X19360000Y-103840000D02*
X20600000Y-102600000D01*
D24*
X21600000Y-85300000D02*
X21300000Y-85300000D01*
D23*
X49200000Y-131600000D02*
X52800000Y-128000000D01*
X113050000Y-81960000D02*
X110400000Y-84610000D01*
X110400000Y-114500000D02*
X110400000Y-113040000D01*
X110400000Y-84610000D02*
X110400000Y-86600000D01*
X20900000Y-78400000D02*
X24000000Y-75300000D01*
D24*
X109700000Y-114400000D02*
X110300000Y-114400000D01*
X109700000Y-86400000D02*
X110200000Y-86400000D01*
D23*
X27900000Y-104600000D02*
X23200000Y-104600000D01*
X20600000Y-102600000D02*
X20900000Y-102300000D01*
D24*
X21600000Y-99700000D02*
X21000000Y-99700000D01*
D23*
X87690000Y-99800000D02*
X90390000Y-102500000D01*
%TD*%
%TA.AperFunction,Conductor*%
%TO.N,+5V*%
G36*
X29809557Y-72001284D02*
G01*
X34062546Y-72572581D01*
X34127395Y-72601473D01*
X34134864Y-72608363D01*
X36062595Y-74536094D01*
X36096621Y-74598406D01*
X36099500Y-74625189D01*
X36099500Y-77574000D01*
X36079498Y-77642121D01*
X36025842Y-77688614D01*
X35973500Y-77700000D01*
X24352190Y-77700000D01*
X24284069Y-77679998D01*
X24263095Y-77663095D01*
X23336905Y-76736905D01*
X23302879Y-76674593D01*
X23300000Y-76647810D01*
X23300000Y-73052190D01*
X23320002Y-72984069D01*
X23336905Y-72963095D01*
X23595062Y-72704938D01*
X23605445Y-72695644D01*
X24089575Y-72308340D01*
X24111938Y-72294031D01*
X24291992Y-72204004D01*
X24308496Y-72197168D01*
X24581779Y-72106074D01*
X24619201Y-72099631D01*
X26860038Y-72056538D01*
X29790367Y-72000185D01*
X29809557Y-72001284D01*
G37*
%TD.AperFunction*%
%TD*%
%TA.AperFunction,Conductor*%
%TO.N,+3V3*%
G36*
X44537991Y-79420002D02*
G01*
X44584484Y-79473658D01*
X44595804Y-79530062D01*
X44501606Y-82450200D01*
X44479419Y-82517641D01*
X44464767Y-82535233D01*
X41494242Y-85505758D01*
X41431930Y-85539784D01*
X41361115Y-85534719D01*
X41311194Y-85500621D01*
X37232047Y-80935862D01*
X37201571Y-80871739D01*
X37200000Y-80851904D01*
X37200000Y-79526000D01*
X37220002Y-79457879D01*
X37273658Y-79411386D01*
X37326000Y-79400000D01*
X44469870Y-79400000D01*
X44537991Y-79420002D01*
G37*
%TD.AperFunction*%
%TD*%
M02*
